{
	"story": {
		"group_1": [
			{
				"autoTurnFirst": 3,
				"chara": [
					{
						"cheek": 0,
						"eyeClose": 0,
						"face": "mtn_ex_010.exp.json",
						"id": 102400,
						"motion": 300,
						"pos": 1,
						"voice": "vo_char_1024_00_01",
						"textHome": "Do you know about@Futatsugi City?"
					}
				]
			},
			{
				"autoTurnFirst": 3.5,
				"chara": [
					{
						"id": 102400,
						"motion": 100,
						"textHome": "Well, Juri the Great used to be the leader@of Ryuugasaki turf."
					}
				]
			},
			{
				"autoTurnFirst": 2.4,
				"chara": [
					{
						"cheek": 0,
						"face": "mtn_ex_011.exp.json",
						"id": 102400
					}
				]
			},
			{
				"autoTurnFirst": 2.6,
				"chara": [
					{
						"cheek": 0,
						"face": "mtn_ex_050.exp.json",
						"id": 102400,
						"motion": 1,
						"textHome": "Nowadays, me, Sis, and lil Sis@are acting together as the Three Sisters@of Promised Blood."
					}
				]
			},
			{
				"autoTurnFirst": 1.5,
				"chara": [
					{
						"eyeClose": 1,
						"id": 102400
					}
				]
			},
			{
				"autoTurnFirst": 0.1,
				"chara": [
					{
						"eyeClose": 0,
						"id": 102400
					}
				]
			},
			{
				"autoTurnFirst": 3.3,
				"chara": [
					{
						"cheek": 0,
						"face": "mtn_ex_010.exp.json",
						"id": 102400
					}
				]
			},
			{
				"autoTurnFirst": 3,
				"chara": [
					{
						"cheek": 0,
						"face": "mtn_ex_011.exp.json",
						"id": 102400,
						"motion": 0,
						"textHome": "Well, come on over@and play with us sometime."
					}
				]
			},
			{
				"autoTurnFirst": 3,
				"chara": [
					{
						"cheek": 0,
						"face": "mtn_ex_012.exp.json",
						"id": 102400,
						"motion": 200,
						"textHome": "We'll give you a warm n' toasty welcome."
					}
				]
			},
			{
				"chara": [
					{
						"id": 102400,
						"textHomeStatus": "Clear"
					}
				]
			}
		],
		"group_10": [
			{
				"autoTurnFirst": 5.5,
				"chara": [
					{
						"cheek": 0,
						"eyeClose": 0,
						"face": "mtn_ex_020.exp.json",
						"id": 102400,
						"motion": 300,
						"pos": 1,
						"voice": "vo_char_1024_00_17",
						"textHome": "When I'm pissed off, I riot.@I'll whoop the strongest guys I can find."
					}
				]
			},
			{
				"autoTurnFirst": 5.6,
				"chara": [
					{
						"cheek": 0,
						"face": "mtn_ex_010.exp.json",
						"id": 102400,
						"motion": 1,
						"textHome": "When you live on the brutish side of the world,@adrenaline comes pumping, you're set ablaze,@it's refreshing."
					}
				]
			},
			{
				"autoTurnFirst": 3,
				"chara": [
					{
						"cheek": 0,
						"face": "mtn_ex_020.exp.json",
						"id": 102400,
						"motion": 100,
						"textHome": "Who needs peace."
					}
				]
			},
			{
				"chara": [
					{
						"id": 102400,
						"textHomeStatus": "Clear"
					}
				]
			}
		],
		"group_11": [
			{
				"autoTurnFirst": 5.1,
				"chara": [
					{
						"cheek": 0,
						"eyeClose": 0,
						"face": "mtn_ex_050.exp.json",
						"id": 102400,
						"motion": 1,
						"pos": 1,
						"voice": "vo_char_1024_00_18",
						"textHome": "What am I gonna do when this conflict is over@and I'm still alive...?"
					}
				]
			},
			{
				"autoTurnFirst": 0.8,
				"chara": [
					{
						"cheek": 0,
						"face": "mtn_ex_010.exp.json",
						"id": 102400,
						"textHome": "Well, for starters,@that rematch with Sis."
					}
				]
			},
			{
				"autoTurnFirst": 3,
				"chara": [
					{
						"cheek": 0,
						"face": "mtn_ex_012.exp.json",
						"id": 102400,
						"motion": 200
					}
				]
			},
			{
				"autoTurnFirst": 6,
				"chara": [
					{
						"cheek": 0,
						"face": "mtn_ex_030.exp.json",
						"id": 102400,
						"motion": 300,
						"textHome": "In a world without enemies,@Juri the Great is gonna feel pretty lonely."
					}
				]
			},
			{
				"chara": [
					{
						"id": 102400,
						"textHomeStatus": "Clear"
					}
				]
			}
		],
		"group_12": [
			{
				"autoTurnFirst": 3.1,
				"chara": [
					{
						"cheek": 0,
						"eyeClose": 0,
						"face": "mtn_ex_012.exp.json",
						"id": 102400,
						"motion": 100,
						"pos": 1,
						"voice": "vo_char_1024_00_19",
						"textHome": "The Great Juri's flames are itching to howl!"
					}
				]
			},
			{
				"autoTurnFirst": 1.3,
				"chara": [
					{
						"id": 102400,
						"motion": 0,
						"textHome": "Can you hear it?"
					}
				]
			},
			{
				"autoTurnFirst": 3,
				"chara": [
					{
						"id": 102400,
						"motion": 200,
						"textHome": "It's the voice of all that pent up power!"
					}
				]
			},
			{
				"chara": [
					{
						"id": 102400,
						"textHomeStatus": "Clear"
					}
				]
			}
		],
		"group_13": [
			{
				"autoTurnFirst": 1.5,
				"chara": [
					{
						"cheek": 0,
						"eyeClose": 0,
						"face": "mtn_ex_011.exp.json",
						"id": 102400,
						"motion": 1,
						"pos": 1,
						"voice": "vo_char_1024_00_20",
						"textHome": "Heehee"
					}
				]
			},
			{
				"autoTurnFirst": 1.5,
				"chara": [
					{
						"cheek": 0,
						"face": "mtn_ex_010.exp.json",
						"id": 102400,
						"textHome": "Juri the Great has become@a little more patient, hasn't she?"
					}
				]
			},
			{
				"autoTurnFirst": 2,
				"chara": [
					{
						"id": 102400,
						"motion": 100
					}
				]
			},
			{
				"chara": [
					{
						"id": 102400,
						"textHomeStatus": "Clear"
					}
				]
			}
		],
		"group_14": [
			{
				"autoTurnFirst": 3.1,
				"chara": [
					{
						"cheek": 0,
						"eyeClose": 0,
						"face": "mtn_ex_020.exp.json",
						"id": 102400,
						"motion": 0,
						"pos": 1,
						"voice": "vo_char_1024_00_21",
						"textHome": "If you can't surpass Juri the Great,@then we're not partners.@End of conversation."
					}
				]
			},
			{
				"autoTurnFirst": 3.3,
				"chara": [
					{
						"id": 102400,
						"motion": 200,
						"textHome": "I got no interest in weaklings."
					}
				]
			},
			{
				"autoTurnFirst": 2.9,
				"chara": [
					{
						"id": 102400,
						"motion": 0,
						"textHome": "Come at me only if you're confident@in your abilities,"
					}
				]
			},
			{
				"autoTurnFirst": 3,
				"chara": [
					{
						"cheek": 0,
						"face": "mtn_ex_012.exp.json",
						"id": 102400,
						"motion": 400,
						"textHome": "and maybe then,@I'll sear you well-done."
					}
				]
			},
			{
				"chara": [
					{
						"id": 102400,
						"textHomeStatus": "Clear"
					}
				]
			}
		],
		"group_15": [
			{
				"autoTurnFirst": 6.5,
				"chara": [
					{
						"cheek": 0,
						"eyeClose": 0,
						"face": "mtn_ex_032.exp.json",
						"id": 102400,
						"motion": 0,
						"pos": 1,
						"voice": "vo_char_1024_00_22",
						"textHome": "Yeah, I killed a bunch of people.@Selfish? Maybe."
					}
				]
			},
			{
				"autoTurnFirst": 3.5,
				"chara": [
					{
						"cheek": 0,
						"face": "mtn_ex_020.exp.json",
						"id": 102400,
						"motion": 300,
						"textHome": "Point is, they're part of the reason@I keep the flames burning,@and it's why I can't afford to lose."
					}
				]
			},
			{
				"autoTurnFirst": 3.2,
				"chara": [
					{
						"eyeClose": 1,
						"id": 102400
					}
				]
			},
			{
				"autoTurnFirst": 0.1,
				"chara": [
					{
						"eyeClose": 0,
						"id": 102400
					}
				]
			},
			{
				"autoTurnFirst": 3.2,
				"chara": [
					{
						"cheek": 0,
						"face": "mtn_ex_021.exp.json",
						"id": 102400,
						"motion": 200,
						"textHome": "That's why I call myself Juri the Great."
					}
				]
			},
			{
				"autoTurnFirst": 5,
				"chara": [
					{
						"id": 102400,
						"motion": 100,
						"textHome": "Sure it's a bluff, but@it keeps me strong til the bitter end."
					}
				]
			},
			{
				"chara": [
					{
						"id": 102400,
						"textHomeStatus": "Clear"
					}
				]
			}
		],
		"group_16": [
			{
				"autoTurnFirst": 4.1,
				"chara": [
					{
						"cheek": 0,
						"eyeClose": 0,
						"face": "mtn_ex_020.exp.json",
						"id": 102400,
						"motion": 1,
						"pos": 1,
						"voice": "vo_char_1024_00_23",
						"textHome": "If you dig a little deeper, you'll find that@Juri the Great was the cause@for the Futatsugi War..."
					}
				]
			},
			{
				"autoTurnFirst": 3.3,
				"chara": [
					{
						"cheek": 0,
						"eyeClose": 1,
						"face": "mtn_ex_030.exp.json",
						"id": 102400
					}
				]
			},
			{
				"autoTurnFirst": 0.1,
				"chara": [
					{
						"eyeClose": 0,
						"id": 102400,
						"textHome": "...and I dragged Sis into it."
					}
				]
			},
			{
				"autoTurnFirst": 2.5,
				"chara": [
					{
						"cheek": 0,
						"face": "mtn_ex_020.exp.json",
						"id": 102400,
						"motion": 300
					}
				]
			},
			{
				"autoTurnFirst": 3.5,
				"chara": [
					{
						"cheek": 0,
						"face": "mtn_ex_030.exp.json",
						"id": 102400,
						"textHome": "I do feel responsible,"
					}
				]
			},
			{
				"autoTurnFirst": 4.4,
				"chara": [
					{
						"cheek": 0,
						"face": "mtn_ex_020.exp.json",
						"id": 102400,
						"motion": 0,
						"textHome": "but you know,@it's not something that you can avoid@in the world of Magical Girls."
					}
				]
			},
			{
				"autoTurnFirst": 5,
				"chara": [
					{
						"id": 102400,
						"motion": 200,
						"textHome": "You've got no choice@when you live on the border@of life and death."
					}
				]
			},
			{
				"chara": [
					{
						"id": 102400,
						"textHomeStatus": "Clear"
					}
				]
			}
		],
		"group_17": [
			{
				"autoTurnFirst": 2.6,
				"chara": [
					{
						"cheek": 0,
						"eyeClose": 0,
						"face": "mtn_ex_011.exp.json",
						"id": 102400,
						"motion": 400,
						"pos": 1,
						"voice": "vo_char_1024_00_24",
						"textHome": "Oh! You're here!"
					}
				]
			},
			{
				"autoTurnFirst": 4.7,
				"chara": [
					{
						"cheek": 0,
						"face": "mtn_ex_010.exp.json",
						"id": 102400,
						"motion": 0,
						"textHome": "Sorry to make you do this right away,@but I'mma have you be my practice partner@for this fighting game."
					}
				]
			},
			{
				"autoTurnFirst": 4.5,
				"chara": [
					{
						"cheek": 0,
						"face": "mtn_ex_012.exp.json",
						"id": 102400,
						"motion": 100,
						"textHome": "If you can beat Juri the Great,@I'll hear you out on any one thing you want."
					}
				]
			},
			{
				"autoTurnFirst": 2,
				"chara": [
					{
						"cheek": 0,
						"face": "mtn_ex_011.exp.json",
						"id": 102400,
						"textHome": "Heehee"
					}
				]
			},
			{
				"chara": [
					{
						"id": 102400,
						"textHomeStatus": "Clear"
					}
				]
			}
		],
		"group_18": [
			{
				"autoTurnFirst": 2.1,
				"chara": [
					{
						"cheek": 0,
						"eyeClose": 0,
						"face": "mtn_ex_050.exp.json",
						"id": 102400,
						"motion": 400,
						"pos": 1,
						"voice": "vo_char_1024_00_25",
						"textHome": "Guh! That was close~"
					}
				]
			},
			{
				"autoTurnFirst": 2.9,
				"chara": [
					{
						"id": 102400,
						"motion": 0,
						"textHome": "I almost chucked my smartphone somewhere."
					}
				]
			},
			{
				"autoTurnFirst": 3.7,
				"chara": [
					{
						"cheek": 0,
						"face": "mtn_ex_030.exp.json",
						"id": 102400,
						"motion": 1,
						"textHome": "If it was an alarm clock,@it'd be completely gone."
					}
				]
			},
			{
				"autoTurnFirst": 2.6,
				"chara": [
					{
						"cheek": 0,
						"face": "mtn_ex_050.exp.json",
						"id": 102400,
						"textHome": "Wait...@That wasn't an alarm,@that was a call from Ranka."
					}
				]
			},
			{
				"autoTurnFirst": 3,
				"chara": [
					{
						"cheek": 0,
						"face": "mtn_ex_030.exp.json",
						"id": 102400,
						"motion": 100
					}
				]
			},
			{
				"chara": [
					{
						"id": 102400,
						"textHomeStatus": "Clear"
					}
				]
			}
		],
		"group_19": [
			{
				"autoTurnFirst": 5.9,
				"chara": [
					{
						"cheek": 0,
						"eyeClose": 0,
						"face": "mtn_ex_050.exp.json",
						"id": 102400,
						"motion": 1,
						"pos": 1,
						"voice": "vo_char_1024_00_26",
						"textHome": "When I feel like it,@sometimes I make lunch for me and Pops,"
					}
				]
			},
			{
				"autoTurnFirst": 3.1,
				"chara": [
					{
						"cheek": 0,
						"face": "mtn_ex_010.exp.json",
						"id": 102400,
						"motion": 0,
						"textHome": "but I usually get bread from the canteen."
					}
				]
			},
			{
				"autoTurnFirst": 6,
				"chara": [
					{
						"cheek": 0,
						"face": "mtn_ex_030.exp.json",
						"id": 102400,
						"motion": 200,
						"textHome": "There's nothing but rich girls at my school,@so there's only pastries@and sweet stuff to eat."
					}
				]
			},
			{
				"chara": [
					{
						"id": 102400,
						"textHomeStatus": "Clear"
					}
				]
			}
		],
		"group_2": [
			{
				"autoTurnFirst": 1.7,
				"chara": [
					{
						"cheek": 0,
						"eyeClose": 0,
						"face": "mtn_ex_021.exp.json",
						"id": 102400,
						"motion": 0,
						"pos": 1,
						"voice": "vo_char_1024_00_02",
						"textHome": "Haaah??"
					}
				]
			},
			{
				"autoTurnFirst": 5,
				"chara": [
					{
						"cheek": 0,
						"face": "mtn_ex_012.exp.json",
						"id": 102400,
						"motion": 100,
						"textHome": "Don't expect Juri Ooba to hear you out@that easily."
					}
				]
			},
			{
				"autoTurnFirst": 3.2,
				"chara": [
					{
						"id": 102400,
						"motion": 1,
						"textHome": "If you want me to listen so bad,@you're gonna have to come an' make me listen."
					}
				]
			},
			{
				"autoTurnFirst": 5,
				"chara": [
					{
						"id": 102400,
						"motion": 200,
						"textHome": "Conversation doesn't start until@we exchange fists first."
					}
				]
			},
			{
				"chara": [
					{
						"id": 102400,
						"textHomeStatus": "Clear"
					}
				]
			}
		],
		"group_20": [
			{
				"autoTurnFirst": 2.6,
				"chara": [
					{
						"cheek": 0,
						"eyeClose": 0,
						"face": "mtn_ex_030.exp.json",
						"id": 102400,
						"motion": 300,
						"pos": 1,
						"voice": "vo_char_1024_00_27",
						"textHome": "I went through a lotta hardship@to get into my current school, but"
					}
				]
			},
			{
				"autoTurnFirst": 4.7,
				"chara": [
					{
						"eyeClose": 1,
						"id": 102400,
						"textHome": "the teachers and classmates@who put on a face of peace make me sick."
					}
				]
			},
			{
				"autoTurnFirst": 0.1,
				"chara": [
					{
						"eyeClose": 0,
						"id": 102400
					}
				]
			},
			{
				"autoTurnFirst": 3.4,
				"chara": [
					{
						"cheek": 0,
						"face": "mtn_ex_012.exp.json",
						"id": 102400,
						"motion": 200,
						"textHome": "That's why afterschool is the friggin best.@I can unleash my stress against Witches."
					}
				]
			},
			{
				"autoTurnFirst": 5,
				"chara": [
					{
						"id": 102400,
						"motion": 400
					}
				]
			},
			{
				"chara": [
					{
						"id": 102400,
						"textHomeStatus": "Clear"
					}
				]
			}
		],
		"group_21": [
			{
				"autoTurnFirst": 3.8,
				"chara": [
					{
						"cheek": 0,
						"eyeClose": 0,
						"face": "mtn_ex_011.exp.json",
						"id": 102400,
						"motion": 0,
						"pos": 1,
						"voice": "vo_char_1024_00_28",
						"textHome": "Maaaaan!@The Great Juri is in a great mood!"
					}
				]
			},
			{
				"autoTurnFirst": 5.6,
				"chara": [
					{
						"cheek": 0,
						"face": "mtn_ex_010.exp.json",
						"id": 102400,
						"motion": 1,
						"textHome": "Kids used t'go missing@this time of night, but nowadays@their folks are finding ‘em right away."
					}
				]
			},
			{
				"autoTurnFirst": 5,
				"chara": [
					{
						"cheek": 0,
						"face": "mtn_ex_011.exp.json",
						"id": 102400,
						"motion": 400,
						"textHome": "Nothin' to do but@drink the night away with some soda!"
					}
				]
			},
			{
				"chara": [
					{
						"id": 102400,
						"textHomeStatus": "Clear"
					}
				]
			}
		],
		"group_22": [
			{
				"autoTurnFirst": 4.2,
				"chara": [
					{
						"cheek": 0,
						"eyeClose": 0,
						"face": "mtn_ex_050.exp.json",
						"id": 102400,
						"motion": 100,
						"pos": 1,
						"voice": "vo_char_1024_00_29",
						"textHome": "What d'you mean?@C'mon, stay a little longer."
					}
				]
			},
			{
				"autoTurnFirst": 2.1,
				"chara": [
					{
						"cheek": 0,
						"face": "mtn_ex_020.exp.json",
						"id": 102400,
						"motion": 0,
						"textHome": "I still have free time, after all."
					}
				]
			},
			{
				"autoTurnFirst": 3.6,
				"chara": [
					{
						"cheek": 1,
						"face": "mtn_ex_050.exp.json",
						"id": 102400,
						"motion": 400,
						"textHome": "Augh, uh,@it's not like I'm lonely@or anything like that."
					}
				]
			},
			{
				"autoTurnFirst": 3.3,
				"chara": [
					{
						"cheek": 1,
						"face": "mtn_ex_030.exp.json",
						"id": 102400,
						"motion": 0,
						"textHome": "It's just...@I'm all by myself...@and I got nothing to do."
					}
				]
			},
			{
				"autoTurnFirst": 5,
				"chara": [
					{
						"id": 102400,
						"motion": 300
					}
				]
			},
			{
				"chara": [
					{
						"id": 102400,
						"textHomeStatus": "Clear"
					}
				]
			}
		],
		"group_23": [
			{
				"autoTurnFirst": 3.8,
				"chara": [
					{
						"cheek": 0,
						"eyeClose": 0,
						"face": "mtn_ex_012.exp.json",
						"id": 102400,
						"motion": 200,
						"pos": 1,
						"voice": "vo_char_1024_00_30",
						"textHome": "Alright!@Witch detected!"
					}
				]
			},
			{
				"autoTurnFirst": 3.4,
				"chara": [
					{
						"id": 102400,
						"motion": 0,
						"textHome": "This one's prey for Juri the Great,@so hands off."
					}
				]
			},
			{
				"autoTurnFirst": 5,
				"chara": [
					{
						"id": 102400,
						"motion": 100,
						"textHome": "If you get in my way,@I'll cook you along with the Witch@til you're both well-done."
					}
				]
			},
			{
				"chara": [
					{
						"id": 102400,
						"textHomeStatus": "Clear"
					}
				]
			}
		],
		"group_24": [
			{
				"autoTurnFirst": 7.3,
				"chara": [
					{
						"cheek": 0,
						"eyeClose": 1,
						"face": "mtn_ex_010.exp.json",
						"id": 102400,
						"motion": 1,
						"pos": 1,
						"voice": "vo_char_1024_00_31",
						"textHome": "'You're better off challenging copies@from Endless Mirrors to relieve your stress,@you know...'"
					}
				]
			},
			{
				"autoTurnFirst": 0.1,
				"chara": [
					{
						"eyeClose": 0,
						"id": 102400
					}
				]
			},
			{
				"autoTurnFirst": 4,
				"chara": [
					{
						"cheek": 0,
						"face": "mtn_ex_020.exp.json",
						"id": 102400,
						"motion": 0,
						"textHome": "...is what Sis said, but@she's got it all wrong."
					}
				]
			},
			{
				"autoTurnFirst": 5,
				"chara": [
					{
						"cheek": 0,
						"face": "mtn_ex_030.exp.json",
						"id": 102400,
						"motion": 300,
						"textHome": "After all,@they're just fakes at best."
					}
				]
			},
			{
				"chara": [
					{
						"id": 102400,
						"textHomeStatus": "Clear"
					}
				]
			}
		],
		"group_25": [
			{
				"autoTurnFirst": 4.9,
				"chara": [
					{
						"cheek": 0,
						"eyeClose": 0,
						"face": "mtn_ex_011.exp.json",
						"id": 102400,
						"motion": 200,
						"pos": 1,
						"voice": "vo_char_1024_00_32",
						"textHome": "Say what?@Magical Girls are swarming together@and duking it out?"
					}
				]
			},
			{
				"autoTurnFirst": 2,
				"chara": [
					{
						"cheek": 0,
						"face": "mtn_ex_010.exp.json",
						"id": 102400,
						"motion": 0,
						"textHome": "You just KNOW Juri the Great has gotta@bust in there and flex her stuff!"
					}
				]
			},
			{
				"autoTurnFirst": 4,
				"chara": [
					{
						"cheek": 0,
						"face": "mtn_ex_011.exp.json",
						"id": 102400,
						"motion": 100
					}
				]
			},
			{
				"chara": [
					{
						"id": 102400,
						"textHomeStatus": "Clear"
					}
				]
			}
		],
		"group_26": [
			{
				"autoTurnFirst": 3.9,
				"chara": [
					{
						"cheek": 0,
						"eyeClose": 0,
						"face": "mtn_ex_050.exp.json",
						"id": 102400,
						"motion": 0,
						"pos": 1,
						"voice": "vo_char_1024_00_33",
						"textHome": "Uggh, seriously!?"
					}
				]
			},
			{
				"autoTurnFirst": 6,
				"chara": [
					{
						"cheek": 0,
						"face": "mtn_ex_030.exp.json",
						"id": 102400,
						"motion": 300,
						"textHome": "If it just ends on this cliffhanger,@it's gonna leave me feeling crazy unsatisfied."
					}
				]
			},
			{
				"autoTurnFirst": 3.2,
				"chara": [
					{
						"cheek": 0,
						"face": "mtn_ex_020.exp.json",
						"id": 102400,
						"motion": 0,
						"textHome": "If I pay up,@I can read the next one, but..."
					}
				]
			},
			{
				"autoTurnFirst": 2.9,
				"chara": [
					{
						"cheek": 0,
						"eyeClose": 1,
						"face": "mtn_ex_021.exp.json",
						"id": 102400,
						"motion": 1,
						"textHome": "Guhh...what should I even do?"
					}
				]
			},
			{
				"autoTurnFirst": 3,
				"chara": [
					{
						"id": 102400,
						"motion": 400,
						"textHome": "...The struggle...!"
					}
				]
			},
			{
				"chara": [
					{
						"id": 102400,
						"textHomeStatus": "Clear"
					}
				]
			}
		],
		"group_27": [
			{
				"autoTurnFirst": 4.7,
				"chara": [
					{
						"cheek": 0,
						"eyeClose": 0,
						"face": "mtn_ex_050.exp.json",
						"id": 102400,
						"motion": 100,
						"pos": 1,
						"voice": "vo_char_1024_00_34",
						"textHome": "Like I said, it's what you'd expect,@when I'm with Pops,@my pronoun is watashi."
					}
				]
			},
			{
				"autoTurnFirst": 4.2,
				"chara": [
					{
						"cheek": 0,
						"face": "mtn_ex_020.exp.json",
						"id": 102400,
						"motion": 0,
						"textHome": "Juri the Great is just something I made up."
					}
				]
			},
			{
				"autoTurnFirst": 4,
				"chara": [
					{
						"id": 102400,
						"motion": 200,
						"textHome": "I only use it when@I'm with Magical Girls."
					}
				]
			},
			{
				"chara": [
					{
						"id": 102400,
						"textHomeStatus": "Clear"
					}
				]
			}
		],
		"group_28": [
			{
				"autoTurnFirst": 4.1,
				"chara": [
					{
						"cheek": 0,
						"eyeClose": 0,
						"face": "mtn_ex_012.exp.json",
						"id": 102400,
						"motion": 0,
						"pos": 1,
						"voice": "vo_char_1024_00_35",
						"textHome": "'Life is all about crushing the enemy@in front of you.'"
					}
				]
			},
			{
				"autoTurnFirst": 4.5,
				"chara": [
					{
						"cheek": 0,
						"face": "mtn_ex_010.exp.json",
						"id": 102400,
						"motion": 1,
						"textHome": "Whether it's boxing or work,@that's the motto Pops always keeps@whenever he's fighting his battles."
					}
				]
			},
			{
				"autoTurnFirst": 5,
				"chara": [
					{
						"cheek": 0,
						"face": "mtn_ex_011.exp.json",
						"id": 102400,
						"motion": 200,
						"textHome": "Juri the Great is also carrying that torch."
					}
				]
			},
			{
				"chara": [
					{
						"id": 102400,
						"textHomeStatus": "Clear"
					}
				]
			}
		],
		"group_29": [
			{
				"autoTurnFirst": 4.3,
				"chara": [
					{
						"cheek": 0,
						"eyeClose": 0,
						"face": "mtn_ex_012.exp.json",
						"id": 102400,
						"motion": 400,
						"pos": 1,
						"voice": "vo_char_1024_00_36",
						"textHome": "Aight!@This time, let's have that rematch@with a fighting game."
					}
				]
			},
			{
				"autoTurnFirst": 2.8,
				"chara": [
					{
						"id": 102400,
						"motion": 0,
						"textHome": "I've gone at it so many times,@my thumb is pretty much worn out."
					}
				]
			},
			{
				"autoTurnFirst": 2.3,
				"chara": [
					{
						"id": 102400,
						"motion": 100,
						"textHome": "There's no way I'm gonna lose."
					}
				]
			},
			{
				"autoTurnFirst": 1.8,
				"chara": [
					{
						"id": 102400,
						"motion": 1,
						"textHome": "Loser treats."
					}
				]
			},
			{
				"autoTurnFirst": 3,
				"chara": [
					{
						"cheek": 0,
						"face": "mtn_ex_011.exp.json",
						"id": 102400,
						"textHome": "Heehee"
					}
				]
			},
			{
				"chara": [
					{
						"id": 102400,
						"textHomeStatus": "Clear"
					}
				]
			}
		],
		"group_3": [
			{
				"autoTurnFirst": 3,
				"chara": [
					{
						"cheek": 1,
						"eyeClose": 0,
						"face": "mtn_ex_021.exp.json",
						"id": 102400,
						"motion": 300,
						"pos": 1,
						"voice": "vo_char_1024_00_03"
					}
				]
			},
			{
				"autoTurnFirst": 0.8,
				"chara": [
					{
						"cheek": 1,
						"eyeClose": 1,
						"face": "mtn_ex_020.exp.json",
						"id": 102400,
						"motion": 0
					}
				]
			},
			{
				"autoTurnFirst": 4,
				"chara": [
					{
						"cheek": 1,
						"eyeClose": 0,
						"face": "mtn_ex_030.exp.json",
						"id": 102400,
						"motion": 0
					}
				]
			},
			{
				"chara": [
					{
						"id": 102400,
						"textHomeStatus": "Clear"
					}
				]
			}
		],
		"group_30": [
			{
				"autoTurnFirst": 4,
				"chara": [
					{
						"cheek": 0,
						"eyeClose": 0,
						"face": "mtn_ex_020.exp.json",
						"id": 102400,
						"motion": 0,
						"pos": 1,
						"voice": "vo_char_1024_00_37",
						"textHome": "Juri the Great has crushed plenty of enemies,"
					}
				]
			},
			{
				"autoTurnFirst": 3.7,
				"chara": [
					{
						"cheek": 0,
						"face": "mtn_ex_030.exp.json",
						"id": 102400,
						"motion": 300,
						"textHome": "but studying and gaming seem to be@the only things I can't do right."
					}
				]
			},
			{
				"autoTurnFirst": 1.5,
				"chara": [
					{
						"cheek": 1,
						"id": 102400,
						"motion": 0,
						"textHome": "No matter how much I sink my teeth@and chew away at it,"
					}
				]
			},
			{
				"autoTurnFirst": 3,
				"chara": [
					{
						"cheek": 1,
						"eyeClose": 1,
						"face": "mtn_ex_060.exp.json",
						"id": 102400,
						"motion": 400,
						"textHome": "I just can't keep up@with my sisters."
					}
				]
			},
			{
				"chara": [
					{
						"id": 102400,
						"textHomeStatus": "Clear"
					}
				]
			}
		],
		"group_31": [
			{
				"autoTurnFirst": 7.3,
				"chara": [
					{
						"cheek": 0,
						"eyeClose": 0,
						"face": "mtn_ex_030.exp.json",
						"id": 102400,
						"motion": 1,
						"pos": 1,
						"voice": "vo_char_1024_00_38",
						"textHome": "Pops is still in his thirties,@so I thought it'd be fine if he hurried up@and married a second time,"
					}
				]
			},
			{
				"autoTurnFirst": 1.8,
				"chara": [
					{
						"id": 102400,
						"motion": 0,
						"textHome": "but for some reason..."
					}
				]
			},
			{
				"autoTurnFirst": 2.5,
				"chara": [
					{
						"eyeClose": 1,
						"id": 102400,
						"textHome": "when I stop and think about that,"
					}
				]
			},
			{
				"autoTurnFirst": 0.1,
				"chara": [
					{
						"eyeClose": 0,
						"id": 102400
					}
				]
			},
			{
				"autoTurnFirst": 3,
				"chara": [
					{
						"cheek": 1,
						"face": "mtn_ex_020.exp.json",
						"id": 102400,
						"motion": 100,
						"textHome": "it kinda irritates me."
					}
				]
			},
			{
				"chara": [
					{
						"id": 102400,
						"textHomeStatus": "Clear"
					}
				]
			}
		],
		"group_32": [
			{
				"autoTurnFirst": 2.5,
				"chara": [
					{
						"cheek": 0,
						"eyeClose": 0,
						"face": "mtn_ex_032.exp.json",
						"id": 102400,
						"motion": 300,
						"pos": 1,
						"voice": "vo_char_1024_00_39",
						"textHome": "The one who died was someone I knew."
					}
				]
			},
			{
				"autoTurnFirst": 3.8,
				"chara": [
					{
						"cheek": 0,
						"face": "mtn_ex_030.exp.json",
						"id": 102400,
						"textHome": "I remember."
					}
				]
			},
			{
				"autoTurnFirst": 2,
				"chara": [
					{
						"cheek": 0,
						"face": "mtn_ex_010.exp.json",
						"id": 102400,
						"motion": 0,
						"textHome": "This may come as a surprise, but"
					}
				]
			},
			{
				"autoTurnFirst": 4,
				"chara": [
					{
						"cheek": 0,
						"face": "mtn_ex_030.exp.json",
						"id": 102400,
						"motion": 200,
						"textHome": "she's the one who came up with@\"Juri the Great\"."
					}
				]
			},
			{
				"chara": [
					{
						"id": 102400,
						"textHomeStatus": "Clear"
					}
				]
			}
		],
		"group_33": [
			{
				"autoTurnFirst": 6,
				"chara": [
					{
						"cheek": 0,
						"eyeClose": 0,
						"face": "mtn_ex_030.exp.json",
						"id": 102400,
						"motion": 1,
						"pos": 1,
						"voice": "vo_char_1024_00_40",
						"textHome": "Everyone...realizes this is all@the Great Juri's fault, right?"
					}
				]
			},
			{
				"autoTurnFirst": 2.9,
				"chara": [
					{
						"cheek": 0,
						"eyeClose": 1,
						"face": "mtn_ex_010.exp.json",
						"id": 102400,
						"motion": 0,
						"textHome": "It's a wonder how we're all@working and scheming together like this."
					}
				]
			},
			{
				"autoTurnFirst": 0.1,
				"chara": [
					{
						"eyeClose": 0,
						"id": 102400,
						"textHome": "I'm sure someday,@the Third Sister will kill me."
					}
				]
			},
			{
				"autoTurnFirst": 5,
				"chara": [
					{
						"cheek": 0,
						"face": "mtn_ex_010.exp.json",
						"id": 102400,
						"motion": 100
					}
				]
			},
			{
				"chara": [
					{
						"id": 102400,
						"textHomeStatus": "Clear"
					}
				]
			}
		],
		"group_34": [
			{
				"autoTurnFirst": 3.9,
				"chara": [
					{
						"cheek": 0,
						"eyeClose": 0,
						"face": "mtn_ex_012.exp.json",
						"id": 102400,
						"motion": 100,
						"pos": 1,
						"voice": "vo_char_1024_00_41",
						"textHome": "Here, you can have mine.@The carrots."
					}
				]
			},
			{
				"autoTurnFirst": 4.9,
				"chara": [
					{
						"cheek": 0,
						"face": "mtn_ex_011.exp.json",
						"id": 102400,
						"motion": 200,
						"textHome": "Nononodontbeshy!@If it's carrots,@take as much as you like!"
					}
				]
			},
			{
				"autoTurnFirst": 5,
				"chara": [
					{
						"cheek": 0,
						"face": "mtn_ex_012.exp.json",
						"id": 102400,
						"motion": 0,
						"textHome": "If this was Ranka,@she'd be happy to."
					}
				]
			},
			{
				"chara": [
					{
						"id": 102400,
						"textHomeStatus": "Clear"
					}
				]
			}
		],
		"group_35": [
			{
				"autoTurnFirst": 5,
				"chara": [
					{
						"cheek": 0,
						"eyeClose": 0,
						"face": "mtn_ex_012.exp.json",
						"id": 102400,
						"motion": 400,
						"pos": 1,
						"voice": "vo_char_1024_00_42",
						"textHome": "How about we go with a burst of flames?"
					}
				]
			},
			{
				"chara": [
					{
						"id": 102400,
						"textHomeStatus": "Clear"
					}
				]
			}
		],
		"group_36": [
			{
				"autoTurnFirst": 5,
				"chara": [
					{
						"cheek": 0,
						"eyeClose": 0,
						"face": "mtn_ex_012.exp.json",
						"id": 102400,
						"motion": 200,
						"pos": 1,
						"voice": "vo_char_1024_00_43",
						"textHome": "Feels like it's been burnt to a crisp."
					}
				]
			},
			{
				"chara": [
					{
						"id": 102400,
						"textHomeStatus": "Clear"
					}
				]
			}
		],
		"group_37": [
			{
				"autoTurnFirst": 1.2,
				"chara": [
					{
						"cheek": 0,
						"eyeClose": 0,
						"face": "mtn_ex_012.exp.json",
						"id": 102400,
						"motion": 0,
						"pos": 1,
						"voice": "vo_char_1024_00_44",
						"textHome": "Juri the Great ain't fired up just yet."
					}
				]
			},
			{
				"autoTurnFirst": 3,
				"chara": [
					{
						"id": 102400,
						"motion": 100
					}
				]
			},
			{
				"chara": [
					{
						"id": 102400,
						"textHomeStatus": "Clear"
					}
				]
			}
		],
		"group_38": [
			{
				"autoTurnFirst": 5,
				"chara": [
					{
						"cheek": 0,
						"eyeClose": 0,
						"face": "mtn_ex_012.exp.json",
						"id": 102400,
						"motion": 200,
						"pos": 1,
						"voice": "vo_char_1024_00_45",
						"textHome": "How do you feel about@getting served well-done?"
					}
				]
			},
			{
				"chara": [
					{
						"id": 102400,
						"textHomeStatus": "Clear"
					}
				]
			}
		],
		"group_39": [
			{
				"autoTurnFirst": 5,
				"chara": [
					{
						"cheek": 0,
						"eyeClose": 0,
						"face": "mtn_ex_012.exp.json",
						"id": 102400,
						"motion": 300,
						"pos": 1,
						"voice": "vo_char_1024_00_46",
						"textHome": "There won't even be charcoal left@when I'm done."
					}
				]
			},
			{
				"chara": [
					{
						"id": 102400,
						"textHomeStatus": "Clear"
					}
				]
			}
		],
		"group_4": [
			{
				"autoTurnFirst": 2.2,
				"chara": [
					{
						"cheek": 0,
						"eyeClose": 0,
						"face": "mtn_ex_020.exp.json",
						"id": 102400,
						"motion": 0,
						"pos": 1,
						"voice": "vo_char_1024_00_04"
					}
				]
			},
			{
				"autoTurnFirst": 3,
				"chara": [
					{
						"id": 102400,
						"motion": 100
					}
				]
			},
			{
				"chara": [
					{
						"id": 102400,
						"textHomeStatus": "Clear"
					}
				]
			}
		],
		"group_40": [
			{
				"autoTurnFirst": 0.1,
				"chara": [
					{
						"cheek": 0,
						"eyeClose": 0,
						"face": "mtn_ex_030.exp.json",
						"id": 102400,
						"motion": 300,
						"pos": 1,
						"voice": "vo_game_0502_01",
						"textHome": "Arghhhh..."
					}
				]
			},
			{
				"autoTurnFirst": 1.5,
				"chara": [
					{
						"eyeClose": 1,
						"id": 102400
					}
				]
			},
			{
				"autoTurnFirst": 0.1,
				"chara": [
					{
						"eyeClose": 0,
						"id": 102400,
						"textHome": "Bein' a shopkeeper@doesn't help me@train my body at all..."
					}
				]
			},
			{
				"autoTurnFirst": 4.5,
				"chara": [
					{
						"cheek": 0,
						"face": "mtn_ex_020.exp.json",
						"id": 102400
					}
				]
			},
			{
				"autoTurnFirst": 1.5,
				"chara": [
					{
						"cheek": 0,
						"face": "mtn_ex_011.exp.json",
						"id": 102400,
						"motion": 0,
						"textHome": "Oh, I know!"
					}
				]
			},
			{
				"autoTurnFirst": 1.1,
				"chara": [
					{
						"cheek": 0,
						"face": "mtn_ex_010.exp.json",
						"id": 102400,
						"motion": 100,
						"textHome": "How 'bout you help@Juri the Great out?"
					}
				]
			},
			{
				"autoTurnFirst": 2.5,
				"chara": [
					{
						"cheek": 0,
						"face": "mtn_ex_012.exp.json",
						"id": 102400
					}
				]
			},
			{
				"chara": [
					{
						"id": 102400,
						"textHomeStatus": "Clear"
					}
				]
			}
		],
		"group_41": [
			{
				"autoTurnFirst": 2,
				"chara": [
					{
						"cheek": 0,
						"eyeClose": 0,
						"face": "mtn_ex_020.exp.json",
						"id": 102400,
						"motion": 0,
						"pos": 1,
						"voice": "vo_game_0502_02",
						"textHome": "Whatever you want me@to do, Juri the Great@will give it her all."
					}
				]
			},
			{
				"autoTurnFirst": 3.4,
				"chara": [
					{
						"id": 102400,
						"motion": 200
					}
				]
			},
			{
				"autoTurnFirst": 4.5,
				"chara": [
					{
						"id": 102400,
						"motion": 1,
						"textHome": "Never thought@I'd be filling in@as a shopkeeper, though."
					}
				]
			},
			{
				"chara": [
					{
						"id": 102400,
						"textHomeStatus": "Clear"
					}
				]
			}
		],
		"group_42": [
			{
				"autoTurnFirst": 1.4,
				"chara": [
					{
						"cheek": 0,
						"eyeClose": 0,
						"face": "mtn_ex_021.exp.json",
						"id": 102400,
						"motion": 400,
						"pos": 1,
						"voice": "vo_game_0502_03",
						"textHome": "You there!"
					}
				]
			},
			{
				"autoTurnFirst": 5,
				"chara": [
					{
						"cheek": 0,
						"face": "mtn_ex_020.exp.json",
						"id": 102400,
						"motion": 0,
						"textHome": "Don't you get it?@If you try shoplifting@one more time,"
					}
				]
			},
			{
				"autoTurnFirst": 1.8,
				"chara": [
					{
						"id": 102400,
						"motion": 100,
						"textHome": "I'll cook you to well done!"
					}
				]
			},
			{
				"autoTurnFirst": 1.7,
				"chara": [
					{
						"cheek": 0,
						"face": "mtn_ex_012.exp.json",
						"id": 102400,
						"textHome": "Don't say I didn't warn ya."
					}
				]
			},
			{
				"chara": [
					{
						"id": 102400,
						"textHomeStatus": "Clear"
					}
				]
			}
		],
		"group_43": [
			{
				"autoTurnFirst": 1.9,
				"chara": [
					{
						"cheek": 0,
						"eyeClose": 0,
						"face": "mtn_ex_010.exp.json",
						"id": 102400,
						"motion": 300,
						"pos": 1,
						"voice": "vo_game_0502_04",
						"textHome": "Welcome!"
					}
				]
			},
			{
				"autoTurnFirst": 4.1,
				"chara": [
					{
						"id": 102400,
						"motion": 0,
						"textHome": "If there's a product@anyone needs,@we have it here."
					}
				]
			},
			{
				"autoTurnFirst": 1.6,
				"chara": [
					{
						"cheek": 1,
						"face": "mtn_ex_050.exp.json",
						"id": 102400,
						"textHome": "...W-What?!@Somethin' wrong with me@takin' this seriously?!"
					}
				]
			},
			{
				"autoTurnFirst": 4,
				"chara": [
					{
						"cheek": 1,
						"face": "mtn_ex_020.exp.json",
						"id": 102400,
						"motion": 200
					}
				]
			},
			{
				"chara": [
					{
						"id": 102400,
						"textHomeStatus": "Clear"
					}
				]
			}
		],
		"group_44": [
			{
				"autoTurnFirst": 3.5,
				"chara": [
					{
						"cheek": 0,
						"eyeClose": 0,
						"face": "mtn_ex_030.exp.json",
						"id": 102400,
						"motion": 1,
						"pos": 1,
						"voice": "vo_game_0502_08",
						"textHome": "I don't get how someone@could have any energy@this early in the morning."
					}
				]
			},
			{
				"autoTurnFirst": 2.7,
				"chara": [
					{
						"cheek": 1,
						"eyeClose": 1,
						"id": 102400,
						"motion": 300,
						"textHome": "*Yawn*..."
					}
				]
			},
			{
				"autoTurnFirst": 0.1,
				"chara": [
					{
						"eyeClose": 0,
						"id": 102400,
						"textHome": "Juri the Great secretly@wants to keep the shop@closed still..."
					}
				]
			},
			{
				"autoTurnFirst": 4.7,
				"chara": [
					{
						"cheek": 0,
						"id": 102400
					}
				]
			},
			{
				"autoTurnFirst": 3,
				"chara": [
					{
						"id": 102400,
						"motion": 100,
						"textHome": "Lemme sleep some more..."
					}
				]
			},
			{
				"autoTurnFirst": 1.5,
				"chara": [
					{
						"id": 102400,
						"motion": 300,
						"textHome": "Aghhh, what a pain..."
					}
				]
			},
			{
				"autoTurnFirst": 2.5,
				"chara": [
					{
						"cheek": 0,
						"eyeClose": 1,
						"face": "mtn_ex_060.exp.json",
						"id": 102400
					}
				]
			},
			{
				"chara": [
					{
						"id": 102400,
						"textHomeStatus": "Clear"
					}
				]
			}
		],
		"group_45": [
			{
				"autoTurnFirst": 2.5,
				"chara": [
					{
						"cheek": 0,
						"eyeClose": 0,
						"face": "mtn_ex_050.exp.json",
						"id": 102400,
						"motion": 100,
						"pos": 1,
						"voice": "vo_game_0502_09",
						"textHome": "Ahh!!!"
					}
				]
			},
			{
				"autoTurnFirst": 5.2,
				"chara": [
					{
						"id": 102400,
						"motion": 0,
						"textHome": "...What happened?@Juri the Great passed out...?"
					}
				]
			},
			{
				"autoTurnFirst": 5.3,
				"chara": [
					{
						"cheek": 0,
						"face": "mtn_ex_030.exp.json",
						"id": 102400,
						"motion": 1,
						"textHome": "I was eating the lunch@that was here, and then..."
					}
				]
			},
			{
				"autoTurnFirst": 2.6,
				"chara": [
					{
						"eyeClose": 1,
						"id": 102400,
						"motion": 300,
						"textHome": "And then..."
					}
				]
			},
			{
				"autoTurnFirst": 0.1,
				"chara": [
					{
						"eyeClose": 0,
						"id": 102400
					}
				]
			},
			{
				"autoTurnFirst": 2.6,
				"chara": [
					{
						"cheek": 0,
						"face": "mtn_ex_050.exp.json",
						"id": 102400,
						"motion": 400,
						"textHome": "Don't tell me@I got food poisoning?!"
					}
				]
			},
			{
				"chara": [
					{
						"id": 102400,
						"textHomeStatus": "Clear"
					}
				]
			}
		],
		"group_46": [
			{
				"autoTurnFirst": 3,
				"chara": [
					{
						"cheek": 0,
						"eyeClose": 0,
						"face": "mtn_ex_010.exp.json",
						"id": 102400,
						"motion": 1,
						"pos": 1,
						"voice": "vo_game_0502_10",
						"textHome": "I told the Horse to go@get the manga I liked,@and she did exactly that."
					}
				]
			},
			{
				"autoTurnFirst": 2.8,
				"chara": [
					{
						"cheek": 0,
						"face": "mtn_ex_011.exp.json",
						"id": 102400
					}
				]
			},
			{
				"autoTurnFirst": 3.4,
				"chara": [
					{
						"cheek": 0,
						"face": "mtn_ex_010.exp.json",
						"id": 102400,
						"motion": 0,
						"textHome": "Well, Juri the Great@is gonna go into@reading mode now."
					}
				]
			},
			{
				"autoTurnFirst": 2,
				"chara": [
					{
						"cheek": 0,
						"face": "mtn_ex_011.exp.json",
						"id": 102400,
						"motion": 100,
						"textHome": "Feel free to look around@for anything you want."
					}
				]
			},
			{
				"chara": [
					{
						"id": 102400,
						"textHomeStatus": "Clear"
					}
				]
			}
		],
		"group_47": [
			{
				"autoTurnFirst": 2,
				"chara": [
					{
						"cheek": 1,
						"eyeClose": 0,
						"face": "mtn_ex_010.exp.json",
						"id": 102400,
						"motion": 200,
						"pos": 1,
						"voice": "vo_game_0502_11",
						"textHome": "I dunno about you,"
					}
				]
			},
			{
				"autoTurnFirst": 2.5,
				"chara": [
					{
						"cheek": 1,
						"face": "mtn_ex_011.exp.json",
						"id": 102400,
						"textHome": "but at night,@I get an adrenaline rush,"
					}
				]
			},
			{
				"autoTurnFirst": 2.8,
				"chara": [
					{
						"id": 102400,
						"motion": 100,
						"textHome": "and my energy explodes!"
					}
				]
			},
			{
				"autoTurnFirst": 2.2,
				"chara": [
					{
						"cheek": 1,
						"face": "mtn_ex_012.exp.json",
						"id": 102400,
						"motion": 400,
						"textHome": "C'mon, let's go already!"
					}
				]
			},
			{
				"autoTurnFirst": 2,
				"chara": [
					{
						"id": 102400,
						"motion": 1,
						"textHome": "Don't you wanna@defeat the Witch?!"
					}
				]
			},
			{
				"chara": [
					{
						"id": 102400,
						"textHomeStatus": "Clear"
					}
				]
			}
		],
		"group_48": [
			{
				"autoTurnFirst": 1.8,
				"chara": [
					{
						"cheek": 0,
						"eyeClose": 0,
						"face": "mtn_ex_010.exp.json",
						"id": 102400,
						"motion": 0,
						"pos": 1,
						"voice": "vo_game_0502_12",
						"textHome": "Juri the Great can@handle doing this much@customer service."
					}
				]
			},
			{
				"autoTurnFirst": 3,
				"chara": [
					{
						"cheek": 0,
						"face": "mtn_ex_011.exp.json",
						"id": 102400,
						"motion": 100
					}
				]
			},
			{
				"autoTurnFirst": 3.5,
				"chara": [
					{
						"cheek": 0,
						"face": "mtn_ex_010.exp.json",
						"id": 102400,
						"motion": 1,
						"textHome": "I'm gonna do way better@than Sis and Lil' Sis."
					}
				]
			},
			{
				"autoTurnFirst": 3,
				"chara": [
					{
						"cheek": 0,
						"face": "mtn_ex_011.exp.json",
						"id": 102400,
						"motion": 200,
						"textHome": "I'm great at catching@shoplifters, too."
					}
				]
			},
			{
				"chara": [
					{
						"id": 102400,
						"textHomeStatus": "Clear"
					}
				]
			}
		],
		"group_5": [
			{
				"autoTurnFirst": 2.3,
				"chara": [
					{
						"cheek": 0,
						"eyeClose": 0,
						"face": "mtn_ex_020.exp.json",
						"id": 102400,
						"motion": 0,
						"pos": 1,
						"voice": "vo_char_1024_00_05"
					}
				]
			},
			{
				"autoTurnFirst": 3,
				"chara": [
					{
						"cheek": 0,
						"eyeClose": 1,
						"face": "mtn_ex_010.exp.json",
						"id": 102400
					}
				]
			},
			{
				"chara": [
					{
						"id": 102400,
						"textHomeStatus": "Clear"
					}
				]
			}
		],
		"group_6": [
			{
				"autoTurnFirst": 3.1,
				"chara": [
					{
						"cheek": 0,
						"eyeClose": 0,
						"face": "mtn_ex_012.exp.json",
						"id": 102400,
						"motion": 200,
						"pos": 1,
						"voice": "vo_char_1024_00_13",
						"textHome": "My body's warming up@and feeling great."
					}
				]
			},
			{
				"autoTurnFirst": 3,
				"chara": [
					{
						"id": 102400,
						"motion": 100,
						"textHome": "I'mma keep this pace going."
					}
				]
			},
			{
				"chara": [
					{
						"id": 102400,
						"textHomeStatus": "Clear"
					}
				]
			}
		],
		"group_7": [
			{
				"autoTurnFirst": 2.4,
				"chara": [
					{
						"cheek": 0,
						"eyeClose": 0,
						"face": "mtn_ex_011.exp.json",
						"id": 102400,
						"motion": 1,
						"pos": 1,
						"voice": "vo_char_1024_00_14",
						"textHome": "Finally done!"
					}
				]
			},
			{
				"autoTurnFirst": 1.7,
				"chara": [
					{
						"cheek": 0,
						"face": "mtn_ex_010.exp.json",
						"id": 102400,
						"motion": 0,
						"textHome": "I think I'll take a load off@by chugging some soda!"
					}
				]
			},
			{
				"autoTurnFirst": 3,
				"chara": [
					{
						"cheek": 0,
						"face": "mtn_ex_011.exp.json",
						"id": 102400,
						"motion": 400
					}
				]
			},
			{
				"chara": [
					{
						"id": 102400,
						"textHomeStatus": "Clear"
					}
				]
			}
		],
		"group_8": [
			{
				"autoTurnFirst": 1.9,
				"chara": [
					{
						"cheek": 0,
						"eyeClose": 0,
						"face": "mtn_ex_020.exp.json",
						"id": 102400,
						"motion": 100,
						"pos": 1,
						"voice": "vo_char_1024_00_15",
						"textHome": "Forget it."
					}
				]
			},
			{
				"autoTurnFirst": 2.2,
				"chara": [
					{
						"id": 102400,
						"motion": 0,
						"textHome": "Even if you listen to the Great Juri's story,"
					}
				]
			},
			{
				"autoTurnFirst": 3,
				"chara": [
					{
						"cheek": 0,
						"face": "mtn_ex_030.exp.json",
						"id": 102400,
						"motion": 300,
						"textHome": "you'll just feel like shit after."
					}
				]
			},
			{
				"chara": [
					{
						"id": 102400,
						"textHomeStatus": "Clear"
					}
				]
			}
		],
		"group_9": [
			{
				"autoTurnFirst": 5.5,
				"chara": [
					{
						"cheek": 0,
						"eyeClose": 0,
						"face": "mtn_ex_020.exp.json",
						"id": 102400,
						"motion": 1,
						"pos": 1,
						"voice": "vo_char_1024_00_16",
						"textHome": "For Juri the Great,@the world of Magical Girls is like a boxing ring."
					}
				]
			},
			{
				"autoTurnFirst": 2.5,
				"chara": [
					{
						"eyeClose": 1,
						"id": 102400,
						"motion": 200,
						"textHome": "You can just beat the shit outta@people who piss you off,"
					}
				]
			},
			{
				"autoTurnFirst": 0.1,
				"chara": [
					{
						"eyeClose": 0,
						"id": 102400,
						"textHome": "it's that kinda place."
					}
				]
			},
			{
				"autoTurnFirst": 3,
				"chara": [
					{
						"id": 102400,
						"motion": 0
					}
				]
			},
			{
				"chara": [
					{
						"id": 102400,
						"textHomeStatus": "Clear"
					}
				]
			}
		]
	},
	"version": 3
}