{
	"story": {
		"group_1": [
			{
				"autoTurnFirst": 1.3,
				"chara": [
					{
						"cheek": 0,
						"eyeClose": 0,
						"face": "mtn_ex_010.exp.json",
						"id": 102600,
						"motion": 1,
						"pos": 1,
						"voice": "vo_char_1026_00_01"
					}
				]
			},
			{
				"autoTurnFirst": 5.2,
				"chara": [
					{
						"cheek": 0,
						"face": "mtn_ex_030.exp.json",
						"id": 102600
					}
				]
			},
			{
				"autoTurnFirst": 3.0,
				"chara": [
					{
						"cheek": 0,
						"face": "mtn_ex_010.exp.json",
						"id": 102600,
						"motion": 300
					}
				]
			},
			{
				"autoTurnFirst": 2.7,
				"chara": [
					{
						"eyeClose": 1,
						"id": 102600
					}
				]
			},
			{
				"autoTurnFirst": 0.5,
				"chara": [
					{
						"eyeClose": 0,
						"id": 102600
					}
				]
			},
			{
				"autoTurnFirst": 4.0,
				"chara": [
					{
						"cheek": 0,
						"face": "mtn_ex_010.exp.json",
						"id": 102600,
						"motion": 200
					}
				]
			},
			{
				"autoTurnFirst": 3.5,
				"chara": [
					{
						"cheek": 0,
						"face": "mtn_ex_011.exp.json",
						"id": 102600,
						"motion": 100
					}
				]
			}
		],
		"group_10": [
			{
				"autoTurnFirst": 3.5,
				"chara": [
					{
						"cheek": 0,
						"eyeClose": 1,
						"face": "mtn_ex_010.exp.json",
						"id": 102600,
						"motion": 1,
						"pos": 1,
						"voice": "vo_char_1026_00_17"
					}
				]
			},
			{
				"autoTurnFirst": 0.5,
				"chara": [
					{
						"eyeClose": 0,
						"id": 102600
					}
				]
			},
			{
				"autoTurnFirst": 2.5,
				"chara": [
					{
						"id": 102600,
						"motion": 200
					}
				]
			},
			{
				"autoTurnFirst": 2.2,
				"chara": [
					{
						"id": 102600,
						"motion": 0
					}
				]
			},
			{
				"autoTurnFirst": 4.3,
				"chara": [
					{
						"cheek": 0,
						"face": "mtn_ex_011.exp.json",
						"id": 102600,
						"motion": 100
					}
				]
			}
		],
		"group_11": [
			{
				"autoTurnFirst": 6.2,
				"chara": [
					{
						"cheek": 0,
						"eyeClose": 0,
						"face": "mtn_ex_010.exp.json",
						"id": 102600,
						"motion": 1,
						"pos": 1,
						"voice": "vo_char_1026_00_18"
					}
				]
			},
			{
				"autoTurnFirst": 1.8,
				"chara": [
					{
						"id": 102600,
						"motion": 200
					}
				]
			},
			{
				"autoTurnFirst": 2.0,
				"chara": [
					{
						"cheek": 0,
						"face": "mtn_ex_011.exp.json",
						"id": 102600
					}
				]
			},
			{
				"autoTurnFirst": 3.0,
				"chara": [
					{
						"cheek": 0,
						"face": "mtn_ex_050.exp.json",
						"id": 102600,
						"motion": 400
					}
				]
			}
		],
		"group_12": [
			{
				"autoTurnFirst": 1.5,
				"chara": [
					{
						"cheek": 0,
						"eyeClose": 1,
						"face": "mtn_ex_010.exp.json",
						"id": 102600,
						"motion": 0,
						"pos": 1,
						"voice": "vo_char_1026_00_19"
					}
				]
			},
			{
				"autoTurnFirst": 0.5,
				"chara": [
					{
						"eyeClose": 0,
						"id": 102600
					}
				]
			},
			{
				"autoTurnFirst": 3.5,
				"chara": [
					{
						"id": 102600,
						"motion": 100
					}
				]
			}
		],
		"group_13": [
			{
				"autoTurnFirst": 2.3,
				"chara": [
					{
						"cheek": 0,
						"eyeClose": 0,
						"face": "mtn_ex_010.exp.json",
						"id": 102600,
						"motion": 200,
						"pos": 1,
						"voice": "vo_char_1026_00_20"
					}
				]
			},
			{
				"autoTurnFirst": 3.5,
				"chara": [
					{
						"cheek": 0,
						"face": "mtn_ex_011.exp.json",
						"id": 102600,
						"motion": 100
					}
				]
			}
		],
		"group_14": [
			{
				"autoTurnFirst": 3.8,
				"chara": [
					{
						"cheek": 0,
						"eyeClose": 0,
						"face": "mtn_ex_020.exp.json",
						"id": 102600,
						"motion": 0,
						"pos": 1,
						"voice": "vo_char_1026_00_21"
					}
				]
			},
			{
				"autoTurnFirst": 3.2,
				"chara": [
					{
						"eyeClose": 1,
						"id": 102600,
						"motion": 300
					}
				]
			},
			{
				"autoTurnFirst": 3.5,
				"chara": [
					{
						"eyeClose": 0,
						"id": 102600
					}
				]
			},
			{
				"autoTurnFirst": 2.5,
				"chara": [
					{
						"id": 102600,
						"motion": 0
					}
				]
			}
		],
		"group_15": [
			{
				"autoTurnFirst": 5.5,
				"chara": [
					{
						"cheek": 0,
						"eyeClose": 0,
						"face": "mtn_ex_031.exp.json",
						"id": 102600,
						"motion": 300,
						"pos": 1,
						"voice": "vo_char_1026_00_22"
					}
				]
			},
			{
				"autoTurnFirst": 4.2,
				"chara": [
					{
						"cheek": 0,
						"face": "mtn_ex_020.exp.json",
						"id": 102600,
						"motion": 0
					}
				]
			},
			{
				"autoTurnFirst": 2.3,
				"chara": [
					{
						"id": 102600,
						"motion": 100
					}
				]
			},
			{
				"autoTurnFirst": 1.9,
				"chara": [
					{
						"eyeClose": 1,
						"id": 102600,
						"motion": 0
					}
				]
			},
			{
				"autoTurnFirst": 0.5,
				"chara": [
					{
						"eyeClose": 0,
						"id": 102600
					}
				]
			},
			{
				"autoTurnFirst": 3.5,
				"chara": [
					{
						"id": 102600,
						"motion": 200
					}
				]
			}
		],
		"group_16": [
			{
				"autoTurnFirst": 8.5,
				"chara": [
					{
						"cheek": 0,
						"eyeClose": 0,
						"face": "mtn_ex_030.exp.json",
						"id": 102600,
						"motion": 0,
						"pos": 1,
						"voice": "vo_char_1026_00_23"
					}
				]
			},
			{
				"autoTurnFirst": 3.3,
				"chara": [
					{
						"cheek": 0,
						"face": "mtn_ex_031.exp.json",
						"id": 102600,
						"motion": 300
					}
				]
			},
			{
				"autoTurnFirst": 3.4,
				"chara": [
					{
						"eyeClose": 1,
						"id": 102600
					}
				]
			},
			{
				"autoTurnFirst": 0.5,
				"chara": [
					{
						"eyeClose": 0,
						"id": 102600
					}
				]
			},
			{
				"autoTurnFirst": 5.8,
				"chara": [
					{
						"cheek": 0,
						"face": "mtn_ex_020.exp.json",
						"id": 102600,
						"motion": 200
					}
				]
			}
		],
		"group_17": [
			{
				"autoTurnFirst": 4.2,
				"chara": [
					{
						"cheek": 0,
						"eyeClose": 0,
						"face": "mtn_ex_011.exp.json",
						"id": 102650,
						"motion": 100,
						"pos": 1,
						"voice": "vo_char_1026_50_24",
						"textHome": "Woooow!@It's been ages since@I've been to the beach~!"
					}
				]
			},
			{
				"autoTurnFirst": 4.1,
				"chara": [
					{
						"cheek": 0,
						"face": "mtn_ex_010.exp.json",
						"id": 102650,
						"motion": 1,
						"textHome": "This is the kind of thing@that's suddenly way more exciting@once you get there, you know?"
					}
				]
			},
			{
				"autoTurnFirst": 1.7,
				"chara": [
					{
						"cheek": 0,
						"face": "mtn_ex_011.exp.json",
						"id": 102650,
						"motion": 0,
						"textHome": "We're gonna have a ton of fun today,@so get ready!"
					}
				]
			},
			{
				"autoTurnFirst": 3.0,
				"chara": [
					{
						"id": 102650,
						"motion": 200
					}
				]
			},
			{
				"chara": [
					{
						"id": 102650,
						"textHomeStatus": "Clear"
					}
				]
			}
		],
		"group_18": [
			{
				"autoTurnFirst": 3.6,
				"chara": [
					{
						"cheek": 0,
						"eyeClose": 0,
						"face": "mtn_ex_030.exp.json",
						"id": 102650,
						"motion": 1,
						"pos": 1,
						"voice": "vo_char_1026_50_25",
						"textHome": "I used to be soooo bad with mornings,"
					}
				]
			},
			{
				"autoTurnFirst": 3.7,
				"chara": [
					{
						"id": 102650,
						"motion": 300,
						"textHome": "but now that we're using a temple@as our base, we've gotta get up early@to clean and meditate,"
					}
				]
			},
			{
				"autoTurnFirst": 2.4,
				"chara": [
					{
						"eyeClose": 1,
						"id": 102650,
						"textHome": "and I've become more of@a morning person..."
					}
				]
			},
			{
				"autoTurnFirst": 0.3,
				"chara": [
					{
						"eyeClose": 0,
						"id": 102650
					}
				]
			},
			{
				"autoTurnFirst": 3.0,
				"chara": [
					{
						"id": 102650,
						"motion": 100,
						"textHome": "We have morning practice@in the summer, too."
					}
				]
			},
			{
				"chara": [
					{
						"id": 102650,
						"textHomeStatus": "Clear"
					}
				]
			}
		],
		"group_19": [
			{
				"autoTurnFirst": 2.0,
				"chara": [
					{
						"cheek": 0,
						"eyeClose": 0,
						"face": "mtn_ex_010.exp.json",
						"id": 102650,
						"motion": 0,
						"pos": 1,
						"voice": "vo_char_1026_50_26",
						"textHome": "\"The beach\" plus \"noon\"@equals \"barbecue\"!♪"
					}
				]
			},
			{
				"autoTurnFirst": 1.7,
				"chara": [
					{
						"cheek": 0,
						"face": "mtn_ex_011.exp.json",
						"id": 102650,
						"motion": 200
					}
				]
			},
			{
				"autoTurnFirst": 3.8,
				"chara": [
					{
						"id": 102650,
						"motion": 1,
						"textHome": "My family used to do this all the time@when we'd come here together!"
					}
				]
			},
			{
				"autoTurnFirst": 2.7,
				"chara": [
					{
						"cheek": 0,
						"face": "mtn_ex_050.exp.json",
						"id": 102650,
						"motion": 0,
						"textHome": "Oh, check out the meat!"
					}
				]
			},
			{
				"autoTurnFirst": 5.0,
				"chara": [
					{
						"cheek": 0,
						"face": "mtn_ex_011.exp.json",
						"id": 102650,
						"motion": 100,
						"textHome": "Asahi and Chika hunted it themselves!"
					}
				]
			},
			{
				"chara": [
					{
						"id": 102650,
						"textHomeStatus": "Clear"
					}
				]
			}
		],
		"group_2": [
			{
				"autoTurnFirst": 4.2,
				"chara": [
					{
						"cheek": 0,
						"eyeClose": 0,
						"face": "mtn_ex_010.exp.json",
						"id": 102600,
						"motion": 0,
						"pos": 1,
						"voice": "vo_char_1026_00_02"
					}
				]
			},
			{
				"autoTurnFirst": 3.3,
				"chara": [
					{
						"id": 102600,
						"motion": 1
					}
				]
			},
			{
				"autoTurnFirst": 4.0,
				"chara": [
					{
						"cheek": 0,
						"face": "mtn_ex_011.exp.json",
						"id": 102600
					}
				]
			}
		],
		"group_20": [
			{
				"autoTurnFirst": 5.8,
				"chara": [
					{
						"cheek": 0,
						"eyeClose": 1,
						"face": "mtn_ex_010.exp.json",
						"id": 102650,
						"motion": 0,
						"pos": 1,
						"voice": "vo_char_1026_50_27",
						"textHome": "How does \"The House of Dusk:@The Cryptic Message from the Sea\"@sound for a title?!"
					}
				]
			},
			{
				"autoTurnFirst": 0.3,
				"chara": [
					{
						"eyeClose": 0,
						"id": 102650
					}
				]
			},
			{
				"autoTurnFirst": 1.6,
				"chara": [
					{
						"id": 102650,
						"motion": 400
					}
				]
			},
			{
				"autoTurnFirst": 2.0,
				"chara": [
					{
						"id": 102650,
						"motion": 1,
						"textHome": "There's something about the ocean,@the sunset, and the pavilion@that brings an air of suspense, right?!"
					}
				]
			},
			{
				"autoTurnFirst": 4.0,
				"chara": [
					{
						"cheek": 0,
						"face": "mtn_ex_011.exp.json",
						"id": 102650,
						"motion": 200
					}
				]
			},
			{
				"chara": [
					{
						"id": 102650,
						"textHomeStatus": "Clear"
					}
				]
			}
		],
		"group_21": [
			{
				"autoTurnFirst": 4.2,
				"chara": [
					{
						"cheek": 1,
						"eyeClose": 0,
						"face": "mtn_ex_011.exp.json",
						"id": 102650,
						"motion": 1,
						"pos": 1,
						"voice": "vo_char_1026_50_28",
						"textHome": "Now that it's dark out,@let's get everyone together for sparklers!"
					}
				]
			},
			{
				"autoTurnFirst": 3.0,
				"chara": [
					{
						"cheek": 1,
						"face": "mtn_ex_010.exp.json",
						"id": 102650,
						"motion": 100,
						"textHome": "I'm sure lots of them have never@done this before, not just Shizuka!"
					}
				]
			},
			{
				"autoTurnFirst": 3.0,
				"chara": [
					{
						"cheek": 1,
						"face": "mtn_ex_011.exp.json",
						"id": 102650
					}
				]
			},
			{
				"chara": [
					{
						"id": 102650,
						"textHomeStatus": "Clear"
					}
				]
			}
		],
		"group_22": [
			{
				"autoTurnFirst": 3.0,
				"chara": [
					{
						"cheek": 0,
						"eyeClose": 0,
						"face": "mtn_ex_050.exp.json",
						"id": 102650,
						"motion": 400,
						"pos": 1,
						"voice": "vo_char_1026_50_29",
						"textHome": "Aaaah! Guys, I need help!"
					}
				]
			},
			{
				"autoTurnFirst": 3.3,
				"chara": [
					{
						"id": 102650,
						"motion": 0,
						"textHome": "Shizuka said she's gonna@swim across the river...!"
					}
				]
			},
			{
				"autoTurnFirst": 4.0,
				"chara": [
					{
						"cheek": 0,
						"face": "mtn_ex_030.exp.json",
						"id": 102650,
						"motion": 200,
						"textHome": "If we don't do something, the only river@she's gonna be crossing is the River Styx!"
					}
				]
			},
			{
				"chara": [
					{
						"id": 102650,
						"textHomeStatus": "Clear"
					}
				]
			}
		],
		"group_23": [
			{
				"autoTurnFirst": 3.5,
				"chara": [
					{
						"cheek": 0,
						"eyeClose": 0,
						"face": "mtn_ex_020.exp.json",
						"id": 102650,
						"motion": 0,
						"pos": 1,
						"voice": "vo_char_1026_50_30",
						"textHome": "This reaction...is it coming from the sea...?"
					}
				]
			},
			{
				"autoTurnFirst": 3.0,
				"chara": [
					{
						"cheek": 0,
						"face": "mtn_ex_010.exp.json",
						"id": 102650,
						"motion": 200,
						"textHome": "Here's my chance to show you how I swim!"
					}
				]
			},
			{
				"autoTurnFirst": 5.0,
				"chara": [
					{
						"cheek": 0,
						"face": "mtn_ex_011.exp.json",
						"id": 102650,
						"motion": 100,
						"textHome": "You're gonna be shocked at how acrobatic@I can be. I'll have the Devil at my mercy!"
					}
				]
			},
			{
				"chara": [
					{
						"id": 102650,
						"textHomeStatus": "Clear"
					}
				]
			}
		],
		"group_24": [
			{
				"autoTurnFirst": 6.9,
				"chara": [
					{
						"cheek": 0,
						"eyeClose": 1,
						"face": "mtn_ex_010.exp.json",
						"id": 102650,
						"motion": 1,
						"pos": 1,
						"voice": "vo_char_1026_50_31",
						"textHome": "The water's surface sparkles@when it catches the light@or reflects the setting sun..."
					}
				]
			},
			{
				"autoTurnFirst": 0.3,
				"chara": [
					{
						"eyeClose": 0,
						"id": 102650
					}
				]
			},
			{
				"autoTurnFirst": 3.8,
				"chara": [
					{
						"cheek": 0,
						"face": "mtn_ex_030.exp.json",
						"id": 102650,
						"motion": 300,
						"textHome": "If Endless Mirrors had@that kinda atmosphere, I bet that'd@make me wanna go in there."
					}
				]
			},
			{
				"autoTurnFirst": 3.0,
				"chara": [
					{
						"eyeClose": 1,
						"id": 102650
					}
				]
			},
			{
				"chara": [
					{
						"id": 102650,
						"textHomeStatus": "Clear"
					}
				]
			}
		],
		"group_25": [
			{
				"autoTurnFirst": 1.5,
				"chara": [
					{
						"cheek": 0,
						"eyeClose": 0,
						"face": "mtn_ex_020.exp.json",
						"id": 102650,
						"motion": 0,
						"pos": 1,
						"voice": "vo_char_1026_50_32"
					}
				]
			},
			{
				"autoTurnFirst": 4.5,
				"chara": [
					{
						"id": 102650,
						"motion": 200
					}
				]
			},
			{
				"autoTurnFirst": 2.7,
				"chara": [
					{
						"cheek": 0,
						"face": "mtn_ex_011.exp.json",
						"id": 102650,
						"motion": 0
					}
				]
			},
			{
				"autoTurnFirst": 2.7,
				"chara": [
					{
						"cheek": 0,
						"face": "mtn_ex_050.exp.json",
						"id": 102650,
						"motion": 400
					}
				]
			},
			{
				"autoTurnFirst": 3.0,
				"chara": [
					{
						"cheek": 0,
						"face": "mtn_ex_030.exp.json",
						"id": 102650
					}
				]
			}
		],
		"group_26": [
			{
				"autoTurnFirst": 4.5,
				"chara": [
					{
						"cheek": 0,
						"eyeClose": 1,
						"face": "mtn_ex_020.exp.json",
						"id": 102650,
						"motion": 0,
						"pos": 1,
						"voice": "vo_char_1026_50_33",
						"textHome": "Beaches, groups, travelling...@In other words..."
					}
				]
			},
			{
				"autoTurnFirst": 0.3,
				"chara": [
					{
						"eyeClose": 0,
						"id": 102650
					}
				]
			},
			{
				"autoTurnFirst": 1.7,
				"chara": [
					{
						"cheek": 0,
						"face": "mtn_ex_050.exp.json",
						"id": 102650,
						"motion": 400,
						"textHome": "Murder...!"
					}
				]
			},
			{
				"autoTurnFirst": 4.5,
				"chara": [
					{
						"cheek": 0,
						"face": "mtn_ex_030.exp.json",
						"id": 102650,
						"textHome": "GAAAH! Snap out of it already!@My brain's too full of Koichi Todoroki!"
					}
				]
			},
			{
				"autoTurnFirst": 2.1,
				"chara": [
					{
						"cheek": 0,
						"face": "mtn_ex_020.exp.json",
						"id": 102650,
						"motion": 200,
						"textHome": "Don't misunderstand having fun, Chiharu!"
					}
				]
			},
			{
				"autoTurnFirst": 3.0,
				"chara": [
					{
						"eyeClose": 1,
						"id": 102650,
						"textHome": "I'm going swimming...!"
					}
				]
			},
			{
				"chara": [
					{
						"id": 102650,
						"textHomeStatus": "Clear"
					}
				]
			}
		],
		"group_27": [
			{
				"autoTurnFirst": 2.9,
				"chara": [
					{
						"cheek": 0,
						"eyeClose": 0,
						"face": "mtn_ex_011.exp.json",
						"id": 102650,
						"motion": 100,
						"pos": 1,
						"voice": "vo_char_1026_50_34",
						"textHome": "Ah, you can borrow this bug spray."
					}
				]
			},
			{
				"autoTurnFirst": 6.5,
				"chara": [
					{
						"cheek": 0,
						"face": "mtn_ex_010.exp.json",
						"id": 102650,
						"motion": 1,
						"textHome": "Bugs bite me all the time, so my mom@always gives me this when I go out."
					}
				]
			},
			{
				"chara": [
					{
						"id": 102650,
						"textHomeStatus": "Clear"
					}
				]
			}
		],
		"group_28": [
			{
				"autoTurnFirst": 5.5,
				"chara": [
					{
						"cheek": 0,
						"eyeClose": 1,
						"face": "mtn_ex_050.exp.json",
						"id": 102650,
						"motion": 0,
						"pos": 1,
						"voice": "vo_char_1026_50_35",
						"textHome": "Hmm...@The legendary swimming techniques@of the Diviners..."
					}
				]
			},
			{
				"autoTurnFirst": 0.2,
				"chara": [
					{
						"eyeClose": 0,
						"id": 102650
					}
				]
			},
			{
				"autoTurnFirst": 4.3,
				"chara": [
					{
						"cheek": 0,
						"face": "mtn_ex_030.exp.json",
						"id": 102650,
						"motion": 300,
						"textHome": "I've never heard about it before...@I'm not sure how they do it, since there@aren't any swimsuits in the village..."
					}
				]
			},
			{
				"autoTurnFirst": 3.2,
				"chara": [
					{
						"id": 102650,
						"motion": 1
					}
				]
			},
			{
				"autoTurnFirst": 4.0,
				"chara": [
					{
						"cheek": 0,
						"face": "mtn_ex_050.exp.json",
						"id": 102650,
						"motion": 400,
						"textHome": "Oh. Maybe they swim naked?"
					}
				]
			},
			{
				"chara": [
					{
						"id": 102650,
						"textHomeStatus": "Clear"
					}
				]
			}
		],
		"group_29": [
			{
				"autoTurnFirst": 4.5,
				"chara": [
					{
						"cheek": 1,
						"eyeClose": 0,
						"face": "mtn_ex_011.exp.json",
						"id": 102650,
						"motion": 1,
						"pos": 1,
						"voice": "vo_char_1026_50_36",
						"textHome": "I was really excited because@this was my first time@going to the beach with everyone."
					}
				]
			},
			{
				"autoTurnFirst": 4.0,
				"chara": [
					{
						"id": 102650,
						"motion": 100,
						"textHome": "I even begged my mom@to buy this swimsuit for me♪"
					}
				]
			},
			{
				"chara": [
					{
						"id": 102650,
						"textHomeStatus": "Clear"
					}
				]
			}
		],
		"group_3": [
			{
				"autoTurnFirst": 4.5,
				"chara": [
					{
						"cheek": 0,
						"eyeClose": 0,
						"face": "mtn_ex_050.exp.json",
						"id": 102600,
						"motion": 1,
						"pos": 1,
						"voice": "vo_char_1026_00_03"
					}
				]
			}
		],
		"group_30": [
			{
				"autoTurnFirst": 5.3,
				"chara": [
					{
						"cheek": 0,
						"eyeClose": 0,
						"face": "mtn_ex_050.exp.json",
						"id": 102650,
						"motion": 0,
						"pos": 1,
						"voice": "vo_char_1026_50_37",
						"textHome": "Shizuka is sleek.@Sunao's got a bombshell body."
					}
				]
			},
			{
				"autoTurnFirst": 2.3,
				"chara": [
					{
						"id": 102650,
						"motion": 300,
						"textHome": "And then there's me and my roundness..."
					}
				]
			},
			{
				"autoTurnFirst": 2.3,
				"chara": [
					{
						"cheek": 1,
						"face": "mtn_ex_020.exp.json",
						"id": 102650,
						"motion": 0,
						"textHome": "One more year!@One more year, and I'll catch up~!"
					}
				]
			},
			{
				"autoTurnFirst": 3.0,
				"chara": [
					{
						"cheek": 1,
						"face": "mtn_ex_031.exp.json",
						"id": 102650,
						"motion": 200
					}
				]
			},
			{
				"chara": [
					{
						"id": 102650,
						"textHomeStatus": "Clear"
					}
				]
			}
		],
		"group_31": [
			{
				"autoTurnFirst": 1.5,
				"chara": [
					{
						"cheek": 0,
						"eyeClose": 0,
						"face": "mtn_ex_050.exp.json",
						"id": 102650,
						"motion": 400,
						"pos": 1,
						"voice": "vo_char_1026_50_38",
						"textHome": "Aaah!"
					}
				]
			},
			{
				"autoTurnFirst": 3.4,
				"chara": [
					{
						"cheek": 0,
						"face": "mtn_ex_030.exp.json",
						"id": 102650,
						"motion": 0,
						"textHome": "*Whimper*...@I've been really careful in the sun,@but I'm burnt red anyway..."
					}
				]
			},
			{
				"autoTurnFirst": 2.3,
				"chara": [
					{
						"id": 102650,
						"motion": 300
					}
				]
			},
			{
				"autoTurnFirst": 4.0,
				"chara": [
					{
						"eyeClose": 1,
						"id": 102650,
						"textHome": "It hurts to take a bath,@and I'm embarrassed 'cause I know@my skin's gonna start peeling later..."
					}
				]
			},
			{
				"autoTurnFirst": 0.3,
				"chara": [
					{
						"eyeClose": 0,
						"id": 102650
					}
				]
			},
			{
				"autoTurnFirst": 3.0,
				"chara": [
					{
						"id": 102650,
						"motion": 0
					}
				]
			},
			{
				"chara": [
					{
						"id": 102650,
						"textHomeStatus": "Clear"
					}
				]
			}
		],
		"group_32": [
			{
				"autoTurnFirst": 2.8,
				"chara": [
					{
						"cheek": 0,
						"eyeClose": 0,
						"face": "mtn_ex_010.exp.json",
						"id": 102650,
						"motion": 0,
						"pos": 1,
						"voice": "vo_char_1026_50_39",
						"textHome": "All my summer vacations@so far have been fun,"
					}
				]
			},
			{
				"autoTurnFirst": 5.5,
				"chara": [
					{
						"cheek": 0,
						"face": "mtn_ex_011.exp.json",
						"id": 102650,
						"motion": 200,
						"textHome": "but the one I've spent@with the Tokime Clan is probably@the most fun I've ever had in my life!"
					}
				]
			},
			{
				"autoTurnFirst": 4.5,
				"chara": [
					{
						"id": 102650,
						"motion": 100,
						"textHome": "I just want to play peacefully@with everyone forever~."
					}
				]
			},
			{
				"chara": [
					{
						"id": 102650,
						"textHomeStatus": "Clear"
					}
				]
			}
		],
		"group_33": [
			{
				"autoTurnFirst": 3.5,
				"chara": [
					{
						"cheek": 0,
						"eyeClose": 0,
						"face": "mtn_ex_020.exp.json",
						"id": 102650,
						"motion": 0,
						"pos": 1,
						"voice": "vo_char_1026_50_40",
						"textHome": "\"A suspicious fellow looking@at a girl in a swimsuit?"
					}
				]
			},
			{
				"autoTurnFirst": 3.3,
				"chara": [
					{
						"eyeClose": 1,
						"id": 102650,
						"textHome": "Chiharu, you don't have to deduce this one."
					}
				]
			},
			{
				"autoTurnFirst": 0.5,
				"chara": [
					{
						"eyeClose": 0,
						"id": 102650
					}
				]
			},
			{
				"autoTurnFirst": 3.5,
				"chara": [
					{
						"id": 102650,
						"motion": 200,
						"textHome": "They're right in front of you, after all.\""
					}
				]
			},
			{
				"autoTurnFirst": 4.0,
				"chara": [
					{
						"cheek": 0,
						"face": "mtn_ex_030.exp.json",
						"id": 102650,
						"motion": 300,
						"textHome": "...is what Koichi Todoroki@told me in a dream..."
					}
				]
			},
			{
				"chara": [
					{
						"id": 102650,
						"textHomeStatus": "Clear"
					}
				]
			}
		],
		"group_34": [
			{
				"autoTurnFirst": 5.0,
				"chara": [
					{
						"cheek": 0,
						"eyeClose": 0,
						"face": "mtn_ex_011.exp.json",
						"id": 102650,
						"motion": 100,
						"pos": 1,
						"voice": "vo_char_1026_50_41",
						"textHome": "Ehehe! I'm a pretty good swimmer,@you know, so I can teach you."
					}
				]
			},
			{
				"autoTurnFirst": 3.2,
				"chara": [
					{
						"cheek": 0,
						"face": "mtn_ex_010.exp.json",
						"id": 102650,
						"motion": 0,
						"textHome": "As long as my feet can still@reach the bottom, I'll hold your hand."
					}
				]
			},
			{
				"autoTurnFirst": 3.0,
				"chara": [
					{
						"cheek": 0,
						"face": "mtn_ex_011.exp.json",
						"id": 102650,
						"motion": 200,
						"textHome": "You're safe with me!"
					}
				]
			},
			{
				"chara": [
					{
						"id": 102650,
						"textHomeStatus": "Clear"
					}
				]
			}
		],
		"group_35": [
			{
				"autoTurnFirst": 3.0,
				"chara": [
					{
						"cheek": 0,
						"eyeClose": 0,
						"face": "mtn_ex_010.exp.json",
						"id": 102600,
						"motion": 100,
						"pos": 1,
						"voice": "vo_char_1026_00_42"
					}
				]
			}
		],
		"group_36": [
			{
				"autoTurnFirst": 2.5,
				"chara": [
					{
						"cheek": 0,
						"eyeClose": 0,
						"face": "mtn_ex_011.exp.json",
						"id": 102600,
						"motion": 100,
						"pos": 1,
						"voice": "vo_char_1026_00_43"
					}
				]
			}
		],
		"group_37": [
			{
				"autoTurnFirst": 2.5,
				"chara": [
					{
						"cheek": 0,
						"eyeClose": 0,
						"face": "mtn_ex_011.exp.json",
						"id": 102600,
						"motion": 200,
						"pos": 1,
						"voice": "vo_char_1026_00_44"
					}
				]
			}
		],
		"group_38": [
			{
				"autoTurnFirst": 1.8,
				"chara": [
					{
						"cheek": 0,
						"eyeClose": 0,
						"face": "mtn_ex_010.exp.json",
						"id": 102600,
						"motion": 0,
						"pos": 1,
						"voice": "vo_char_1026_00_45"
					}
				]
			},
			{
				"autoTurnFirst": 1.5,
				"chara": [
					{
						"id": 102600,
						"motion": 100
					}
				]
			}
		],
		"group_39": [
			{
				"autoTurnFirst": 3.0,
				"chara": [
					{
						"cheek": 0,
						"eyeClose": 0,
						"face": "mtn_ex_020.exp.json",
						"id": 102600,
						"motion": 200,
						"pos": 1,
						"voice": "vo_char_1026_00_46"
					}
				]
			}
		],
		"group_4": [
			{
				"autoTurnFirst": 4.5,
				"chara": [
					{
						"cheek": 0,
						"eyeClose": 0,
						"face": "mtn_ex_030.exp.json",
						"id": 102600,
						"motion": 300,
						"pos": 1,
						"voice": "vo_char_1026_00_04"
					}
				]
			}
		],
		"group_40": [
			{
				"autoTurnFirst": 2.0,
				"chara": [
					{
						"cheek": 0,
						"eyeClose": 0,
						"face": "mtn_ex_020.exp.json",
						"id": 102600,
						"motion": 0,
						"pos": 1,
						"voice": "vo_char_1026_00_63"
					}
				]
			}
		],
		"group_41": [
			{
				"autoTurnFirst": 3.0,
				"chara": [
					{
						"cheek": 0,
						"eyeClose": 0,
						"face": "mtn_ex_020.exp.json",
						"id": 102600,
						"motion": 100,
						"pos": 1,
						"voice": "vo_char_1026_00_64"
					}
				]
			}
		],
		"group_42": [
			{
				"autoTurnFirst": 2.0,
				"chara": [
					{
						"cheek": 0,
						"eyeClose": 0,
						"face": "mtn_ex_020.exp.json",
						"id": 102600,
						"motion": 400,
						"pos": 1,
						"voice": "vo_char_1026_00_65"
					}
				]
			}
		],
		"group_43": [
			{
				"autoTurnFirst": 3.0,
				"chara": [
					{
						"cheek": 0,
						"eyeClose": 0,
						"face": "mtn_ex_050.exp.json",
						"id": 102600,
						"motion": 0,
						"pos": 1,
						"voice": "vo_char_1026_00_66"
					}
				]
			}
		],
		"group_5": [
			{
				"autoTurnFirst": 2.0,
				"chara": [
					{
						"cheek": 0,
						"eyeClose": 0,
						"face": "mtn_ex_010.exp.json",
						"id": 102600,
						"motion": 100,
						"pos": 1,
						"voice": "vo_char_1026_00_05"
					}
				]
			},
			{
				"autoTurnFirst": 2.0,
				"chara": [
					{
						"cheek": 0,
						"face": "mtn_ex_011.exp.json",
						"id": 102600
					}
				]
			}
		],
		"group_6": [
			{
				"autoTurnFirst": 2.5,
				"chara": [
					{
						"cheek": 0,
						"eyeClose": 0,
						"face": "mtn_ex_020.exp.json",
						"id": 102600,
						"motion": 100,
						"pos": 1,
						"voice": "vo_char_1026_00_13"
					}
				]
			},
			{
				"autoTurnFirst": 3.5,
				"chara": [
					{
						"cheek": 0,
						"face": "mtn_ex_010.exp.json",
						"id": 102600,
						"motion": 1
					}
				]
			}
		],
		"group_7": [
			{
				"autoTurnFirst": 1.5,
				"chara": [
					{
						"cheek": 0,
						"eyeClose": 1,
						"face": "mtn_ex_020.exp.json",
						"id": 102600,
						"motion": 300,
						"pos": 1,
						"voice": "vo_char_1026_00_14"
					}
				]
			},
			{
				"autoTurnFirst": 0.5,
				"chara": [
					{
						"eyeClose": 0,
						"id": 102600
					}
				]
			},
			{
				"autoTurnFirst": 2.0,
				"chara": [
					{
						"id": 102600,
						"motion": 200
					}
				]
			},
			{
				"autoTurnFirst": 3.1,
				"chara": [
					{
						"id": 102600,
						"motion": 0
					}
				]
			}
		],
		"group_8": [
			{
				"autoTurnFirst": 4.0,
				"chara": [
					{
						"cheek": 0,
						"eyeClose": 0,
						"face": "mtn_ex_050.exp.json",
						"id": 102600,
						"motion": 1,
						"pos": 1,
						"voice": "vo_char_1026_00_15"
					}
				]
			},
			{
				"autoTurnFirst": 3.0,
				"chara": [
					{
						"id": 102600,
						"motion": 0
					}
				]
			}
		],
		"group_9": [
			{
				"autoTurnFirst": 4.5,
				"chara": [
					{
						"cheek": 0,
						"eyeClose": 0,
						"face": "mtn_ex_030.exp.json",
						"id": 102600,
						"motion": 0,
						"pos": 1,
						"voice": "vo_char_1026_00_16"
					}
				]
			},
			{
				"autoTurnFirst": 3.2,
				"chara": [
					{
						"cheek": 0,
						"face": "mtn_ex_010.exp.json",
						"id": 102600,
						"motion": 100
					}
				]
			},
			{
				"autoTurnFirst": 2.5,
				"chara": [
					{
						"cheek": 0,
						"face": "mtn_ex_030.exp.json",
						"id": 102600,
						"motion": 1
					}
				]
			},
			{
				"autoTurnFirst": 1.5,
				"chara": [
					{
						"cheek": 1,
						"face": "mtn_ex_011.exp.json",
						"id": 102600
					}
				]
			}
		]
	},
	"version": 3
}