{
	"story": {
		"group_1": [
			{
				"autoTurnFirst": 5.7,
				"chara": [
					{
						"cheek": 0,
						"eyeClose": 0,
						"face": "mtn_ex_001.exp.json",
						"id": 102900,
						"motion": 0,
						"pos": 1,
						"voice": "vo_char_1029_00_01",
						"textHome": "Sup.@It's me, Shigure. Shigure Miyabi."
					}
				]
			},
			{
				"autoTurnFirst": 5.3,
				"chara": [
					{
						"id": 102900,
						"motion": 1,
						"textHome": "I used to be a Black Feather,@and I like Hagumun."
					}
				]
			},
			{
				"autoTurnFirst": 3.7,
				"chara": [
					{
						"id": 102900,
						"motion": 0,
						"textHome": "Also, I like robots,@and even make a few myself."
					}
				]
			},
			{
				"autoTurnFirst": 4.3,
				"chara": [
					{
						"id": 102900,
						"motion": 100
					}
				]
			},
			{
				"autoTurnFirst": 3.5,
				"chara": [
					{
						"cheek": 0,
						"face": "mtn_ex_030.exp.json",
						"id": 102900,
						"motion": 0,
						"textHome": "I'm not much of a talker, so can I stop now?@Speaking with strangers is tiring,@and I'd like you to go away."
					}
				]
			},
			{
				"autoTurnFirst": 10.2,
				"chara": [
					{
						"id": 102900,
						"motion": 300
					}
				]
			},
			{
				"autoTurnFirst": 2.2,
				"chara": [
					{
						"eyeClose": 1,
						"id": 102900,
						"textHome": "Sorry."
					}
				]
			},
			{
				"chara": [
					{
						"id": 102900,
						"textHomeStatus": "Clear"
					}
				]
			}
		],
		"group_10": [
			{
				"autoTurnFirst": 2.7,
				"chara": [
					{
						"cheek": 0,
						"eyeClose": 0,
						"face": "mtn_ex_001.exp.json",
						"id": 102900,
						"motion": 0,
						"pos": 1,
						"voice": "vo_char_1029_00_17",
						"textHome": "It seems that many languages can be used@for robot programming, like C and Python."
					}
				]
			},
			{
				"autoTurnFirst": 3.3,
				"chara": [
					{
						"id": 102900,
						"motion": 100
					}
				]
			},
			{
				"autoTurnFirst": 3.5,
				"chara": [
					{
						"id": 102900,
						"motion": 1
					}
				]
			},
			{
				"autoTurnFirst": 5.0,
				"chara": [
					{
						"cheek": 0,
						"face": "mtn_ex_050.exp.json",
						"id": 102900,
						"motion": 300,
						"textHome": "Although, I don't understand any of them yet."
					}
				]
			},
			{
				"chara": [
					{
						"id": 102900,
						"textHomeStatus": "Clear"
					}
				]
			}
		],
		"group_11": [
			{
				"autoTurnFirst": 4.9,
				"chara": [
					{
						"cheek": 0,
						"eyeClose": 0,
						"face": "mtn_ex_001.exp.json",
						"id": 102900,
						"motion": 0,
						"pos": 1,
						"voice": "vo_char_1029_00_18",
						"textHome": "I've only just started to program,@but I want to make something cool@with optical sensors someday."
					}
				]
			},
			{
				"autoTurnFirst": 7.2,
				"chara": [
					{
						"id": 102900,
						"motion": 200
					}
				]
			},
			{
				"autoTurnFirst": 3.9,
				"chara": [
					{
						"cheek": 0,
						"face": "mtn_ex_010.exp.json",
						"id": 102900,
						"motion": 300,
						"textHome": "I also wanna win a robotics competition."
					}
				]
			},
			{
				"chara": [
					{
						"id": 102900,
						"textHomeStatus": "Clear"
					}
				]
			}
		],
		"group_12": [
			{
				"autoTurnFirst": 3.3,
				"chara": [
					{
						"cheek": 0,
						"eyeClose": 0,
						"face": "mtn_ex_001.exp.json",
						"id": 102900,
						"motion": 400,
						"pos": 1,
						"voice": "vo_char_1029_00_19",
						"textHome": "Weaknesses are won by numbers."
					}
				]
			},
			{
				"autoTurnFirst": 3.0,
				"chara": [
					{
						"id": 102900,
						"motion": 0,
						"textHome": "It's the maximum firepower I can muster,@so I'll never miss."
					}
				]
			},
			{
				"autoTurnFirst": 2.7,
				"chara": [
					{
						"cheek": 0,
						"face": "mtn_ex_020.exp.json",
						"id": 102900,
						"motion": 200
					}
				]
			},
			{
				"chara": [
					{
						"id": 102900,
						"textHomeStatus": "Clear"
					}
				]
			}
		],
		"group_13": [
			{
				"autoTurnFirst": 3.0,
				"chara": [
					{
						"cheek": 0,
						"eyeClose": 0,
						"face": "mtn_ex_001.exp.json",
						"id": 102900,
						"motion": 0,
						"pos": 1,
						"voice": "vo_char_1029_00_20",
						"textHome": "I've taken off my Black Feather robe."
					}
				]
			},
			{
				"autoTurnFirst": 3.5,
				"chara": [
					{
						"id": 102900,
						"motion": 200,
						"textHome": "From now on,@I'll become just a little stronger."
					}
				]
			},
			{
				"chara": [
					{
						"id": 102900,
						"textHomeStatus": "Clear"
					}
				]
			}
		],
		"group_14": [
			{
				"autoTurnFirst": 6.3,
				"chara": [
					{
						"cheek": 0,
						"eyeClose": 0,
						"face": "mtn_ex_030.exp.json",
						"id": 102900,
						"motion": 300,
						"pos": 1,
						"voice": "vo_char_1029_00_21",
						"textHome": "Even after becoming a Magical Girl,@I wasn't strong enough to survive on my own."
					}
				]
			},
			{
				"autoTurnFirst": 7.0,
				"chara": [
					{
						"cheek": 0,
						"face": "mtn_ex_020.exp.json",
						"id": 102900,
						"textHome": "Still, I think I was able to let go@of my cowardice, just a little."
					}
				]
			},
			{
				"autoTurnFirst": 5.0,
				"chara": [
					{
						"id": 102900,
						"motion": 200,
						"textHome": "That's why, I'm going to try harder."
					}
				]
			},
			{
				"chara": [
					{
						"id": 102900,
						"textHomeStatus": "Clear"
					}
				]
			}
		],
		"group_15": [
			{
				"autoTurnFirst": 7.3,
				"chara": [
					{
						"cheek": 0,
						"eyeClose": 1,
						"face": "mtn_ex_010.exp.json",
						"id": 102900,
						"motion": 200,
						"pos": 1,
						"voice": "vo_char_1029_00_22",
						"textHome": "Lady Touka's words,@that Magical Girls are superior,@will always live on in me."
					}
				]
			},
			{
				"autoTurnFirst": 0.5,
				"chara": [
					{
						"eyeClose": 0,
						"id": 102900
					}
				]
			},
			{
				"autoTurnFirst": 4.7,
				"chara": [
					{
						"id": 102900,
						"motion": 0
					}
				]
			},
			{
				"autoTurnFirst": 5.0,
				"chara": [
					{
						"id": 102900,
						"motion": 400,
						"textHome": "That's why I want to@pass them on to everyone."
					}
				]
			},
			{
				"autoTurnFirst": 3.3,
				"chara": [
					{
						"id": 102900,
						"motion": 1,
						"textHome": "Though I can't stand above anyone else,@I hope we can realize our ideals together."
					}
				]
			},
			{
				"autoTurnFirst": 4.7,
				"chara": [
					{
						"id": 102900,
						"motion": 100
					}
				]
			},
			{
				"chara": [
					{
						"id": 102900,
						"textHomeStatus": "Clear"
					}
				]
			}
		],
		"group_16": [
			{
				"autoTurnFirst": 4.0,
				"chara": [
					{
						"cheek": 0,
						"eyeClose": 0,
						"face": "mtn_ex_001.exp.json",
						"id": 102900,
						"motion": 0,
						"pos": 1,
						"voice": "vo_char_1029_00_23"
					}
				]
			},
			{
				"autoTurnFirst": 7.0,
				"chara": [
					{
						"id": 102900,
						"motion": 400
					}
				]
			},
			{
				"autoTurnFirst": 6.2,
				"chara": [
					{
						"cheek": 0,
						"face": "mtn_ex_020.exp.json",
						"id": 102900,
						"motion": 200
					}
				]
			},
			{
				"autoTurnFirst": 3.0,
				"chara": [
					{
						"id": 102900,
						"motion": 300
					}
				]
			},
			{
				"autoTurnFirst": 4.8,
				"chara": [
					{
						"cheek": 0,
						"face": "mtn_ex_030.exp.json",
						"id": 102900
					}
				]
			}
		],
		"group_17": [
			{
				"autoTurnFirst": 5.3,
				"chara": [
					{
						"cheek": 0,
						"eyeClose": 0,
						"face": "mtn_ex_030.exp.json",
						"id": 102900,
						"motion": 1,
						"pos": 1,
						"voice": "vo_char_1029_00_24",
						"textHome": "Here we go again...@You don't have to bother with me."
					}
				]
			},
			{
				"autoTurnFirst": 6.7,
				"chara": [
					{
						"id": 102900,
						"motion": 300,
						"textHome": "And I'm not gonna bother with you, either.@Just go away."
					}
				]
			},
			{
				"autoTurnFirst": 1.5,
				"chara": [
					{
						"cheek": 0,
						"face": "mtn_ex_051.exp.json",
						"id": 102900,
						"motion": 0,
						"textHome": "What?"
					}
				]
			},
			{
				"autoTurnFirst": 3.0,
				"chara": [
					{
						"id": 102900,
						"motion": 100,
						"textHome": "You're staying here...?"
					}
				]
			},
			{
				"chara": [
					{
						"id": 102900,
						"textHomeStatus": "Clear"
					}
				]
			}
		],
		"group_18": [
			{
				"autoTurnFirst": 4.5,
				"chara": [
					{
						"cheek": 0,
						"eyeClose": 1,
						"face": "mtn_ex_030.exp.json",
						"id": 102900,
						"motion": 400,
						"pos": 1,
						"voice": "vo_char_1029_00_25",
						"textHome": "It's morning...@and I'm hungry..."
					}
				]
			},
			{
				"autoTurnFirst": 0.5,
				"chara": [
					{
						"eyeClose": 0,
						"id": 102900
					}
				]
			},
			{
				"autoTurnFirst": 6.2,
				"chara": [
					{
						"id": 102900,
						"motion": 0,
						"textHome": "Is there anything in the fridge again...?@Hmm..."
					}
				]
			},
			{
				"autoTurnFirst": 2.8,
				"chara": [
					{
						"id": 102900,
						"motion": 100,
						"textHome": "I think I'll have some yogurt."
					}
				]
			},
			{
				"autoTurnFirst": 4.0,
				"chara": [
					{
						"id": 102900,
						"motion": 300,
						"textHome": "I wonder if Mom will be mad at me..."
					}
				]
			},
			{
				"chara": [
					{
						"id": 102900,
						"textHomeStatus": "Clear"
					}
				]
			}
		],
		"group_19": [
			{
				"autoTurnFirst": 5.0,
				"chara": [
					{
						"cheek": 0,
						"eyeClose": 0,
						"face": "mtn_ex_001.exp.json",
						"id": 102900,
						"motion": 400,
						"pos": 1,
						"voice": "vo_char_1029_00_26",
						"textHome": "I don't mind being by myself, so go away."
					}
				]
			},
			{
				"autoTurnFirst": 3.3,
				"chara": [
					{
						"id": 102900,
						"motion": 300,
						"textHome": "I enjoy eating alone."
					}
				]
			},
			{
				"autoTurnFirst": 2.0,
				"chara": [
					{
						"eyeClose": 1,
						"id": 102900,
						"textHome": "*Nom*@Mhm."
					}
				]
			},
			{
				"autoTurnFirst": 1.0,
				"chara": [
					{
						"cheek": 0,
						"face": "mtn_ex_010.exp.json",
						"id": 102900
					}
				]
			},
			{
				"autoTurnFirst": 5.7,
				"chara": [
					{
						"eyeClose": 0,
						"id": 102900,
						"textHome": "...Mom's bento is also delicious today."
					}
				]
			},
			{
				"chara": [
					{
						"id": 102900,
						"textHomeStatus": "Clear"
					}
				]
			}
		],
		"group_2": [
			{
				"autoTurnFirst": 4.0,
				"chara": [
					{
						"cheek": 0,
						"eyeClose": 0,
						"face": "mtn_ex_001.exp.json",
						"id": 102900,
						"motion": 0,
						"pos": 1,
						"voice": "vo_char_1029_00_02",
						"textHome": "I'm Shigure. Shigure Miyabi."
					}
				]
			},
			{
				"autoTurnFirst": 5.0,
				"chara": [
					{
						"cheek": 0,
						"face": "mtn_ex_030.exp.json",
						"id": 102900,
						"motion": 300,
						"textHome": "I don't like other people that much."
					}
				]
			},
			{
				"autoTurnFirst": 3.3,
				"chara": [
					{
						"id": 102900,
						"motion": 100,
						"textHome": "But, I'll get used to it."
					}
				]
			},
			{
				"autoTurnFirst": 1.7,
				"chara": [
					{
						"id": 102900,
						"motion": 0,
						"textHome": "So, hey."
					}
				]
			},
			{
				"chara": [
					{
						"id": 102900,
						"textHomeStatus": "Clear"
					}
				]
			}
		],
		"group_20": [
			{
				"autoTurnFirst": 4.5,
				"chara": [
					{
						"cheek": 0,
						"eyeClose": 1,
						"face": "mtn_ex_001.exp.json",
						"id": 102900,
						"motion": 0,
						"pos": 1,
						"voice": "vo_char_1029_00_27",
						"textHome": "Even after school ends,@the sound of machines can still be heard."
					}
				]
			},
			{
				"autoTurnFirst": 2.7,
				"chara": [
					{
						"eyeClose": 0,
						"id": 102900,
						"textHome": "I like how the sounds of@Kosho Academy are almost alive."
					}
				]
			},
			{
				"autoTurnFirst": 2.8,
				"chara": [
					{
						"id": 102900,
						"motion": 100
					}
				]
			},
			{
				"autoTurnFirst": 2.3,
				"chara": [
					{
						"eyeClose": 1,
						"id": 102900,
						"motion": 1,
						"textHome": "Even inorganic things are alive.@That sort of feeling."
					}
				]
			},
			{
				"autoTurnFirst": 0.5,
				"chara": [
					{
						"eyeClose": 0,
						"id": 102900
					}
				]
			},
			{
				"autoTurnFirst": 2.2,
				"chara": [
					{
						"id": 102900,
						"motion": 0
					}
				]
			},
			{
				"chara": [
					{
						"id": 102900,
						"textHomeStatus": "Clear"
					}
				]
			}
		],
		"group_21": [
			{
				"autoTurnFirst": 6.5,
				"chara": [
					{
						"cheek": 0,
						"eyeClose": 0,
						"face": "mtn_ex_001.exp.json",
						"id": 102900,
						"motion": 300,
						"pos": 1,
						"voice": "vo_char_1029_00_28",
						"textHome": "Spread out, little by little.@That Magical Girls are amazing."
					}
				]
			},
			{
				"autoTurnFirst": 4.2,
				"chara": [
					{
						"id": 102900,
						"motion": 0,
						"textHome": "That we are better than mere humans."
					}
				]
			},
			{
				"autoTurnFirst": 6.3,
				"chara": [
					{
						"cheek": 0,
						"face": "mtn_ex_020.exp.json",
						"id": 102900,
						"motion": 200,
						"textHome": "And so, at night, we sneak around@to make more people join us."
					}
				]
			},
			{
				"chara": [
					{
						"id": 102900,
						"textHomeStatus": "Clear"
					}
				]
			}
		],
		"group_22": [
			{
				"autoTurnFirst": 3.0,
				"chara": [
					{
						"cheek": 0,
						"eyeClose": 1,
						"face": "mtn_ex_001.exp.json",
						"id": 102900,
						"motion": 0,
						"pos": 1,
						"voice": "vo_char_1029_00_29",
						"textHome": "One, two, three, last!"
					}
				]
			},
			{
				"autoTurnFirst": 0.5,
				"chara": [
					{
						"eyeClose": 0,
						"id": 102900
					}
				]
			},
			{
				"autoTurnFirst": 1.5,
				"chara": [
					{
						"id": 102900,
						"motion": 400
					}
				]
			},
			{
				"autoTurnFirst": 4.2,
				"chara": [
					{
						"id": 102900,
						"motion": 0,
						"textHome": "I have to practice fighting,@at least in my free time."
					}
				]
			},
			{
				"autoTurnFirst": 3.7,
				"chara": [
					{
						"cheek": 0,
						"face": "mtn_ex_030.exp.json",
						"id": 102900,
						"motion": 300,
						"textHome": "I don't want to be a burden."
					}
				]
			},
			{
				"autoTurnFirst": 4.0,
				"chara": [
					{
						"cheek": 0,
						"face": "mtn_ex_020.exp.json",
						"id": 102900,
						"textHome": "Go away, I need to concentrate."
					}
				]
			},
			{
				"chara": [
					{
						"id": 102900,
						"textHomeStatus": "Clear"
					}
				]
			}
		],
		"group_23": [
			{
				"autoTurnFirst": 3.3,
				"chara": [
					{
						"cheek": 0,
						"eyeClose": 1,
						"face": "mtn_ex_030.exp.json",
						"id": 102900,
						"motion": 300,
						"pos": 1,
						"voice": "vo_char_1029_00_30",
						"textHome": "It's a Witch... There's a Witch..."
					}
				]
			},
			{
				"autoTurnFirst": 3.9,
				"chara": [
					{
						"eyeClose": 0,
						"id": 102900,
						"textHome": "I'm a little nervous,@but I'm stronger than before,@so I can do this."
					}
				]
			},
			{
				"autoTurnFirst": 3.0,
				"chara": [
					{
						"id": 102900,
						"motion": 200
					}
				]
			},
			{
				"autoTurnFirst": 2.8,
				"chara": [
					{
						"cheek": 0,
						"face": "mtn_ex_020.exp.json",
						"id": 102900
					}
				]
			},
			{
				"autoTurnFirst": 4.5,
				"chara": [
					{
						"cheek": 0,
						"face": "mtn_ex_030.exp.json",
						"id": 102900,
						"motion": 0,
						"textHome": "Still, it might be nice@to have someone else there..."
					}
				]
			},
			{
				"autoTurnFirst": 2.5,
				"chara": [
					{
						"id": 102900,
						"motion": 100
					}
				]
			},
			{
				"chara": [
					{
						"id": 102900,
						"textHomeStatus": "Clear"
					}
				]
			}
		],
		"group_24": [
			{
				"autoTurnFirst": 7.0,
				"chara": [
					{
						"cheek": 0,
						"eyeClose": 0,
						"face": "mtn_ex_001.exp.json",
						"id": 102900,
						"motion": 0,
						"pos": 1,
						"voice": "vo_char_1029_00_31",
						"textHome": "Endless Mirrors...@I've seen a copy of myself there."
					}
				]
			},
			{
				"autoTurnFirst": 6.0,
				"chara": [
					{
						"cheek": 0,
						"face": "mtn_ex_030.exp.json",
						"id": 102900,
						"motion": 300,
						"textHome": "It was full of confidence,@and while it was a fake version of me,@I still wish I could be as strong as that..."
					}
				]
			},
			{
				"autoTurnFirst": 6.0,
				"chara": [
					{
						"cheek": 0,
						"face": "mtn_ex_020.exp.json",
						"id": 102900,
						"motion": 100
					}
				]
			},
			{
				"chara": [
					{
						"id": 102900,
						"textHomeStatus": "Clear"
					}
				]
			}
		],
		"group_25": [
			{
				"autoTurnFirst": 6.8,
				"chara": [
					{
						"cheek": 0,
						"eyeClose": 0,
						"face": "mtn_ex_030.exp.json",
						"id": 102900,
						"motion": 100,
						"pos": 1,
						"voice": "vo_char_1029_00_32"
					}
				]
			},
			{
				"autoTurnFirst": 3.2,
				"chara": [
					{
						"cheek": 0,
						"face": "mtn_ex_001.exp.json",
						"id": 102900,
						"motion": 0
					}
				]
			},
			{
				"autoTurnFirst": 4.0,
				"chara": [
					{
						"id": 102900,
						"motion": 200
					}
				]
			}
		],
		"group_26": [
			{
				"autoTurnFirst": 6.0,
				"chara": [
					{
						"cheek": 0,
						"eyeClose": 0,
						"face": "mtn_ex_030.exp.json",
						"id": 102900,
						"motion": 0,
						"pos": 1,
						"voice": "vo_char_1029_00_33",
						"textHome": "I am indeed a former Black Feather."
					}
				]
			},
			{
				"autoTurnFirst": 5.5,
				"chara": [
					{
						"id": 102900,
						"motion": 1,
						"textHome": "If you don't like the Wings of the Magius,@just stay away from me."
					}
				]
			},
			{
				"autoTurnFirst": 4.5,
				"chara": [
					{
						"id": 102900,
						"motion": 300,
						"textHome": "After all, I'm gloomy and not fun."
					}
				]
			},
			{
				"autoTurnFirst": 2.0,
				"chara": [
					{
						"eyeClose": 1,
						"id": 102900
					}
				]
			},
			{
				"chara": [
					{
						"id": 102900,
						"textHomeStatus": "Clear"
					}
				]
			}
		],
		"group_27": [
			{
				"autoTurnFirst": 2.8,
				"chara": [
					{
						"cheek": 0,
						"eyeClose": 0,
						"face": "mtn_ex_051.exp.json",
						"id": 102900,
						"motion": 400,
						"pos": 1,
						"voice": "vo_char_1029_00_34",
						"textHome": "Do you know this keyboard...?!"
					}
				]
			},
			{
				"autoTurnFirst": 2.4,
				"chara": [
					{
						"cheek": 1,
						"id": 102900,
						"motion": 0,
						"textHome": "Oh, ahh, it's nothing..."
					}
				]
			},
			{
				"autoTurnFirst": 2.8,
				"chara": [
					{
						"cheek": 1,
						"face": "mtn_ex_030.exp.json",
						"id": 102900
					}
				]
			},
			{
				"autoTurnFirst": 6.5,
				"chara": [
					{
						"cheek": 0,
						"id": 102900,
						"motion": 300,
						"textHome": "It's my favorite keyboard,@because it feels so good to type on."
					}
				]
			},
			{
				"autoTurnFirst": 3.5,
				"chara": [
					{
						"cheek": 0,
						"face": "mtn_ex_010.exp.json",
						"id": 102900,
						"textHome": "Got it from Gramps."
					}
				]
			},
			{
				"chara": [
					{
						"id": 102900,
						"textHomeStatus": "Clear"
					}
				]
			}
		],
		"group_28": [
			{
				"autoTurnFirst": 4.0,
				"chara": [
					{
						"cheek": 0,
						"eyeClose": 0,
						"face": "mtn_ex_001.exp.json",
						"id": 102900,
						"motion": 100,
						"pos": 1,
						"voice": "vo_char_1029_00_35",
						"textHome": "I don't play that many games,@but I kinda like them."
					}
				]
			},
			{
				"autoTurnFirst": 2.7,
				"chara": [
					{
						"cheek": 0,
						"face": "mtn_ex_010.exp.json",
						"id": 102900
					}
				]
			},
			{
				"autoTurnFirst": 5.1,
				"chara": [
					{
						"cheek": 0,
						"eyeClose": 1,
						"face": "mtn_ex_001.exp.json",
						"id": 102900,
						"motion": 1,
						"textHome": "Especially VR games,@because they are immersive."
					}
				]
			},
			{
				"autoTurnFirst": 0.5,
				"chara": [
					{
						"eyeClose": 0,
						"id": 102900
					}
				]
			},
			{
				"autoTurnFirst": 4.7,
				"chara": [
					{
						"cheek": 0,
						"face": "mtn_ex_010.exp.json",
						"id": 102900,
						"motion": 200,
						"textHome": "In an open world, I can be someone else."
					}
				]
			},
			{
				"chara": [
					{
						"id": 102900,
						"textHomeStatus": "Clear"
					}
				]
			}
		],
		"group_29": [
			{
				"autoTurnFirst": 4.0,
				"chara": [
					{
						"cheek": 0,
						"eyeClose": 0,
						"face": "mtn_ex_051.exp.json",
						"id": 102900,
						"motion": 0,
						"pos": 1,
						"voice": "vo_char_1029_00_36",
						"textHome": "What? I'm not sleepy at all."
					}
				]
			},
			{
				"autoTurnFirst": 3.2,
				"chara": [
					{
						"cheek": 0,
						"face": "mtn_ex_001.exp.json",
						"id": 102900,
						"textHome": "I'm a short sleeper by nature,@so my eyes are still wide open, no problem."
					}
				]
			},
			{
				"autoTurnFirst": 3.8,
				"chara": [
					{
						"id": 102900,
						"motion": 200
					}
				]
			},
			{
				"chara": [
					{
						"id": 102900,
						"textHomeStatus": "Clear"
					}
				]
			}
		],
		"group_3": [
			{
				"autoTurnFirst": 5.5,
				"chara": [
					{
						"cheek": 0,
						"eyeClose": 0,
						"face": "mtn_ex_030.exp.json",
						"id": 102900,
						"motion": 300,
						"pos": 1,
						"voice": "vo_char_1029_00_03"
					}
				]
			},
			{
				"autoTurnFirst": 1.5,
				"chara": [
					{
						"cheek": 0,
						"eyeClose": 1,
						"face": "mtn_ex_010.exp.json",
						"id": 102900
					}
				]
			}
		],
		"group_30": [
			{
				"autoTurnFirst": 2.5,
				"chara": [
					{
						"cheek": 1,
						"eyeClose": 0,
						"face": "mtn_ex_014.exp.json",
						"id": 102900,
						"motion": 100,
						"pos": 1,
						"voice": "vo_char_1029_00_37",
						"textHome": "Are you going to praise me...?"
					}
				]
			},
			{
				"autoTurnFirst": 1.5,
				"chara": [
					{
						"cheek": 1,
						"face": "mtn_ex_001.exp.json",
						"id": 102900,
						"motion": 0,
						"textHome": "If you're going to praise me,@you can praise me, a lot."
					}
				]
			},
			{
				"autoTurnFirst": 2.0,
				"chara": [
					{
						"id": 102900,
						"motion": 300
					}
				]
			},
			{
				"autoTurnFirst": 2.0,
				"chara": [
					{
						"cheek": 1,
						"face": "mtn_ex_010.exp.json",
						"id": 102900
					}
				]
			},
			{
				"chara": [
					{
						"id": 102900,
						"textHomeStatus": "Clear"
					}
				]
			}
		],
		"group_31": [
			{
				"autoTurnFirst": 7.8,
				"chara": [
					{
						"cheek": 1,
						"eyeClose": 1,
						"face": "mtn_ex_010.exp.json",
						"id": 102900,
						"motion": 100,
						"pos": 1,
						"voice": "vo_char_1029_00_38",
						"textHome": "Hagumun's lap pillow@is very soft, and very cozy."
					}
				]
			},
			{
				"autoTurnFirst": 0.5,
				"chara": [
					{
						"eyeClose": 0,
						"id": 102900
					}
				]
			},
			{
				"autoTurnFirst": 6.0,
				"chara": [
					{
						"id": 102900,
						"motion": 1,
						"textHome": "Even I, who usually can't sleep,@can easily fall asleep on it."
					}
				]
			},
			{
				"autoTurnFirst": 2.2,
				"chara": [
					{
						"cheek": 0,
						"face": "mtn_ex_001.exp.json",
						"id": 102900,
						"motion": 0,
						"textHome": "Highly recommended,@but not for anyone except me."
					}
				]
			},
			{
				"autoTurnFirst": 3.5,
				"chara": [
					{
						"cheek": 0,
						"face": "mtn_ex_020.exp.json",
						"id": 102900,
						"motion": 200
					}
				]
			},
			{
				"chara": [
					{
						"id": 102900,
						"textHomeStatus": "Clear"
					}
				]
			}
		],
		"group_32": [
			{
				"autoTurnFirst": 6.0,
				"chara": [
					{
						"cheek": 0,
						"eyeClose": 0,
						"face": "mtn_ex_030.exp.json",
						"id": 102900,
						"motion": 300,
						"pos": 1,
						"voice": "vo_char_1029_00_39",
						"textHome": "Looks like Mom was with@an unknown man, again."
					}
				]
			},
			{
				"autoTurnFirst": 3.8,
				"chara": [
					{
						"eyeClose": 1,
						"id": 102900,
						"textHome": "I heard that Gramps went to pick her up."
					}
				]
			},
			{
				"autoTurnFirst": 0.5,
				"chara": [
					{
						"eyeClose": 0,
						"id": 102900
					}
				]
			},
			{
				"autoTurnFirst": 4.3,
				"chara": [
					{
						"id": 102900,
						"motion": 1,
						"textHome": "I know things can't possibly@turn out too bad, but I'm still worried."
					}
				]
			},
			{
				"autoTurnFirst": 3.4,
				"chara": [
					{
						"eyeClose": 1,
						"id": 102900,
						"motion": 0
					}
				]
			},
			{
				"chara": [
					{
						"id": 102900,
						"textHomeStatus": "Clear"
					}
				]
			}
		],
		"group_33": [
			{
				"autoTurnFirst": 2.0,
				"chara": [
					{
						"cheek": 0,
						"eyeClose": 0,
						"face": "mtn_ex_001.exp.json",
						"id": 102900,
						"motion": 100,
						"pos": 1,
						"voice": "vo_char_1029_00_40",
						"textHome": "Hey, you know what?"
					}
				]
			},
			{
				"autoTurnFirst": 7.5,
				"chara": [
					{
						"cheek": 0,
						"face": "mtn_ex_010.exp.json",
						"id": 102900,
						"motion": 1,
						"textHome": "Both Lady Touka and Lady Nemu said that@history has proven that Magical Girls@are superior to ordinary humans."
					}
				]
			},
			{
				"autoTurnFirst": 3.5,
				"chara": [
					{
						"id": 102900,
						"motion": 200
					}
				]
			},
			{
				"autoTurnFirst": 4.0,
				"chara": [
					{
						"cheek": 1,
						"face": "mtn_ex_014.exp.json",
						"id": 102900,
						"motion": 100,
						"textHome": "This is my hope."
					}
				]
			},
			{
				"chara": [
					{
						"id": 102900,
						"textHomeStatus": "Clear"
					}
				]
			}
		],
		"group_34": [
			{
				"autoTurnFirst": 4.0,
				"chara": [
					{
						"cheek": 0,
						"eyeClose": 0,
						"face": "mtn_ex_001.exp.json",
						"id": 102900,
						"motion": 0,
						"pos": 1,
						"voice": "vo_char_1029_00_41",
						"textHome": "There are only a few people@I'm willing to open my heart to."
					}
				]
			},
			{
				"autoTurnFirst": 3.5,
				"chara": [
					{
						"id": 102900,
						"motion": 300,
						"textHome": "But, perhaps, you could be one of them."
					}
				]
			},
			{
				"autoTurnFirst": 5.5,
				"chara": [
					{
						"cheek": 0,
						"face": "mtn_ex_010.exp.json",
						"id": 102900
					}
				]
			},
			{
				"autoTurnFirst": 3.2,
				"chara": [
					{
						"cheek": 0,
						"eyeClose": 1,
						"face": "mtn_ex_030.exp.json",
						"id": 102900,
						"motion": 100,
						"textHome": "Um, no, nevermind."
					}
				]
			},
			{
				"chara": [
					{
						"id": 102900,
						"textHomeStatus": "Clear"
					}
				]
			}
		],
		"group_35": [
			{
				"autoTurnFirst": 3.0,
				"chara": [
					{
						"cheek": 0,
						"eyeClose": 0,
						"face": "mtn_ex_020.exp.json",
						"id": 102900,
						"motion": 200,
						"pos": 1,
						"voice": "vo_char_1029_00_42",
						"textHome": "The current me can do it, surely."
					}
				]
			},
			{
				"chara": [
					{
						"id": 102900,
						"textHomeStatus": "Clear"
					}
				]
			}
		],
		"group_36": [
			{
				"autoTurnFirst": 0.7,
				"chara": [
					{
						"cheek": 0,
						"eyeClose": 1,
						"face": "mtn_ex_020.exp.json",
						"id": 102900,
						"motion": 0,
						"pos": 1,
						"voice": "vo_char_1029_00_43",
						"textHome": "My conclusion: this is the end."
					}
				]
			},
			{
				"autoTurnFirst": 2.3,
				"chara": [
					{
						"eyeClose": 0,
						"id": 102900
					}
				]
			},
			{
				"chara": [
					{
						"id": 102900,
						"textHomeStatus": "Clear"
					}
				]
			}
		],
		"group_37": [
			{
				"autoTurnFirst": 2.8,
				"chara": [
					{
						"cheek": 0,
						"eyeClose": 1,
						"face": "mtn_ex_020.exp.json",
						"id": 102900,
						"motion": 0,
						"pos": 1,
						"voice": "vo_char_1029_00_44",
						"textHome": "3-2-1, you're out."
					}
				]
			},
			{
				"autoTurnFirst": 0.5,
				"chara": [
					{
						"eyeClose": 0,
						"id": 102900
					}
				]
			},
			{
				"autoTurnFirst": 1.7,
				"chara": [
					{
						"id": 102900,
						"motion": 400
					}
				]
			},
			{
				"chara": [
					{
						"id": 102900,
						"textHomeStatus": "Clear"
					}
				]
			}
		],
		"group_38": [
			{
				"autoTurnFirst": 2.2,
				"chara": [
					{
						"cheek": 0,
						"eyeClose": 0,
						"face": "mtn_ex_001.exp.json",
						"id": 102900,
						"motion": 0,
						"pos": 1,
						"voice": "vo_char_1029_00_45",
						"textHome": "Is this a little bit closer to the ideal?"
					}
				]
			},
			{
				"autoTurnFirst": 2.8,
				"chara": [
					{
						"cheek": 0,
						"face": "mtn_ex_014.exp.json",
						"id": 102900,
						"motion": 100
					}
				]
			},
			{
				"chara": [
					{
						"id": 102900,
						"textHomeStatus": "Clear"
					}
				]
			}
		],
		"group_39": [
			{
				"autoTurnFirst": 3.0,
				"chara": [
					{
						"cheek": 0,
						"eyeClose": 0,
						"face": "mtn_ex_020.exp.json",
						"id": 102900,
						"motion": 100,
						"pos": 1,
						"voice": "vo_char_1029_00_46",
						"textHome": "I've gotten to the point@where I can't retreat anymore."
					}
				]
			},
			{
				"chara": [
					{
						"id": 102900,
						"textHomeStatus": "Clear"
					}
				]
			}
		],
		"group_4": [
			{
				"autoTurnFirst": 5.0,
				"chara": [
					{
						"cheek": 0,
						"eyeClose": 1,
						"face": "mtn_ex_010.exp.json",
						"id": 102900,
						"motion": 100,
						"pos": 1,
						"voice": "vo_char_1029_00_04"
					}
				]
			}
		],
		"group_5": [
			{
				"autoTurnFirst": 5.0,
				"chara": [
					{
						"cheek": 0,
						"eyeClose": 0,
						"face": "mtn_ex_020.exp.json",
						"id": 102900,
						"motion": 300,
						"pos": 1,
						"voice": "vo_char_1029_00_05"
					}
				]
			}
		],
		"group_6": [
			{
				"autoTurnFirst": 2.7,
				"chara": [
					{
						"cheek": 0,
						"eyeClose": 0,
						"face": "mtn_ex_001.exp.json",
						"id": 102900,
						"motion": 0,
						"pos": 1,
						"voice": "vo_char_1029_00_13",
						"textHome": "Can someone as weak as me really@feel themselves becoming stronger...?"
					}
				]
			},
			{
				"autoTurnFirst": 3.2,
				"chara": [
					{
						"id": 102900,
						"motion": 100
					}
				]
			},
			{
				"chara": [
					{
						"id": 102900,
						"textHomeStatus": "Clear"
					}
				]
			}
		],
		"group_7": [
			{
				"autoTurnFirst": 2.7,
				"chara": [
					{
						"cheek": 0,
						"eyeClose": 0,
						"face": "mtn_ex_010.exp.json",
						"id": 102900,
						"motion": 200,
						"pos": 1,
						"voice": "vo_char_1029_00_14",
						"textHome": "Now that I can defeat Witches too,@I'm very excited."
					}
				]
			},
			{
				"autoTurnFirst": 2.3,
				"chara": [
					{
						"eyeClose": 1,
						"id": 102900
					}
				]
			},
			{
				"chara": [
					{
						"id": 102900,
						"textHomeStatus": "Clear"
					}
				]
			}
		],
		"group_8": [
			{
				"autoTurnFirst": 4.5,
				"chara": [
					{
						"cheek": 0,
						"eyeClose": 0,
						"face": "mtn_ex_001.exp.json",
						"id": 102900,
						"motion": 1,
						"pos": 1,
						"voice": "vo_char_1029_00_15",
						"textHome": "No one else is allowed to hear.@I'm going to tell you something special,@so keep it to yourself."
					}
				]
			},
			{
				"autoTurnFirst": 2.0,
				"chara": [
					{
						"cheek": 0,
						"face": "mtn_ex_010.exp.json",
						"id": 102900,
						"motion": 100
					}
				]
			},
			{
				"chara": [
					{
						"id": 102900,
						"textHomeStatus": "Clear"
					}
				]
			}
		],
		"group_9": [
			{
				"autoTurnFirst": 7.5,
				"chara": [
					{
						"cheek": 0,
						"eyeClose": 0,
						"face": "mtn_ex_001.exp.json",
						"id": 102900,
						"motion": 1,
						"pos": 1,
						"voice": "vo_char_1029_00_16",
						"textHome": "I like to build robots.@I've only just started, though."
					}
				]
			},
			{
				"autoTurnFirst": 7.0,
				"chara": [
					{
						"id": 102900,
						"motion": 200,
						"textHome": "I use the circuit boards that Gramps gave me,@and attach them to acrylic plates."
					}
				]
			},
			{
				"chara": [
					{
						"id": 102900,
						"textHomeStatus": "Clear"
					}
				]
			}
		]
	},
	"version": 3
}