{
	"story": {
		"group_1": [
			{
				"autoTurnFirst": 1.5,
				"chara": [
					{
						"cheek": 0,
						"eyeClose": 0,
						"face": "mtn_ex_011.exp.json",
						"id": 303700,
						"motion": 100,
						"pos": 1,
						"voice": "vo_char_3037_00_01"
					}
				]
			},
			{
				"autoTurnFirst": 4.0,
				"chara": [
					{
						"cheek": 0,
						"face": "mtn_ex_010.exp.json",
						"id": 303700
					}
				]
			},
			{
				"autoTurnFirst": 3.5,
				"chara": [
					{
						"cheek": 0,
						"face": "mtn_ex_050.exp.json",
						"id": 303700,
						"motion": 400
					}
				]
			},
			{
				"autoTurnFirst": 5.2,
				"chara": [
					{
						"cheek": 0,
						"face": "mtn_ex_010.exp.json",
						"id": 303700,
						"motion": 1
					}
				]
			},
			{
				"autoTurnFirst": 2.3,
				"chara": [
					{
						"cheek": 0,
						"face": "mtn_ex_011.exp.json",
						"id": 303700
					}
				]
			},
			{
				"autoTurnFirst": 1.0,
				"chara": [
					{
						"cheek": 0,
						"face": "mtn_ex_050.exp.json",
						"id": 303700,
						"motion": 0
					}
				]
			},
			{
				"autoTurnFirst": 3.5,
				"chara": [
					{
						"cheek": 0,
						"face": "mtn_ex_020.exp.json",
						"id": 303700,
						"motion": 200
					}
				]
			}
		],
		"group_10": [
			{
				"autoTurnFirst": 3.0,
				"chara": [
					{
						"cheek": 0,
						"eyeClose": 0,
						"face": "mtn_ex_020.exp.json",
						"id": 303700,
						"motion": 200,
						"pos": 1,
						"voice": "vo_char_3037_00_18"
					}
				]
			},
			{
				"autoTurnFirst": 3.0,
				"chara": [
					{
						"cheek": 0,
						"face": "mtn_ex_030.exp.json",
						"id": 303700
					}
				]
			},
			{
				"autoTurnFirst": 1.4,
				"chara": [
					{
						"cheek": 0,
						"face": "mtn_ex_010.exp.json",
						"id": 303700,
						"motion": 0
					}
				]
			},
			{
				"autoTurnFirst": 3.0,
				"chara": [
					{
						"cheek": 0,
						"face": "mtn_ex_011.exp.json",
						"id": 303700,
						"motion": 100
					}
				]
			}
		],
		"group_11": [
			{
				"autoTurnFirst": 3.0,
				"chara": [
					{
						"cheek": 0,
						"eyeClose": 0,
						"face": "mtn_ex_010.exp.json",
						"id": 303700,
						"motion": 400,
						"pos": 1,
						"voice": "vo_char_3037_00_19"
					}
				]
			},
			{
				"autoTurnFirst": 3.0,
				"chara": [
					{
						"cheek": 0,
						"face": "mtn_ex_011.exp.json",
						"id": 303700
					}
				]
			}
		],
		"group_12": [
			{
				"autoTurnFirst": 2.0,
				"chara": [
					{
						"cheek": 0,
						"eyeClose": 0,
						"face": "mtn_ex_020.exp.json",
						"id": 303700,
						"motion": 0,
						"pos": 1,
						"voice": "vo_char_3037_00_20"
					}
				]
			},
			{
				"autoTurnFirst": 4.0,
				"chara": [
					{
						"id": 303700,
						"motion": 200
					}
				]
			}
		],
		"group_13": [
			{
				"autoTurnFirst": 5.7,
				"chara": [
					{
						"cheek": 0,
						"eyeClose": 0,
						"face": "mtn_ex_030.exp.json",
						"id": 303700,
						"motion": 300,
						"pos": 1,
						"voice": "vo_char_3037_00_21"
					}
				]
			},
			{
				"autoTurnFirst": 3.0,
				"chara": [
					{
						"cheek": 0,
						"face": "mtn_ex_050.exp.json",
						"id": 303700,
						"motion": 0
					}
				]
			},
			{
				"autoTurnFirst": 4.5,
				"chara": [
					{
						"cheek": 0,
						"face": "mtn_ex_010.exp.json",
						"id": 303700,
						"motion": 200
					}
				]
			}
		],
		"group_14": [
			{
				"autoTurnFirst": 5.5,
				"chara": [
					{
						"cheek": 1,
						"eyeClose": 0,
						"face": "mtn_ex_030.exp.json",
						"id": 303700,
						"motion": 300,
						"pos": 1,
						"voice": "vo_char_3037_00_22"
					}
				]
			},
			{
				"autoTurnFirst": 4.3,
				"chara": [
					{
						"cheek": 1,
						"face": "mtn_ex_010.exp.json",
						"id": 303700,
						"motion": 1
					}
				]
			},
			{
				"autoTurnFirst": 1.5,
				"chara": [
					{
						"cheek": 1,
						"face": "mtn_ex_011.exp.json",
						"id": 303700
					}
				]
			},
			{
				"autoTurnFirst": 2.5,
				"chara": [
					{
						"cheek": 1,
						"face": "mtn_ex_010.exp.json",
						"id": 303700,
						"motion": 100
					}
				]
			},
			{
				"autoTurnFirst": 1.8,
				"chara": [
					{
						"cheek": 1,
						"face": "mtn_ex_011.exp.json",
						"id": 303700
					}
				]
			}
		],
		"group_15": [
			{
				"autoTurnFirst": 4.0,
				"chara": [
					{
						"cheek": 0,
						"eyeClose": 0,
						"face": "mtn_ex_030.exp.json",
						"id": 303700,
						"motion": 0,
						"pos": 1,
						"voice": "vo_char_3037_00_23"
					}
				]
			},
			{
				"autoTurnFirst": 6.5,
				"chara": [
					{
						"id": 303700,
						"motion": 300
					}
				]
			},
			{
				"autoTurnFirst": 4.5,
				"chara": [
					{
						"cheek": 0,
						"face": "mtn_ex_010.exp.json",
						"id": 303700,
						"motion": 0
					}
				]
			},
			{
				"autoTurnFirst": 1.5,
				"chara": [
					{
						"id": 303700,
						"motion": 100
					}
				]
			},
			{
				"autoTurnFirst": 2.0,
				"chara": [
					{
						"cheek": 0,
						"face": "mtn_ex_011.exp.json",
						"id": 303700
					}
				]
			}
		],
		"group_16": [
			{
				"autoTurnFirst": 1.8,
				"chara": [
					{
						"cheek": 0,
						"eyeClose": 1,
						"face": "mtn_ex_010.exp.json",
						"id": 303751,
						"motion": 200,
						"pos": 1,
						"voice": "vo_char_3037_51_24",
						"textHome": "Heh heh heh~♪"
					}
				]
			},
			{
				"autoTurnFirst": 4.2,
				"chara": [
					{
						"eyeClose": 0,
						"id": 303751,
						"textHome": "You've come to see me, haven't you?"
					}
				]
			},
			{
				"autoTurnFirst": 2.4,
				"chara": [
					{
						"id": 303751,
						"motion": 400,
						"textHome": "Trick or treat~!"
					}
				]
			},
			{
				"autoTurnFirst": 3.6,
				"chara": [
					{
						"cheek": 0,
						"face": "mtn_ex_011.exp.json",
						"id": 303751,
						"motion": 100,
						"textHome": "Come on, give me some candy!"
					}
				]
			},
			{
				"chara": [
					{
						"id": 303751,
						"textHomeStatus": "Clear"
					}
				]
			}
		],
		"group_17": [
			{
				"autoTurnFirst": 8.5,
				"chara": [
					{
						"cheek": 0,
						"eyeClose": 1,
						"face": "mtn_ex_030.exp.json",
						"id": 303751,
						"motion": 300,
						"pos": 1,
						"voice": "vo_char_3037_51_25",
						"textHome": "Hnnnghh...@I'm sleeping because it's morning..."
					}
				]
			},
			{
				"autoTurnFirst": 11.0,
				"chara": [
					{
						"id": 303751,
						"motion": 200,
						"textHome": "It seems that I'm now@a family member of a dark vampire,@so I'm allowed to sleep in..."
					}
				]
			},
			{
				"autoTurnFirst": 5.0,
				"chara": [
					{
						"cheek": 0,
						"eyeClose": 1,
						"face": "mtn_ex_010.exp.json",
						"id": 303751,
						"textHome": "Zzz..."
					}
				]
			},
			{
				"chara": [
					{
						"id": 303751,
						"textHomeStatus": "Clear"
					}
				]
			}
		],
		"group_18": [
			{
				"autoTurnFirst": 4.5,
				"chara": [
					{
						"cheek": 0,
						"eyeClose": 0,
						"face": "mtn_ex_010.exp.json",
						"id": 303751,
						"motion": 100,
						"pos": 1,
						"voice": "vo_char_3037_51_26",
						"textHome": "Since it's Halloween, don't you think@we're allowed to have candy for lunch?"
					}
				]
			},
			{
				"autoTurnFirst": 1.2,
				"chara": [
					{
						"cheek": 0,
						"face": "mtn_ex_030.exp.json",
						"id": 303751,
						"textHome": "But when I tried to do that before,@lots of people got mad at me..."
					}
				]
			},
			{
				"autoTurnFirst": 2.0,
				"chara": [
					{
						"id": 303751,
						"motion": 0
					}
				]
			},
			{
				"autoTurnFirst": 3.3,
				"chara": [
					{
						"id": 303751,
						"motion": 300
					}
				]
			},
			{
				"chara": [
					{
						"id": 303751,
						"textHomeStatus": "Clear"
					}
				]
			}
		],
		"group_19": [
			{
				"autoTurnFirst": 2.8,
				"chara": [
					{
						"cheek": 0,
						"eyeClose": 0,
						"face": "mtn_ex_010.exp.json",
						"id": 303751,
						"motion": 0,
						"pos": 1,
						"voice": "vo_char_3037_51_27",
						"textHome": "The sun has set."
					}
				]
			},
			{
				"autoTurnFirst": 2.5,
				"chara": [
					{
						"id": 303751,
						"motion": 100,
						"textHome": "Now it's our showtime!"
					}
				]
			},
			{
				"autoTurnFirst": 2.2,
				"chara": [
					{
						"id": 303751,
						"motion": 200,
						"textHome": "C'mon, let's have fun like no tomorrow!"
					}
				]
			},
			{
				"autoTurnFirst": 4.0,
				"chara": [
					{
						"cheek": 0,
						"face": "mtn_ex_011.exp.json",
						"id": 303751
					}
				]
			},
			{
				"chara": [
					{
						"id": 303751,
						"textHomeStatus": "Clear"
					}
				]
			}
		],
		"group_2": [
			{
				"autoTurnFirst": 2.3,
				"chara": [
					{
						"cheek": 0,
						"eyeClose": 0,
						"face": "mtn_ex_010.exp.json",
						"id": 303700,
						"motion": 100,
						"pos": 1,
						"voice": "vo_char_3037_00_03"
					}
				]
			},
			{
				"autoTurnFirst": 2.0,
				"chara": [
					{
						"cheek": 0,
						"face": "mtn_ex_011.exp.json",
						"id": 303700
					}
				]
			}
		],
		"group_20": [
			{
				"autoTurnFirst": 5.7,
				"chara": [
					{
						"cheek": 0,
						"eyeClose": 0,
						"face": "mtn_ex_030.exp.json",
						"id": 303751,
						"motion": 300,
						"pos": 1,
						"voice": "vo_char_3037_51_28",
						"textHome": "I was once seen by Kanagi@when I was imitating an owl..."
					}
				]
			},
			{
				"autoTurnFirst": 2.3,
				"chara": [
					{
						"eyeClose": 1,
						"id": 303751,
						"textHome": "I was really embarrassed about that..."
					}
				]
			},
			{
				"autoTurnFirst": 0.5,
				"chara": [
					{
						"eyeClose": 0,
						"id": 303751
					}
				]
			},
			{
				"autoTurnFirst": 3.0,
				"chara": [
					{
						"cheek": 2,
						"face": "mtn_ex_050.exp.json",
						"id": 303751,
						"motion": 400,
						"textHome": "I'll never do it again!"
					}
				]
			},
			{
				"chara": [
					{
						"id": 303751,
						"textHomeStatus": "Clear"
					}
				]
			}
		],
		"group_21": [
			{
				"autoTurnFirst": 3.5,
				"chara": [
					{
						"cheek": 0,
						"eyeClose": 0,
						"face": "mtn_ex_010.exp.json",
						"id": 303751,
						"motion": 100,
						"pos": 1,
						"voice": "vo_char_3037_51_29",
						"textHome": "I'm trying to figure out@who to visit and when to visit them@in order to get lots of candy."
					}
				]
			},
			{
				"autoTurnFirst": 3.8,
				"chara": [
					{
						"id": 303751,
						"motion": 200
					}
				]
			},
			{
				"autoTurnFirst": 4.2,
				"chara": [
					{
						"cheek": 0,
						"face": "mtn_ex_030.exp.json",
						"id": 303751,
						"textHome": "I'd love to use fortune-telling for this,@but getting in trouble over it is..."
					}
				]
			},
			{
				"autoTurnFirst": 3.3,
				"chara": [
					{
						"eyeClose": 1,
						"id": 303751,
						"motion": 300,
						"textHome": "Yeaahhh..."
					}
				]
			},
			{
				"chara": [
					{
						"id": 303751,
						"textHomeStatus": "Clear"
					}
				]
			}
		],
		"group_22": [
			{
				"autoTurnFirst": 4.0,
				"chara": [
					{
						"cheek": 0,
						"eyeClose": 0,
						"face": "mtn_ex_030.exp.json",
						"id": 303751,
						"motion": 200,
						"pos": 1,
						"voice": "vo_char_3037_51_30",
						"textHome": "I would like to take a break from@Witch-slaying, at least for Halloween,"
					}
				]
			},
			{
				"autoTurnFirst": 2.2,
				"chara": [
					{
						"cheek": 0,
						"face": "mtn_ex_020.exp.json",
						"id": 303751,
						"textHome": "but that's not going to happen."
					}
				]
			},
			{
				"autoTurnFirst": 3.8,
				"chara": [
					{
						"cheek": 0,
						"face": "mtn_ex_011.exp.json",
						"id": 303751,
						"motion": 100,
						"textHome": "We don't want anything sad@to happen on such a fun day!"
					}
				]
			},
			{
				"chara": [
					{
						"id": 303751,
						"textHomeStatus": "Clear"
					}
				]
			}
		],
		"group_23": [
			{
				"autoTurnFirst": 4.0,
				"chara": [
					{
						"cheek": 0,
						"eyeClose": 0,
						"face": "mtn_ex_030.exp.json",
						"id": 303751,
						"motion": 300,
						"pos": 1,
						"voice": "vo_char_3037_51_31",
						"textHome": "I don't have any good@memories of Endless Mirrors..."
					}
				]
			},
			{
				"autoTurnFirst": 3.2,
				"chara": [
					{
						"cheek": 0,
						"face": "mtn_ex_020.exp.json",
						"id": 303751,
						"textHome": "I was falsely accused..."
					}
				]
			},
			{
				"autoTurnFirst": 4.5,
				"chara": [
					{
						"cheek": 0,
						"face": "mtn_ex_030.exp.json",
						"id": 303751,
						"motion": 0,
						"textHome": "I wonder if they still@have copies of me there."
					}
				]
			},
			{
				"chara": [
					{
						"id": 303751,
						"textHomeStatus": "Clear"
					}
				]
			}
		],
		"group_24": [
			{
				"autoTurnFirst": 2.3,
				"chara": [
					{
						"cheek": 0,
						"eyeClose": 0,
						"face": "mtn_ex_010.exp.json",
						"id": 303751,
						"motion": 0,
						"pos": 1,
						"voice": "vo_char_3037_51_32"
					}
				]
			},
			{
				"autoTurnFirst": 2.9,
				"chara": [
					{
						"id": 303751,
						"motion": 400
					}
				]
			},
			{
				"autoTurnFirst": 2.8,
				"chara": [
					{
						"cheek": 0,
						"face": "mtn_ex_011.exp.json",
						"id": 303751,
						"motion": 100
					}
				]
			}
		],
		"group_25": [
			{
				"autoTurnFirst": 3.2,
				"chara": [
					{
						"cheek": 0,
						"eyeClose": 0,
						"face": "mtn_ex_010.exp.json",
						"id": 303751,
						"motion": 0,
						"pos": 1,
						"voice": "vo_char_3037_51_33",
						"textHome": "We celebrated Halloween at home too!"
					}
				]
			},
			{
				"autoTurnFirst": 2.9,
				"chara": [
					{
						"id": 303751,
						"motion": 200,
						"textHome": "My mom and I prepared pumpkin dishes"
					}
				]
			},
			{
				"autoTurnFirst": 5.0,
				"chara": [
					{
						"eyeClose": 1,
						"id": 303751,
						"textHome": "and surprised my dad with@party poppers when he came home."
					}
				]
			},
			{
				"chara": [
					{
						"id": 303751,
						"textHomeStatus": "Clear"
					}
				]
			}
		],
		"group_26": [
			{
				"autoTurnFirst": 5.0,
				"chara": [
					{
						"cheek": 0,
						"eyeClose": 0,
						"face": "mtn_ex_050.exp.json",
						"id": 303751,
						"motion": 1,
						"pos": 1,
						"voice": "vo_char_3037_51_34",
						"textHome": "Hmmm...@Special fortune-telling for Halloween..."
					}
				]
			},
			{
				"autoTurnFirst": 2.7,
				"chara": [
					{
						"id": 303751,
						"motion": 300,
						"textHome": "Fortune telling using pumpkins...?"
					}
				]
			},
			{
				"autoTurnFirst": 2.0,
				"chara": [
					{
						"cheek": 0,
						"face": "mtn_ex_030.exp.json",
						"id": 303751,
						"textHome": "I don't think there's any..."
					}
				]
			},
			{
				"autoTurnFirst": 5.3,
				"chara": [
					{
						"cheek": 0,
						"face": "mtn_ex_010.exp.json",
						"id": 303751,
						"motion": 200,
						"textHome": "The only reasonable thing to do@is to arrange the cards@in the shape of a pumpkin."
					}
				]
			},
			{
				"chara": [
					{
						"id": 303751,
						"textHomeStatus": "Clear"
					}
				]
			}
		],
		"group_27": [
			{
				"autoTurnFirst": 1.7,
				"chara": [
					{
						"cheek": 0,
						"eyeClose": 0,
						"face": "mtn_ex_010.exp.json",
						"id": 303751,
						"motion": 0,
						"pos": 1,
						"voice": "vo_char_3037_51_35",
						"textHome": "One Halloween, I said,@\"If I'm going to dress up,@I'm going to be a fortune teller!\""
					}
				]
			},
			{
				"autoTurnFirst": 1.8,
				"chara": [
					{
						"cheek": 0,
						"face": "mtn_ex_011.exp.json",
						"id": 303751,
						"motion": 100
					}
				]
			},
			{
				"autoTurnFirst": 1.0,
				"chara": [
					{
						"cheek": 0,
						"face": "mtn_ex_030.exp.json",
						"id": 303751
					}
				]
			},
			{
				"autoTurnFirst": 4.5,
				"chara": [
					{
						"id": 303751,
						"motion": 0,
						"textHome": "But they just laughed at me@and said \"So same as always!\""
					}
				]
			},
			{
				"chara": [
					{
						"id": 303751,
						"textHomeStatus": "Clear"
					}
				]
			}
		],
		"group_28": [
			{
				"autoTurnFirst": 4.7,
				"chara": [
					{
						"cheek": 0,
						"eyeClose": 0,
						"face": "mtn_ex_010.exp.json",
						"id": 303751,
						"motion": 400,
						"pos": 1,
						"voice": "vo_char_3037_51_36",
						"textHome": "Yachiyo-senpai once brought me back@some leftover sweet potatoes!"
					}
				]
			},
			{
				"autoTurnFirst": 4.0,
				"chara": [
					{
						"cheek": 0,
						"face": "mtn_ex_011.exp.json",
						"id": 303751,
						"motion": 0,
						"textHome": "Those sweet potatoes@were really delicious!"
					}
				]
			},
			{
				"autoTurnFirst": 2.3,
				"chara": [
					{
						"cheek": 0,
						"face": "mtn_ex_010.exp.json",
						"id": 303751,
						"motion": 200,
						"textHome": "I wish I could eat it again..."
					}
				]
			},
			{
				"chara": [
					{
						"id": 303751,
						"textHomeStatus": "Clear"
					}
				]
			}
		],
		"group_29": [
			{
				"autoTurnFirst": 4.6,
				"chara": [
					{
						"cheek": 0,
						"eyeClose": 0,
						"face": "mtn_ex_010.exp.json",
						"id": 303751,
						"motion": 1,
						"pos": 1,
						"voice": "vo_char_3037_51_37",
						"textHome": "I'm kind of spoiled by Kanae, aren't I?"
					}
				]
			},
			{
				"autoTurnFirst": 1.9,
				"chara": [
					{
						"id": 303751,
						"motion": 200,
						"textHome": "At first glance, she looks scary,"
					}
				]
			},
			{
				"autoTurnFirst": 3.5,
				"chara": [
					{
						"cheek": 0,
						"face": "mtn_ex_011.exp.json",
						"id": 303751,
						"textHome": "but when I spoil her, she spoils me..."
					}
				]
			},
			{
				"chara": [
					{
						"id": 303751,
						"textHomeStatus": "Clear"
					}
				]
			}
		],
		"group_3": [
			{
				"autoTurnFirst": 2.0,
				"chara": [
					{
						"cheek": 0,
						"eyeClose": 1,
						"face": "mtn_ex_020.exp.json",
						"id": 303700,
						"motion": 0,
						"pos": 1,
						"voice": "vo_char_3037_00_04"
					}
				]
			},
			{
				"autoTurnFirst": 3.0,
				"chara": [
					{
						"eyeClose": 0,
						"id": 303700,
						"motion": 200
					}
				]
			}
		],
		"group_30": [
			{
				"autoTurnFirst": 2.3,
				"chara": [
					{
						"cheek": 0,
						"eyeClose": 0,
						"face": "mtn_ex_010.exp.json",
						"id": 303751,
						"motion": 1,
						"pos": 1,
						"voice": "vo_char_3037_51_38",
						"textHome": "One of the games we play on Halloween@is apple bobbing, where you take an apple@floating in water with your mouth,"
					}
				]
			},
			{
				"autoTurnFirst": 4.0,
				"chara": [
					{
						"id": 303751,
						"motion": 200
					}
				]
			},
			{
				"autoTurnFirst": 2.1,
				"chara": [
					{
						"id": 303751,
						"motion": 400,
						"textHome": "but it was originally@love fortune telling!"
					}
				]
			},
			{
				"autoTurnFirst": 2.7,
				"chara": [
					{
						"cheek": 0,
						"face": "mtn_ex_011.exp.json",
						"id": 303751,
						"textHome": "Did you know that?"
					}
				]
			},
			{
				"chara": [
					{
						"id": 303751,
						"textHomeStatus": "Clear"
					}
				]
			}
		],
		"group_31": [
			{
				"autoTurnFirst": 3.7,
				"chara": [
					{
						"cheek": 0,
						"eyeClose": 0,
						"face": "mtn_ex_020.exp.json",
						"id": 303751,
						"motion": 400,
						"pos": 1,
						"voice": "vo_char_3037_51_39",
						"textHome": "Kanagi doesn't listen to anyone!"
					}
				]
			},
			{
				"autoTurnFirst": 4.1,
				"chara": [
					{
						"id": 303751,
						"motion": 200,
						"textHome": "I love owls, but@these hair accessories are bats!"
					}
				]
			},
			{
				"autoTurnFirst": 2.2,
				"chara": [
					{
						"id": 303751,
						"motion": 300,
						"textHome": "This makes a dark fortune teller!"
					}
				]
			},
			{
				"autoTurnFirst": 4.0,
				"chara": [
					{
						"cheek": 0,
						"face": "mtn_ex_050.exp.json",
						"id": 303751,
						"textHome": "A dark fortune teller..."
					}
				]
			},
			{
				"autoTurnFirst": 2.5,
				"chara": [
					{
						"cheek": 0,
						"eyeClose": 1,
						"face": "mtn_ex_010.exp.json",
						"id": 303751,
						"motion": 0,
						"textHome": "That's not so bad."
					}
				]
			},
			{
				"chara": [
					{
						"id": 303751,
						"textHomeStatus": "Clear"
					}
				]
			}
		],
		"group_32": [
			{
				"autoTurnFirst": 6.5,
				"chara": [
					{
						"cheek": 0,
						"eyeClose": 0,
						"face": "mtn_ex_020.exp.json",
						"id": 303751,
						"motion": 200,
						"pos": 1,
						"voice": "vo_char_3037_51_40",
						"textHome": "Kanagi is always lecturing people,@she never listens to me, and@she's always so inflexible to boot!"
					}
				]
			},
			{
				"autoTurnFirst": 5.5,
				"chara": [
					{
						"cheek": 0,
						"face": "mtn_ex_030.exp.json",
						"id": 303751,
						"motion": 0,
						"textHome": "Well, I actually don't dislike her@as much as I say, but..."
					}
				]
			},
			{
				"autoTurnFirst": 2.0,
				"chara": [
					{
						"cheek": 0,
						"face": "mtn_ex_020.exp.json",
						"id": 303751,
						"motion": 100,
						"textHome": "Don't tell anyone, okay?"
					}
				]
			},
			{
				"chara": [
					{
						"id": 303751,
						"textHomeStatus": "Clear"
					}
				]
			}
		],
		"group_33": [
			{
				"autoTurnFirst": 3.2,
				"chara": [
					{
						"cheek": 0,
						"eyeClose": 0,
						"face": "mtn_ex_050.exp.json",
						"id": 303751,
						"motion": 400,
						"pos": 1,
						"voice": "vo_char_3037_51_41",
						"textHome": "What?@\"Trick or treat\","
					}
				]
			},
			{
				"autoTurnFirst": 3.4,
				"chara": [
					{
						"cheek": 0,
						"face": "mtn_ex_020.exp.json",
						"id": 303751,
						"motion": 100,
						"textHome": "are you trying to get me@to give you candy?"
					}
				]
			},
			{
				"autoTurnFirst": 4.6,
				"chara": [
					{
						"cheek": 0,
						"face": "mtn_ex_030.exp.json",
						"id": 303751,
						"motion": 300,
						"textHome": "I'm just a trick-or-treater,@I don't have any."
					}
				]
			},
			{
				"autoTurnFirst": 1.5,
				"chara": [
					{
						"cheek": 0,
						"face": "mtn_ex_020.exp.json",
						"id": 303751,
						"textHome": "Urgh..."
					}
				]
			},
			{
				"autoTurnFirst": 3.3,
				"chara": [
					{
						"eyeClose": 1,
						"id": 303751,
						"motion": 0,
						"textHome": "Alright, bring on the tricks!"
					}
				]
			},
			{
				"chara": [
					{
						"id": 303751,
						"textHomeStatus": "Clear"
					}
				]
			}
		],
		"group_34": [
			{
				"autoTurnFirst": 1.5,
				"chara": [
					{
						"cheek": 0,
						"eyeClose": 0,
						"face": "mtn_ex_020.exp.json",
						"id": 303700,
						"motion": 400,
						"pos": 1,
						"voice": "vo_char_3037_00_42"
					}
				]
			},
			{
				"autoTurnFirst": 2.5,
				"chara": [
					{
						"id": 303700,
						"motion": 200
					}
				]
			}
		],
		"group_35": [
			{
				"autoTurnFirst": 4.0,
				"chara": [
					{
						"cheek": 0,
						"eyeClose": 0,
						"face": "mtn_ex_020.exp.json",
						"id": 303700,
						"motion": 100,
						"pos": 1,
						"voice": "vo_char_3037_00_43"
					}
				]
			}
		],
		"group_36": [
			{
				"autoTurnFirst": 4.0,
				"chara": [
					{
						"cheek": 0,
						"eyeClose": 0,
						"face": "mtn_ex_010.exp.json",
						"id": 303700,
						"motion": 200,
						"pos": 1,
						"voice": "vo_char_3037_00_44"
					}
				]
			}
		],
		"group_37": [
			{
				"autoTurnFirst": 4.0,
				"chara": [
					{
						"cheek": 0,
						"eyeClose": 0,
						"face": "mtn_ex_010.exp.json",
						"id": 303700,
						"motion": 200,
						"pos": 1,
						"voice": "vo_char_3037_00_45"
					}
				]
			}
		],
		"group_38": [
			{
				"autoTurnFirst": 4.0,
				"chara": [
					{
						"cheek": 0,
						"eyeClose": 0,
						"face": "mtn_ex_011.exp.json",
						"id": 303700,
						"motion": 100,
						"pos": 1,
						"voice": "vo_char_3037_00_46"
					}
				]
			}
		],
		"group_39": [
			{
				"autoTurnFirst": 4.0,
				"chara": [
					{
						"cheek": 1,
						"eyeClose": 0,
						"face": "mtn_ex_020.exp.json",
						"id": 303700,
						"motion": 100,
						"pos": 1,
						"voice": "vo_char_3037_00_63"
					}
				]
			}
		],
		"group_4": [
			{
				"autoTurnFirst": 2.0,
				"chara": [
					{
						"cheek": 0,
						"eyeClose": 0,
						"face": "mtn_ex_010.exp.json",
						"id": 303700,
						"motion": 1,
						"pos": 1,
						"voice": "vo_char_3037_00_05"
					}
				]
			},
			{
				"autoTurnFirst": 3.0,
				"chara": [
					{
						"cheek": 0,
						"face": "mtn_ex_011.exp.json",
						"id": 303700,
						"motion": 100
					}
				]
			}
		],
		"group_40": [
			{
				"autoTurnFirst": 4.0,
				"chara": [
					{
						"cheek": 1,
						"eyeClose": 0,
						"face": "mtn_ex_020.exp.json",
						"id": 303700,
						"motion": 200,
						"pos": 1,
						"voice": "vo_char_3037_00_64"
					}
				]
			}
		],
		"group_41": [
			{
				"autoTurnFirst": 4.0,
				"chara": [
					{
						"cheek": 1,
						"eyeClose": 0,
						"face": "mtn_ex_020.exp.json",
						"id": 303700,
						"motion": 400,
						"pos": 1,
						"voice": "vo_char_3037_00_65"
					}
				]
			}
		],
		"group_42": [
			{
				"autoTurnFirst": 3.0,
				"chara": [
					{
						"cheek": 1,
						"eyeClose": 0,
						"face": "mtn_ex_020.exp.json",
						"id": 303700,
						"motion": 200,
						"pos": 1,
						"voice": "vo_char_3037_00_66"
					}
				]
			}
		],
		"group_43": [
			{
				"autoTurnFirst": 2.6,
				"chara": [
					{
						"cheek": 0,
						"eyeClose": 0,
						"face": "mtn_ex_010.exp.json",
						"id": 303700,
						"motion": 100,
						"pos": 1,
						"voice": "vo_char_3037_00_02"
					}
				]
			},
			{
				"autoTurnFirst": 5.5,
				"chara": [
					{
						"cheek": 0,
						"face": "mtn_ex_050.exp.json",
						"id": 303700,
						"motion": 0
					}
				]
			},
			{
				"autoTurnFirst": 1.8,
				"chara": [
					{
						"cheek": 0,
						"face": "mtn_ex_010.exp.json",
						"id": 303700,
						"motion": 100
					}
				]
			},
			{
				"autoTurnFirst": 4.0,
				"chara": [
					{
						"cheek": 0,
						"id": 303700,
						"motion": 200
					}
				]
			}
		],
		"group_5": [
			{
				"autoTurnFirst": 4.0,
				"chara": [
					{
						"cheek": 2,
						"eyeClose": 0,
						"face": "mtn_ex_010.exp.json",
						"id": 303700,
						"motion": 100,
						"pos": 1,
						"voice": "vo_char_3037_00_13"
					}
				]
			}
		],
		"group_6": [
			{
				"autoTurnFirst": 2.0,
				"chara": [
					{
						"cheek": 0,
						"eyeClose": 0,
						"face": "mtn_ex_010.exp.json",
						"id": 303700,
						"motion": 100,
						"pos": 1,
						"voice": "vo_char_3037_00_14"
					}
				]
			},
			{
				"autoTurnFirst": 3.0,
				"chara": [
					{
						"cheek": 0,
						"face": "mtn_ex_011.exp.json",
						"id": 303700
					}
				]
			}
		],
		"group_7": [
			{
				"autoTurnFirst": 1.4,
				"chara": [
					{
						"cheek": 0,
						"eyeClose": 0,
						"face": "mtn_ex_011.exp.json",
						"id": 303700,
						"motion": 0,
						"pos": 1,
						"voice": "vo_char_3037_00_15"
					}
				]
			},
			{
				"autoTurnFirst": 4.0,
				"chara": [
					{
						"cheek": 0,
						"face": "mtn_ex_010.exp.json",
						"id": 303700,
						"motion": 200
					}
				]
			}
		],
		"group_8": [
			{
				"autoTurnFirst": 3.0,
				"chara": [
					{
						"cheek": 0,
						"eyeClose": 0,
						"face": "mtn_ex_010.exp.json",
						"id": 303700,
						"motion": 200,
						"pos": 1,
						"voice": "vo_char_3037_00_16"
					}
				]
			},
			{
				"autoTurnFirst": 4.5,
				"chara": [
					{
						"id": 303700,
						"motion": 1
					}
				]
			},
			{
				"autoTurnFirst": 2.5,
				"chara": [
					{
						"id": 303700,
						"motion": 100
					}
				]
			}
		],
		"group_9": [
			{
				"autoTurnFirst": 9.7,
				"chara": [
					{
						"cheek": 0,
						"eyeClose": 0,
						"face": "mtn_ex_010.exp.json",
						"id": 303700,
						"motion": 1,
						"pos": 1,
						"voice": "vo_char_3037_00_17"
					}
				]
			},
			{
				"autoTurnFirst": 3.0,
				"chara": [
					{
						"cheek": 0,
						"face": "mtn_ex_011.exp.json",
						"id": 303700,
						"motion": 100
					}
				]
			}
		]
	},
	"version": 3
}