{
	"story": {
		"group_1": [
			{
				"autoTurnFirst": 10.0,
				"chara": [
					{
						"cheek": 0,
						"eyeClose": 0,
						"face": "mtn_ex_000.exp.json",
						"id": 402200,
						"motion": 1,
						"pos": 1,
						"voice": "vo_char_4022_00_01"
					}
				]
			},
			{
				"autoTurnFirst": 6.2,
				"chara": [
					{
						"eyeClose": 1,
						"id": 402200,
						"motion": 100
					}
				]
			},
			{
				"autoTurnFirst": 0.3,
				"chara": [
					{
						"eyeClose": 0,
						"id": 402200
					}
				]
			},
			{
				"autoTurnFirst": 2.2,
				"chara": [
					{
						"id": 402200,
						"motion": 0
					}
				]
			},
			{
				"autoTurnFirst": 3.5,
				"chara": [
					{
						"id": 402200,
						"motion": 200
					}
				]
			}
		],
		"group_10": [
			{
				"autoTurnFirst": 6.0,
				"chara": [
					{
						"cheek": 2,
						"eyeClose": 0,
						"face": "mtn_ex_050.exp.json",
						"id": 402200,
						"motion": 0,
						"pos": 1,
						"voice": "vo_char_4022_00_18"
					}
				]
			},
			{
				"autoTurnFirst": 4.0,
				"chara": [
					{
						"cheek": 2,
						"face": "mtn_ex_010.exp.json",
						"id": 402200,
						"motion": 1
					}
				]
			},
			{
				"autoTurnFirst": 3.0,
				"chara": [
					{
						"id": 402200,
						"motion": 100
					}
				]
			}
		],
		"group_11": [
			{
				"autoTurnFirst": 1.5,
				"chara": [
					{
						"cheek": 0,
						"eyeClose": 0,
						"face": "mtn_ex_000.exp.json",
						"id": 402200,
						"motion": 0,
						"pos": 1,
						"voice": "vo_char_4022_00_19"
					}
				]
			},
			{
				"autoTurnFirst": 4.0,
				"chara": [
					{
						"id": 402200,
						"motion": 100
					}
				]
			}
		],
		"group_12": [
			{
				"autoTurnFirst": 3.0,
				"chara": [
					{
						"cheek": 0,
						"eyeClose": 0,
						"face": "mtn_ex_010.exp.json",
						"id": 402200,
						"motion": 1,
						"pos": 1,
						"voice": "vo_char_4022_00_20"
					}
				]
			},
			{
				"autoTurnFirst": 2.0,
				"chara": [
					{
						"id": 402200,
						"motion": 100
					}
				]
			}
		],
		"group_13": [
			{
				"autoTurnFirst": 3.0,
				"chara": [
					{
						"cheek": 0,
						"eyeClose": 0,
						"face": "mtn_ex_010.exp.json",
						"id": 402200,
						"motion": 0,
						"pos": 1,
						"voice": "vo_char_4022_00_21"
					}
				]
			},
			{
				"autoTurnFirst": 5.0,
				"chara": [
					{
						"id": 402200,
						"motion": 1
					}
				]
			},
			{
				"autoTurnFirst": 3.0,
				"chara": [
					{
						"id": 402200,
						"motion": 100
					}
				]
			}
		],
		"group_14": [
			{
				"autoTurnFirst": 4.0,
				"chara": [
					{
						"cheek": 1,
						"eyeClose": 0,
						"face": "mtn_ex_010.exp.json",
						"id": 402200,
						"motion": 100,
						"pos": 1,
						"voice": "vo_char_4022_00_22"
					}
				]
			},
			{
				"autoTurnFirst": 2.0,
				"chara": [
					{
						"eyeClose": 1,
						"id": 402200
					}
				]
			},
			{
				"autoTurnFirst": 4.5,
				"chara": [
					{
						"eyeClose": 0,
						"id": 402200
					}
				]
			},
			{
				"autoTurnFirst": 7.5,
				"chara": [
					{
						"id": 402200,
						"motion": 1
					}
				]
			}
		],
		"group_15": [
			{
				"autoTurnFirst": 5.0,
				"chara": [
					{
						"cheek": 0,
						"eyeClose": 0,
						"face": "mtn_ex_000.exp.json",
						"id": 402200,
						"motion": 0,
						"pos": 1,
						"voice": "vo_char_4022_00_23"
					}
				]
			},
			{
				"autoTurnFirst": 4.0,
				"chara": [
					{
						"id": 402200,
						"motion": 100
					}
				]
			},
			{
				"autoTurnFirst": 6.5,
				"chara": [
					{
						"cheek": 0,
						"face": "mtn_ex_010.exp.json",
						"id": 402200
					}
				]
			},
			{
				"autoTurnFirst": 4.5,
				"chara": [
					{
						"cheek": 0,
						"face": "mtn_ex_030.exp.json",
						"id": 402200,
						"motion": 300
					}
				]
			}
		],
		"group_16": [
			{
				"autoTurnFirst": 3.0,
				"chara": [
					{
						"cheek": 0,
						"eyeClose": 0,
						"face": "mtn_ex_010.exp.json",
						"id": 402250,
						"motion": 0,
						"pos": 1,
						"voice": "vo_char_4022_50_24",
						"textHome": "It's the start of a new day."
					}
				]
			},
			{
				"autoTurnFirst": 5.6,
				"chara": [
					{
						"cheek": 0,
						"face": "mtn_ex_000.exp.json",
						"id": 402250,
						"motion": 1,
						"textHome": "What should we do?@I don't have any plans, so if it's alright,@I think I'll stay with you."
					}
				]
			},
			{
				"autoTurnFirst": 3.2,
				"chara": [
					{
						"cheek": 0,
						"face": "mtn_ex_010.exp.json",
						"id": 402250,
						"motion": 100
					}
				]
			},
			{
				"chara": [
					{
						"id": 402250,
						"textHomeStatus": "Clear"
					}
				]
			}
		],
		"group_17": [
			{
				"autoTurnFirst": 6.5,
				"chara": [
					{
						"cheek": 0,
						"eyeClose": 0,
						"face": "mtn_ex_010.exp.json",
						"id": 402250,
						"motion": 100,
						"pos": 1,
						"voice": "vo_char_4022_50_25",
						"textHome": "Good morning.@We have some time before class,@so let's go to the café lounge."
					}
				]
			},
			{
				"autoTurnFirst": 2.5,
				"chara": [
					{
						"eyeClose": 0,
						"id": 402250,
						"motion": 1,
						"textHome": "I never feel awake in the morning@until I have a honey café au lait."
					}
				]
			},
			{
				"autoTurnFirst": 3.0,
				"chara": [
					{
						"cheek": 0,
						"eyeClose": 0,
						"face": "mtn_ex_030.exp.json",
						"id": 402250,
						"motion": 300
					}
				]
			},
			{
				"chara": [
					{
						"id": 402250,
						"textHomeStatus": "Clear"
					}
				]
			}
		],
		"group_18": [
			{
				"autoTurnFirst": 1.2,
				"chara": [
					{
						"cheek": 0,
						"eyeClose": 0,
						"face": "mtn_ex_000.exp.json",
						"id": 402250,
						"motion": 0,
						"pos": 1,
						"voice": "vo_char_4022_50_26",
						"textHome": "Ah, there you are.@Come on, it's time for lunch."
					}
				]
			},
			{
				"autoTurnFirst": 2.6,
				"chara": [
					{
						"id": 402250,
						"motion": 200
					}
				]
			},
			{
				"autoTurnFirst": 0.9,
				"chara": [
					{
						"cheek": 0,
						"face": "mtn_ex_050.exp.json",
						"id": 402250,
						"motion": 0,
						"textHome": "...Hm?@Oh, sorry! I was just wondering@if Tart was here yet."
					}
				]
			},
			{
				"autoTurnFirst": 0.9,
				"chara": [
					{
						"cheek": 2,
						"face": "mtn_ex_030.exp.json",
						"id": 402250
					}
				]
			},
			{
				"autoTurnFirst": 5.5,
				"chara": [
					{
						"id": 402250,
						"motion": 300
					}
				]
			},
			{
				"chara": [
					{
						"id": 402250,
						"textHomeStatus": "Clear"
					}
				]
			}
		],
		"group_19": [
			{
				"autoTurnFirst": 2.8,
				"chara": [
					{
						"cheek": 0,
						"eyeClose": 0,
						"face": "mtn_ex_000.exp.json",
						"id": 402250,
						"motion": 0,
						"pos": 1,
						"voice": "vo_char_4022_50_27",
						"textHome": "I'm going to head out soon."
					}
				]
			},
			{
				"autoTurnFirst": 3.2,
				"chara": [
					{
						"id": 402250,
						"motion": 100,
						"textHome": "Well, I am in the Going-Home Club."
					}
				]
			},
			{
				"autoTurnFirst": 6.0,
				"chara": [
					{
						"id": 402250,
						"motion": 300,
						"textHome": "It's often misunderstood,@but it's not a made-up group,@but an official club."
					}
				]
			},
			{
				"autoTurnFirst": 1.4,
				"chara": [
					{
						"id": 402250,
						"motion": 0,
						"textHome": "Our activities are, of course, to go home."
					}
				]
			},
			{
				"autoTurnFirst": 3.1,
				"chara": [
					{
						"id": 402250,
						"motion": 200
					}
				]
			},
			{
				"chara": [
					{
						"id": 402250,
						"textHomeStatus": "Clear"
					}
				]
			}
		],
		"group_2": [
			{
				"autoTurnFirst": 3.0,
				"chara": [
					{
						"cheek": 2,
						"eyeClose": 0,
						"face": "mtn_ex_020.exp.json",
						"id": 402200,
						"motion": 300,
						"pos": 1,
						"voice": "vo_char_4022_00_03"
					}
				]
			}
		],
		"group_20": [
			{
				"autoTurnFirst": 2.7,
				"chara": [
					{
						"cheek": 0,
						"eyeClose": 0,
						"face": "mtn_ex_000.exp.json",
						"id": 402250,
						"motion": 1,
						"pos": 1,
						"voice": "vo_char_4022_50_28",
						"textHome": "Tart sent me a message."
					}
				]
			},
			{
				"autoTurnFirst": 2.0,
				"chara": [
					{
						"cheek": 0,
						"id": 402250,
						"motion": 300,
						"textHome": "Let's see..."
					}
				]
			},
			{
				"autoTurnFirst": 2.1,
				"chara": [
					{
						"cheek": 0,
						"face": "mtn_ex_050.exp.json",
						"id": 402250,
						"textHome": "\"Good night\"."
					}
				]
			},
			{
				"autoTurnFirst": 1.7,
				"chara": [
					{
						"cheek": 0,
						"face": "mtn_ex_010.exp.json",
						"id": 402250,
						"textHome": "Hm... I know you're not confident@with your phone, but it looks like@you did your best."
					}
				]
			},
			{
				"autoTurnFirst": 5.5,
				"chara": [
					{
						"id": 402250,
						"motion": 100
					}
				]
			},
			{
				"chara": [
					{
						"id": 402250,
						"textHomeStatus": "Clear"
					}
				]
			}
		],
		"group_21": [
			{
				"autoTurnFirst": 1.7,
				"chara": [
					{
						"cheek": 0,
						"eyeClose": 0,
						"face": "mtn_ex_000.exp.json",
						"id": 402250,
						"motion": 0,
						"pos": 1,
						"voice": "vo_char_4022_50_29",
						"textHome": "Have you heard?"
					}
				]
			},
			{
				"autoTurnFirst": 5.6,
				"chara": [
					{
						"id": 402250,
						"motion": 300,
						"textHome": "There's a Tart fan club in the school,@and the president is rumored to be@the Head of the Year."
					}
				]
			},
			{
				"autoTurnFirst": 4.7,
				"chara": [
					{
						"id": 402250,
						"motion": 200
					}
				]
			},
			{
				"chara": [
					{
						"id": 402250,
						"textHomeStatus": "Clear"
					}
				]
			}
		],
		"group_22": [
			{
				"autoTurnFirst": 3.0,
				"chara": [
					{
						"cheek": 0,
						"eyeClose": 0,
						"face": "mtn_ex_030.exp.json",
						"id": 402250,
						"motion": 100,
						"pos": 1,
						"voice": "vo_char_4022_50_30",
						"textHome": "I sense an ominous presence in the city..."
					}
				]
			},
			{
				"autoTurnFirst": 4.1,
				"chara": [
					{
						"cheek": 0,
						"face": "mtn_ex_020.exp.json",
						"id": 402250,
						"motion": 0,
						"textHome": "Let's go; we can't leave those who would@threaten the peace to do as they please."
					}
				]
			},
			{
				"autoTurnFirst": 3.4,
				"chara": [
					{
						"id": 402250,
						"motion": 200
					}
				]
			},
			{
				"chara": [
					{
						"id": 402250,
						"textHomeStatus": "Clear"
					}
				]
			}
		],
		"group_23": [
			{
				"autoTurnFirst": 5.0,
				"chara": [
					{
						"cheek": 0,
						"eyeClose": 0,
						"face": "mtn_ex_000.exp.json",
						"id": 402250,
						"motion": 100,
						"pos": 1,
						"voice": "vo_char_4022_50_31",
						"textHome": "They say meeting your other self@is a bad omen, but I wonder what I should do@if I were to meet my doppelgänger."
					}
				]
			},
			{
				"autoTurnFirst": 4.5,
				"chara": [
					{
						"cheek": 0,
						"face": "mtn_ex_030.exp.json",
						"id": 402250,
						"motion": 1
					}
				]
			},
			{
				"autoTurnFirst": 3.5,
				"chara": [
					{
						"id": 402250,
						"motion": 300
					}
				]
			},
			{
				"chara": [
					{
						"id": 402250,
						"textHomeStatus": "Clear"
					}
				]
			}
		],
		"group_24": [
			{
				"autoTurnFirst": 4.0,
				"chara": [
					{
						"cheek": 0,
						"eyeClose": 0,
						"face": "mtn_ex_000.exp.json",
						"id": 402250,
						"motion": 1,
						"pos": 1,
						"voice": "vo_char_4022_50_32"
					}
				]
			},
			{
				"autoTurnFirst": 2.5,
				"chara": [
					{
						"id": 402250,
						"motion": 200
					}
				]
			},
			{
				"autoTurnFirst": 2.3,
				"chara": [
					{
						"cheek": 0,
						"face": "mtn_ex_010.exp.json",
						"id": 402250
					}
				]
			},
			{
				"autoTurnFirst": 3.4,
				"chara": [
					{
						"id": 402250,
						"motion": 0
					}
				]
			}
		],
		"group_25": [
			{
				"autoTurnFirst": 2.3,
				"chara": [
					{
						"cheek": 0,
						"eyeClose": 0,
						"face": "mtn_ex_000.exp.json",
						"id": 402250,
						"motion": 1,
						"pos": 1,
						"voice": "vo_char_4022_50_33",
						"textHome": "My favorite food is..."
					}
				]
			},
			{
				"autoTurnFirst": 1.6,
				"chara": [
					{
						"eyeClose": 1,
						"id": 402250,
						"textHome": "Well, sweets."
					}
				]
			},
			{
				"autoTurnFirst": 2.1,
				"chara": [
					{
						"cheek": 0,
						"face": "mtn_ex_010.exp.json",
						"id": 402250
					}
				]
			},
			{
				"autoTurnFirst": 0.5,
				"chara": [
					{
						"eyeClose": 0,
						"id": 402250
					}
				]
			},
			{
				"autoTurnFirst": 3.4,
				"chara": [
					{
						"cheek": 0,
						"face": "mtn_ex_000.exp.json",
						"id": 402250,
						"motion": 100,
						"textHome": "I'm not trying to hide it,@it's just that sometimes people give me@a weird look when they find out."
					}
				]
			},
			{
				"autoTurnFirst": 2.0,
				"chara": [
					{
						"cheek": 0,
						"face": "mtn_ex_030.exp.json",
						"id": 402250
					}
				]
			},
			{
				"autoTurnFirst": 3.2,
				"chara": [
					{
						"id": 402250,
						"motion": 0
					}
				]
			},
			{
				"chara": [
					{
						"id": 402250,
						"textHomeStatus": "Clear"
					}
				]
			}
		],
		"group_26": [
			{
				"autoTurnFirst": 4.4,
				"chara": [
					{
						"cheek": 0,
						"eyeClose": 0,
						"face": "mtn_ex_000.exp.json",
						"id": 402250,
						"motion": 0,
						"pos": 1,
						"voice": "vo_char_4022_50_34",
						"textHome": "Ms. Specs...@She's kind of strange, isn't she?"
					}
				]
			},
			{
				"autoTurnFirst": 6.3,
				"chara": [
					{
						"id": 402250,
						"motion": 1,
						"textHome": "I used to think she was a chemistry teacher,@but lately I've been seeing her@come and go from the infirmary."
					}
				]
			},
			{
				"autoTurnFirst": 5.3,
				"chara": [
					{
						"cheek": 0,
						"face": "mtn_ex_030.exp.json",
						"id": 402250,
						"motion": 300,
						"textHome": "I wonder if she works here at all..."
					}
				]
			},
			{
				"chara": [
					{
						"id": 402250,
						"textHomeStatus": "Clear"
					}
				]
			}
		],
		"group_27": [
			{
				"autoTurnFirst": 5.0,
				"chara": [
					{
						"cheek": 0,
						"eyeClose": 0,
						"face": "mtn_ex_000.exp.json",
						"id": 402250,
						"motion": 100,
						"pos": 1,
						"voice": "vo_char_4022_50_35",
						"textHome": "I'm often asked about the other activities@of the Going-Home Club, but I always have@a hard time answering that."
					}
				]
			},
			{
				"autoTurnFirst": 3.5,
				"chara": [
					{
						"cheek": 0,
						"face": "mtn_ex_030.exp.json",
						"id": 402250,
						"motion": 0
					}
				]
			},
			{
				"autoTurnFirst": 1.9,
				"chara": [
					{
						"cheek": 0,
						"id": 402250,
						"motion": 200,
						"textHome": "It's not like there's extreme home-going@or anything of the sort."
					}
				]
			},
			{
				"autoTurnFirst": 3.5,
				"chara": [
					{
						"cheek": 0,
						"face": "mtn_ex_000.exp.json",
						"id": 402250,
						"motion": 300
					}
				]
			},
			{
				"chara": [
					{
						"id": 402250,
						"textHomeStatus": "Clear"
					}
				]
			}
		],
		"group_28": [
			{
				"autoTurnFirst": 2.2,
				"chara": [
					{
						"cheek": 0,
						"eyeClose": 0,
						"face": "mtn_ex_050.exp.json",
						"id": 402250,
						"motion": 400,
						"pos": 1,
						"voice": "vo_char_4022_50_36",
						"textHome": "Ah, so cute...! "
					}
				]
			},
			{
				"autoTurnFirst": 2.1,
				"chara": [
					{
						"cheek": 1,
						"face": "mtn_ex_010.exp.json",
						"id": 402250
					}
				]
			},
			{
				"autoTurnFirst": 3.0,
				"chara": [
					{
						"id": 402250,
						"motion": 0,
						"textHome": "That dog at the pet store..."
					}
				]
			},
			{
				"autoTurnFirst": 3.4,
				"chara": [
					{
						"id": 402250,
						"motion": 100,
						"textHome": "Oh, and that kitten!"
					}
				]
			},
			{
				"autoTurnFirst": 1.8,
				"chara": [
					{
						"id": 402250,
						"motion": 1,
						"textHome": "What should I do..."
					}
				]
			},
			{
				"autoTurnFirst": 3.5,
				"chara": [
					{
						"eyeClose": 1,
						"id": 402250,
						"textHome": "I just want to take them all home...!"
					}
				]
			},
			{
				"chara": [
					{
						"id": 402250,
						"textHomeStatus": "Clear"
					}
				]
			}
		],
		"group_29": [
			{
				"autoTurnFirst": 6.0,
				"chara": [
					{
						"cheek": 0,
						"eyeClose": 0,
						"face": "mtn_ex_000.exp.json",
						"id": 402250,
						"motion": 300,
						"pos": 1,
						"voice": "vo_char_4022_50_37",
						"textHome": "Tart is so sweet and innocent that@I'm worried she'll attract bad people."
					}
				]
			},
			{
				"autoTurnFirst": 2.5,
				"chara": [
					{
						"id": 402250,
						"motion": 0,
						"textHome": "However, she seems to change@the minds of anyone she meets@that may have bad intentions."
					}
				]
			},
			{
				"autoTurnFirst": 3.5,
				"chara": [
					{
						"cheek": 0,
						"face": "mtn_ex_010.exp.json",
						"id": 402250,
						"motion": 100
					}
				]
			},
			{
				"chara": [
					{
						"id": 402250,
						"textHomeStatus": "Clear"
					}
				]
			}
		],
		"group_3": [
			{
				"autoTurnFirst": 4.0,
				"chara": [
					{
						"cheek": 0,
						"eyeClose": 0,
						"face": "mtn_ex_000.exp.json",
						"id": 402200,
						"motion": 100,
						"pos": 1,
						"voice": "vo_char_4022_00_04"
					}
				]
			}
		],
		"group_30": [
			{
				"autoTurnFirst": 3.2,
				"chara": [
					{
						"cheek": 0,
						"eyeClose": 0,
						"face": "mtn_ex_000.exp.json",
						"id": 402250,
						"motion": 1,
						"pos": 1,
						"voice": "vo_char_4022_50_38",
						"textHome": "I'm not the type of person@who lives on their phone, but I do@send messages and play games on it."
					}
				]
			},
			{
				"autoTurnFirst": 4.3,
				"chara": [
					{
						"id": 402250,
						"motion": 300
					}
				]
			},
			{
				"autoTurnFirst": 5.5,
				"chara": [
					{
						"cheek": 1,
						"face": "mtn_ex_010.exp.json",
						"id": 402250,
						"motion": 100,
						"textHome": "Lately I've been enjoying this one puzzle game@where you box up cute characters."
					}
				]
			},
			{
				"chara": [
					{
						"id": 402250,
						"textHomeStatus": "Clear"
					}
				]
			}
		],
		"group_31": [
			{
				"autoTurnFirst": 6.0,
				"chara": [
					{
						"cheek": 0,
						"eyeClose": 0,
						"face": "mtn_ex_000.exp.json",
						"id": 402250,
						"motion": 1,
						"pos": 1,
						"voice": "vo_char_4022_50_39",
						"textHome": "I know a lot of young women,@but Elisa has a different air about her."
					}
				]
			},
			{
				"autoTurnFirst": 2.8,
				"chara": [
					{
						"id": 402250,
						"motion": 200,
						"textHome": "She's clearly accustomed to@telling other people what to do."
					}
				]
			},
			{
				"autoTurnFirst": 4.2,
				"chara": [
					{
						"cheek": 0,
						"face": "mtn_ex_010.exp.json",
						"id": 402250,
						"motion": 0
					}
				]
			},
			{
				"chara": [
					{
						"id": 402250,
						"textHomeStatus": "Clear"
					}
				]
			}
		],
		"group_32": [
			{
				"autoTurnFirst": 8.7,
				"chara": [
					{
						"cheek": 0,
						"eyeClose": 0,
						"face": "mtn_ex_000.exp.json",
						"id": 402250,
						"motion": 100,
						"pos": 1,
						"voice": "vo_char_4022_50_40",
						"textHome": "Melissa has been going to Saint la Pucelle@longer than any of us, partly because@her father is a teacher here."
					}
				]
			},
			{
				"autoTurnFirst": 5.3,
				"chara": [
					{
						"id": 402250,
						"motion": 300,
						"textHome": "I think she knows the school@better than any of us."
					}
				]
			},
			{
				"chara": [
					{
						"id": 402250,
						"textHomeStatus": "Clear"
					}
				]
			}
		],
		"group_33": [
			{
				"autoTurnFirst": 6.0,
				"chara": [
					{
						"cheek": 0,
						"eyeClose": 0,
						"face": "mtn_ex_030.exp.json",
						"id": 402250,
						"motion": 300,
						"pos": 1,
						"voice": "vo_char_4022_50_41",
						"textHome": "Tina...your edge seems a little dull lately,@are you alright?"
					}
				]
			},
			{
				"autoTurnFirst": 3.7,
				"chara": [
					{
						"cheek": 1,
						"face": "mtn_ex_050.exp.json",
						"id": 402250,
						"motion": 400,
						"textHome": "Ah, I've been overheard...!"
					}
				]
			},
			{
				"autoTurnFirst": 0.9,
				"chara": [
					{
						"cheek": 1,
						"face": "mtn_ex_030.exp.json",
						"id": 402250,
						"motion": 0,
						"textHome": "Tina is, well..."
					}
				]
			},
			{
				"autoTurnFirst": 1.0,
				"chara": [
					{
						"eyeClose": 1,
						"id": 402250
					}
				]
			},
			{
				"autoTurnFirst": 0.5,
				"chara": [
					{
						"eyeClose": 0,
						"id": 402250
					}
				]
			},
			{
				"autoTurnFirst": 4.9,
				"chara": [
					{
						"id": 402250,
						"motion": 100,
						"textHome": "...the name of@my favorite table knife..."
					}
				]
			},
			{
				"chara": [
					{
						"id": 402250,
						"textHomeStatus": "Clear"
					}
				]
			}
		],
		"group_34": [
			{
				"autoTurnFirst": 3.0,
				"chara": [
					{
						"cheek": 0,
						"eyeClose": 0,
						"face": "mtn_ex_000.exp.json",
						"id": 402200,
						"motion": 1,
						"pos": 1,
						"voice": "vo_char_4022_00_42"
					}
				]
			}
		],
		"group_35": [
			{
				"autoTurnFirst": 3.0,
				"chara": [
					{
						"cheek": 0,
						"eyeClose": 0,
						"face": "mtn_ex_000.exp.json",
						"id": 402200,
						"motion": 1,
						"pos": 1,
						"voice": "vo_char_4022_00_43"
					}
				]
			}
		],
		"group_36": [
			{
				"autoTurnFirst": 3.0,
				"chara": [
					{
						"cheek": 0,
						"eyeClose": 0,
						"face": "mtn_ex_000.exp.json",
						"id": 402200,
						"motion": 200,
						"pos": 1,
						"voice": "vo_char_4022_00_44"
					}
				]
			}
		],
		"group_37": [
			{
				"autoTurnFirst": 3.0,
				"chara": [
					{
						"cheek": 0,
						"eyeClose": 0,
						"face": "mtn_ex_000.exp.json",
						"id": 402200,
						"motion": 100,
						"pos": 1,
						"voice": "vo_char_4022_00_45"
					}
				]
			}
		],
		"group_38": [
			{
				"autoTurnFirst": 3.0,
				"chara": [
					{
						"cheek": 0,
						"eyeClose": 0,
						"face": "mtn_ex_020.exp.json",
						"id": 402200,
						"motion": 100,
						"pos": 1,
						"voice": "vo_char_4022_00_46"
					}
				]
			}
		],
		"group_39": [
			{
				"autoTurnFirst": 1.5,
				"chara": [
					{
						"cheek": 0,
						"eyeClose": 0,
						"face": "mtn_ex_000.exp.json",
						"id": 402200,
						"motion": 0,
						"pos": 1,
						"voice": "vo_char_4022_00_63"
					}
				]
			}
		],
		"group_4": [
			{
				"autoTurnFirst": 1.5,
				"chara": [
					{
						"cheek": 0,
						"eyeClose": 1,
						"face": "mtn_ex_000.exp.json",
						"id": 402200,
						"motion": 100,
						"pos": 1,
						"voice": "vo_char_4022_00_05"
					}
				]
			},
			{
				"autoTurnFirst": 3.5,
				"chara": [
					{
						"eyeClose": 0,
						"id": 402200
					}
				]
			}
		],
		"group_40": [
			{
				"autoTurnFirst": 2.0,
				"chara": [
					{
						"cheek": 0,
						"eyeClose": 0,
						"face": "mtn_ex_020.exp.json",
						"id": 402200,
						"motion": 200,
						"pos": 1,
						"voice": "vo_char_4022_00_64"
					}
				]
			}
		],
		"group_41": [
			{
				"autoTurnFirst": 3.0,
				"chara": [
					{
						"cheek": 0,
						"eyeClose": 0,
						"face": "mtn_ex_020.exp.json",
						"id": 402200,
						"motion": 1,
						"pos": 1,
						"voice": "vo_char_4022_00_65"
					}
				]
			}
		],
		"group_42": [
			{
				"autoTurnFirst": 1.0,
				"chara": [
					{
						"cheek": 0,
						"eyeClose": 0,
						"face": "mtn_ex_020.exp.json",
						"id": 402200,
						"motion": 0,
						"pos": 1,
						"voice": "vo_char_4022_00_66"
					}
				]
			},
			{
				"autoTurnFirst": 3.0,
				"chara": [
					{
						"id": 402200,
						"motion": 200
					}
				]
			}
		],
		"group_43": [
			{
				"autoTurnFirst": 4.5,
				"chara": [
					{
						"cheek": 0,
						"eyeClose": 0,
						"face": "mtn_ex_000.exp.json",
						"id": 402200,
						"motion": 0,
						"pos": 1,
						"voice": "vo_char_4022_00_02"
					}
				]
			},
			{
				"autoTurnFirst": 3.0,
				"chara": [
					{
						"cheek": 0,
						"face": "mtn_ex_050.exp.json",
						"id": 402200,
						"motion": 1
					}
				]
			},
			{
				"autoTurnFirst": 3.0,
				"chara": [
					{
						"cheek": 0,
						"id": 402200,
						"motion": 300
					}
				]
			},
			{
				"autoTurnFirst": 5.1,
				"chara": [
					{
						"cheek": 0,
						"face": "mtn_ex_000.exp.json",
						"id": 402200,
						"motion": 0
					}
				]
			}
		],
		"group_5": [
			{
				"autoTurnFirst": 1.5,
				"chara": [
					{
						"cheek": 0,
						"eyeClose": 0,
						"face": "mtn_ex_010.exp.json",
						"id": 402200,
						"motion": 0,
						"pos": 1,
						"voice": "vo_char_4022_00_13"
					}
				]
			},
			{
				"autoTurnFirst": 4.0,
				"chara": [
					{
						"id": 402200,
						"motion": 100
					}
				]
			}
		],
		"group_6": [
			{
				"autoTurnFirst": 2.0,
				"chara": [
					{
						"cheek": 1,
						"eyeClose": 0,
						"face": "mtn_ex_010.exp.json",
						"id": 402200,
						"motion": 0,
						"pos": 1,
						"voice": "vo_char_4022_00_14"
					}
				]
			},
			{
				"autoTurnFirst": 3.0,
				"chara": [
					{
						"id": 402200,
						"motion": 100
					}
				]
			}
		],
		"group_7": [
			{
				"autoTurnFirst": 6.0,
				"chara": [
					{
						"cheek": 0,
						"eyeClose": 0,
						"face": "mtn_ex_000.exp.json",
						"id": 402200,
						"motion": 100,
						"pos": 1,
						"voice": "vo_char_4022_00_15"
					}
				]
			}
		],
		"group_8": [
			{
				"autoTurnFirst": 6.0,
				"chara": [
					{
						"cheek": 0,
						"eyeClose": 0,
						"face": "mtn_ex_010.exp.json",
						"id": 402200,
						"motion": 1,
						"pos": 1,
						"voice": "vo_char_4022_00_16"
					}
				]
			},
			{
				"autoTurnFirst": 5.0,
				"chara": [
					{
						"eyeClose": 1,
						"id": 402200,
						"motion": 100
					}
				]
			}
		],
		"group_9": [
			{
				"autoTurnFirst": 6.5,
				"chara": [
					{
						"cheek": 0,
						"eyeClose": 0,
						"face": "mtn_ex_030.exp.json",
						"id": 402200,
						"motion": 300,
						"pos": 1,
						"voice": "vo_char_4022_00_17"
					}
				]
			},
			{
				"autoTurnFirst": 2.5,
				"chara": [
					{
						"id": 402200,
						"motion": 0
					}
				]
			},
			{
				"autoTurnFirst": 3.0,
				"chara": [
					{
						"id": 402200,
						"motion": 100
					}
				]
			}
		]
	},
	"version": 3
}