{
	"story": {
		"group_1": [
			{
				"autoTurnFirst": 1.5,
				"chara": [
					{
						"cheek": 0,
						"eyeClose": 0,
						"face": "mtn_ex_011.exp.json",
						"id": 412100,
						"motion": 0,
						"pos": 1,
						"voice": "vo_char_4121_00_01",
						"textHome": "The Eternal Queen rules all."
					}
				]
			},
			{
				"autoTurnFirst": 3.0,
				"chara": [
					{
						"id": 412100,
						"motion": 100
					}
				]
			},
			{
				"chara": [
					{
						"id": 412100,
						"textHomeStatus": "Clear"
					}
				]
			}
		],
		"group_10": [
			{
				"autoTurnFirst": 2.2,
				"chara": [
					{
						"cheek": 0,
						"eyeClose": 0,
						"face": "mtn_ex_011.exp.json",
						"id": 412100,
						"motion": 100,
						"pos": 1,
						"voice": "vo_char_4121_00_17",
						"textHome": "Europe, then all the world@in my hands...!"
					}
				]
			},
			{
				"autoTurnFirst": 3.0,
				"chara": [
					{
						"cheek": 0,
						"face": "mtn_ex_014.exp.json",
						"id": 412100,
						"motion": 200
					}
				]
			},
			{
				"chara": [
					{
						"id": 412100,
						"textHomeStatus": "Clear"
					}
				]
			}
		],
		"group_11": [
			{
				"autoTurnFirst": 2.6,
				"chara": [
					{
						"cheek": 0,
						"eyeClose": 0,
						"face": "mtn_ex_014.exp.json",
						"id": 412100,
						"motion": 400,
						"pos": 1,
						"voice": "vo_char_4121_00_18",
						"textHome": "The future, everything—@I will control all...!"
					}
				]
			},
			{
				"autoTurnFirst": 4.0,
				"chara": [
					{
						"id": 412100,
						"motion": 200
					}
				]
			},
			{
				"chara": [
					{
						"id": 412100,
						"textHomeStatus": "Clear"
					}
				]
			}
		],
		"group_12": [
			{
				"autoTurnFirst": 1.5,
				"chara": [
					{
						"cheek": 0,
						"eyeClose": 0,
						"face": "mtn_ex_014.exp.json",
						"id": 412100,
						"motion": 200,
						"pos": 1,
						"voice": "vo_char_4121_00_19",
						"textHome": "More power,@MORE power...!"
					}
				]
			},
			{
				"autoTurnFirst": 3.0,
				"chara": [
					{
						"cheek": 0,
						"face": "mtn_ex_011.exp.json",
						"id": 412100
					}
				]
			},
			{
				"chara": [
					{
						"id": 412100,
						"textHomeStatus": "Clear"
					}
				]
			}
		],
		"group_13": [
			{
				"autoTurnFirst": 5.0,
				"chara": [
					{
						"cheek": 2,
						"eyeClose": 0,
						"face": "mtn_ex_011.exp.json",
						"id": 412100,
						"motion": 100,
						"pos": 1,
						"voice": "vo_char_4121_00_20",
						"textHome": "Even more pleasure...!"
					}
				]
			},
			{
				"chara": [
					{
						"id": 412100,
						"textHomeStatus": "Clear"
					}
				]
			}
		],
		"group_14": [
			{
				"autoTurnFirst": 1.5,
				"chara": [
					{
						"cheek": 0,
						"eyeClose": 0,
						"face": "mtn_ex_010.exp.json",
						"id": 412100,
						"motion": 1,
						"pos": 1,
						"voice": "vo_char_4121_00_21",
						"textHome": "Shall I envelop the world in my love...?"
					}
				]
			},
			{
				"autoTurnFirst": 3.0,
				"chara": [
					{
						"cheek": 0,
						"face": "mtn_ex_011.exp.json",
						"id": 412100,
						"motion": 100
					}
				]
			},
			{
				"chara": [
					{
						"id": 412100,
						"textHomeStatus": "Clear"
					}
				]
			}
		],
		"group_15": [
			{
				"autoTurnFirst": 5.0,
				"chara": [
					{
						"cheek": 0,
						"eyeClose": 0,
						"face": "mtn_ex_014.exp.json",
						"id": 412100,
						"motion": 400,
						"pos": 1,
						"voice": "vo_char_4121_00_22",
						"textHome": "Kneel before Crépuscule de la Reine..."
					}
				]
			},
			{
				"chara": [
					{
						"id": 412100,
						"textHomeStatus": "Clear"
					}
				]
			}
		],
		"group_16": [
			{
				"autoTurnFirst": 5.0,
				"chara": [
					{
						"cheek": 0,
						"eyeClose": 0,
						"face": "mtn_ex_011.exp.json",
						"id": 412100,
						"motion": 200,
						"pos": 1,
						"voice": "vo_char_4121_00_23"
					}
				]
			}
		],
		"group_17": [
			{
				"autoTurnFirst": 1.0,
				"chara": [
					{
						"cheek": 0,
						"eyeClose": 0,
						"face": "mtn_ex_010.exp.json",
						"id": 412100,
						"motion": 100,
						"pos": 1,
						"voice": "vo_char_4121_00_24",
						"textHome": "Now, come."
					}
				]
			},
			{
				"autoTurnFirst": 3.0,
				"chara": [
					{
						"cheek": 0,
						"face": "mtn_ex_011.exp.json",
						"id": 412100
					}
				]
			},
			{
				"chara": [
					{
						"id": 412100,
						"textHomeStatus": "Clear"
					}
				]
			}
		],
		"group_18": [
			{
				"autoTurnFirst": 1.0,
				"chara": [
					{
						"cheek": 0,
						"eyeClose": 1,
						"face": "mtn_ex_020.exp.json",
						"id": 412100,
						"motion": 0,
						"pos": 1,
						"voice": "vo_char_4121_00_25",
						"textHome": "That wretched light has come again..."
					}
				]
			},
			{
				"autoTurnFirst": 3.0,
				"chara": [
					{
						"eyeClose": 0,
						"id": 412100
					}
				]
			},
			{
				"chara": [
					{
						"id": 412100,
						"textHomeStatus": "Clear"
					}
				]
			}
		],
		"group_19": [
			{
				"autoTurnFirst": 1.9,
				"chara": [
					{
						"cheek": 0,
						"eyeClose": 0,
						"face": "mtn_ex_000.exp.json",
						"id": 412100,
						"motion": 400,
						"pos": 1,
						"voice": "vo_char_4121_00_26",
						"textHome": "That brilliant light@will soon be snuffed out...!"
					}
				]
			},
			{
				"autoTurnFirst": 3.0,
				"chara": [
					{
						"cheek": 0,
						"face": "mtn_ex_014.exp.json",
						"id": 412100
					}
				]
			},
			{
				"chara": [
					{
						"id": 412100,
						"textHomeStatus": "Clear"
					}
				]
			}
		],
		"group_2": [
			{
				"autoTurnFirst": 1.0,
				"chara": [
					{
						"cheek": 1,
						"eyeClose": 0,
						"face": "mtn_ex_014.exp.json",
						"id": 412100,
						"motion": 0,
						"pos": 1,
						"voice": "vo_char_4121_00_02",
						"textHome": "Mort...@MORT...!"
					}
				]
			},
			{
				"autoTurnFirst": 3.0,
				"chara": [
					{
						"id": 412100,
						"motion": 400
					}
				]
			},
			{
				"chara": [
					{
						"id": 412100,
						"textHomeStatus": "Clear"
					}
				]
			}
		],
		"group_20": [
			{
				"autoTurnFirst": 2.6,
				"chara": [
					{
						"cheek": 0,
						"eyeClose": 0,
						"face": "mtn_ex_014.exp.json",
						"id": 412100,
						"motion": 100,
						"pos": 1,
						"voice": "vo_char_4121_00_27",
						"textHome": "Worship the twilight...@The deepest darkness...!"
					}
				]
			},
			{
				"autoTurnFirst": 4.0,
				"chara": [
					{
						"id": 412100,
						"motion": 400
					}
				]
			},
			{
				"chara": [
					{
						"id": 412100,
						"textHomeStatus": "Clear"
					}
				]
			}
		],
		"group_21": [
			{
				"autoTurnFirst": 5.0,
				"chara": [
					{
						"cheek": 0,
						"eyeClose": 0,
						"face": "mtn_ex_011.exp.json",
						"id": 412100,
						"motion": 100,
						"pos": 1,
						"voice": "vo_char_4121_00_28",
						"textHome": "And so, darkness will cover all..."
					}
				]
			},
			{
				"chara": [
					{
						"id": 412100,
						"textHomeStatus": "Clear"
					}
				]
			}
		],
		"group_22": [
			{
				"autoTurnFirst": 2.0,
				"chara": [
					{
						"cheek": 0,
						"eyeClose": 0,
						"face": "mtn_ex_011.exp.json",
						"id": 412100,
						"motion": 200,
						"pos": 1,
						"voice": "vo_char_4121_00_29",
						"textHome": "Ahh, MORE power!@MORE authority...!"
					}
				]
			},
			{
				"autoTurnFirst": 3.0,
				"chara": [
					{
						"cheek": 0,
						"face": "mtn_ex_014.exp.json",
						"id": 412100
					}
				]
			},
			{
				"chara": [
					{
						"id": 412100,
						"textHomeStatus": "Clear"
					}
				]
			}
		],
		"group_23": [
			{
				"autoTurnFirst": 5.0,
				"chara": [
					{
						"cheek": 0,
						"eyeClose": 0,
						"face": "mtn_ex_010.exp.json",
						"id": 412100,
						"motion": 100,
						"pos": 1,
						"voice": "vo_char_4121_00_30",
						"textHome": "Serve, for my sake."
					}
				]
			},
			{
				"chara": [
					{
						"id": 412100,
						"textHomeStatus": "Clear"
					}
				]
			}
		],
		"group_24": [
			{
				"autoTurnFirst": 5.0,
				"chara": [
					{
						"cheek": 0,
						"eyeClose": 0,
						"face": "mtn_ex_011.exp.json",
						"id": 412100,
						"motion": 400,
						"pos": 1,
						"voice": "vo_char_4121_00_31",
						"textHome": "Struggle, and offer up your blood."
					}
				]
			},
			{
				"chara": [
					{
						"id": 412100,
						"textHomeStatus": "Clear"
					}
				]
			}
		],
		"group_25": [
			{
				"autoTurnFirst": 1.5,
				"chara": [
					{
						"cheek": 0,
						"eyeClose": 0,
						"face": "mtn_ex_011.exp.json",
						"id": 412100,
						"motion": 200,
						"pos": 1,
						"voice": "vo_char_4121_00_32"
					}
				]
			},
			{
				"autoTurnFirst": 3.0,
				"chara": [
					{
						"cheek": 0,
						"face": "mtn_ex_014.exp.json",
						"id": 412100
					}
				]
			}
		],
		"group_26": [
			{
				"autoTurnFirst": 1.5,
				"chara": [
					{
						"cheek": 0,
						"eyeClose": 0,
						"face": "mtn_ex_010.exp.json",
						"id": 412100,
						"motion": 100,
						"pos": 1,
						"voice": "vo_char_4121_00_33",
						"textHome": "Allow me to give you my sweet embrace."
					}
				]
			},
			{
				"autoTurnFirst": 3.0,
				"chara": [
					{
						"cheek": 0,
						"face": "mtn_ex_011.exp.json",
						"id": 412100
					}
				]
			},
			{
				"chara": [
					{
						"id": 412100,
						"textHomeStatus": "Clear"
					}
				]
			}
		],
		"group_27": [
			{
				"autoTurnFirst": 1.5,
				"chara": [
					{
						"cheek": 0,
						"eyeClose": 0,
						"face": "mtn_ex_010.exp.json",
						"id": 412100,
						"motion": 0,
						"pos": 1,
						"voice": "vo_char_4121_00_34",
						"textHome": "Blessed be my dominion."
					}
				]
			},
			{
				"autoTurnFirst": 3.0,
				"chara": [
					{
						"id": 412100,
						"motion": 400
					}
				]
			},
			{
				"chara": [
					{
						"id": 412100,
						"textHomeStatus": "Clear"
					}
				]
			}
		],
		"group_28": [
			{
				"autoTurnFirst": 2.2,
				"chara": [
					{
						"cheek": 0,
						"eyeClose": 0,
						"face": "mtn_ex_000.exp.json",
						"id": 412100,
						"motion": 0,
						"pos": 1,
						"voice": "vo_char_4121_00_35",
						"textHome": "With endless pleasure at my fingertips..."
					}
				]
			},
			{
				"autoTurnFirst": 3.0,
				"chara": [
					{
						"cheek": 0,
						"face": "mtn_ex_011.exp.json",
						"id": 412100,
						"motion": 200
					}
				]
			},
			{
				"chara": [
					{
						"id": 412100,
						"textHomeStatus": "Clear"
					}
				]
			}
		],
		"group_29": [
			{
				"autoTurnFirst": 1.8,
				"chara": [
					{
						"cheek": 0,
						"eyeClose": 0,
						"face": "mtn_ex_010.exp.json",
						"id": 412100,
						"motion": 100,
						"pos": 1,
						"voice": "vo_char_4121_00_36",
						"textHome": "Surrender to that which you thirst for."
					}
				]
			},
			{
				"autoTurnFirst": 3.0,
				"chara": [
					{
						"cheek": 0,
						"face": "mtn_ex_014.exp.json",
						"id": 412100
					}
				]
			},
			{
				"chara": [
					{
						"id": 412100,
						"textHomeStatus": "Clear"
					}
				]
			}
		],
		"group_3": [
			{
				"autoTurnFirst": 2.0,
				"chara": [
					{
						"cheek": 0,
						"eyeClose": 0,
						"face": "mtn_ex_014.exp.json",
						"id": 412100,
						"motion": 0,
						"pos": 1,
						"voice": "vo_char_4121_00_03"
					}
				]
			},
			{
				"autoTurnFirst": 4.0,
				"chara": [
					{
						"id": 412100,
						"motion": 200
					}
				]
			}
		],
		"group_30": [
			{
				"autoTurnFirst": 1.0,
				"chara": [
					{
						"cheek": 0,
						"eyeClose": 1,
						"face": "mtn_ex_011.exp.json",
						"id": 412100,
						"motion": 0,
						"pos": 1,
						"voice": "vo_char_4121_00_37",
						"textHome": "The future will be plunged into darkness."
					}
				]
			},
			{
				"autoTurnFirst": 0.2,
				"chara": [
					{
						"eyeClose": 0,
						"id": 412100
					}
				]
			},
			{
				"autoTurnFirst": 4.0,
				"chara": [
					{
						"id": 412100,
						"motion": 100
					}
				]
			},
			{
				"chara": [
					{
						"id": 412100,
						"textHomeStatus": "Clear"
					}
				]
			}
		],
		"group_31": [
			{
				"autoTurnFirst": 1.7,
				"chara": [
					{
						"cheek": 0,
						"eyeClose": 0,
						"face": "mtn_ex_020.exp.json",
						"id": 412100,
						"motion": 0,
						"pos": 1,
						"voice": "vo_char_4121_00_38",
						"textHome": "False prophecy be damned!"
					}
				]
			},
			{
				"autoTurnFirst": 3.0,
				"chara": [
					{
						"id": 412100,
						"motion": 400
					}
				]
			},
			{
				"chara": [
					{
						"id": 412100,
						"textHomeStatus": "Clear"
					}
				]
			}
		],
		"group_32": [
			{
				"autoTurnFirst": 2.3,
				"chara": [
					{
						"cheek": 0,
						"eyeClose": 0,
						"face": "mtn_ex_010.exp.json",
						"id": 412100,
						"motion": 100,
						"pos": 1,
						"voice": "vo_char_4121_00_39",
						"textHome": "Blessed be the future@for my dear daughters."
					}
				]
			},
			{
				"autoTurnFirst": 3.0,
				"chara": [
					{
						"cheek": 0,
						"face": "mtn_ex_014.exp.json",
						"id": 412100
					}
				]
			},
			{
				"chara": [
					{
						"id": 412100,
						"textHomeStatus": "Clear"
					}
				]
			}
		],
		"group_33": [
			{
				"autoTurnFirst": 2.0,
				"chara": [
					{
						"cheek": 0,
						"eyeClose": 0,
						"face": "mtn_ex_020.exp.json",
						"id": 412100,
						"motion": 100,
						"pos": 1,
						"voice": "vo_char_4121_00_40",
						"textHome": "I fear the light birthed@from that remote region..."
					}
				]
			},
			{
				"autoTurnFirst": 3.0,
				"chara": [
					{
						"cheek": 0,
						"face": "mtn_ex_000.exp.json",
						"id": 412100
					}
				]
			},
			{
				"chara": [
					{
						"id": 412100,
						"textHomeStatus": "Clear"
					}
				]
			}
		],
		"group_34": [
			{
				"autoTurnFirst": 2.0,
				"chara": [
					{
						"cheek": 0,
						"eyeClose": 0,
						"face": "mtn_ex_000.exp.json",
						"id": 412100,
						"motion": 400,
						"pos": 1,
						"voice": "vo_char_4121_00_41",
						"textHome": "Make a contract,@and give up your soul to me..."
					}
				]
			},
			{
				"autoTurnFirst": 3.0,
				"chara": [
					{
						"cheek": 0,
						"face": "mtn_ex_014.exp.json",
						"id": 412100,
						"motion": 0
					}
				]
			},
			{
				"chara": [
					{
						"id": 412100,
						"textHomeStatus": "Clear"
					}
				]
			}
		],
		"group_35": [
			{
				"autoTurnFirst": 5.0,
				"chara": [
					{
						"cheek": 0,
						"eyeClose": 0,
						"face": "mtn_ex_010.exp.json",
						"id": 412100,
						"motion": 0,
						"pos": 1,
						"voice": "vo_char_4121_00_42",
						"textHome": "Viens içi...@Come..."
					}
				]
			},
			{
				"chara": [
					{
						"id": 412100,
						"textHomeStatus": "Clear"
					}
				]
			}
		],
		"group_36": [
			{
				"autoTurnFirst": 4.0,
				"chara": [
					{
						"cheek": 0,
						"eyeClose": 0,
						"face": "mtn_ex_030.exp.json",
						"id": 412100,
						"motion": 400,
						"pos": 1,
						"voice": "vo_char_4121_00_43",
						"textHome": "The pleasures...of death..."
					}
				]
			},
			{
				"chara": [
					{
						"id": 412100,
						"textHomeStatus": "Clear"
					}
				]
			}
		],
		"group_37": [
			{
				"autoTurnFirst": 5.0,
				"chara": [
					{
						"cheek": 0,
						"eyeClose": 0,
						"face": "mtn_ex_011.exp.json",
						"id": 412100,
						"motion": 200,
						"pos": 1,
						"voice": "vo_char_4121_00_44",
						"textHome": "I want...everything you possess..."
					}
				]
			},
			{
				"chara": [
					{
						"id": 412100,
						"textHomeStatus": "Clear"
					}
				]
			}
		],
		"group_38": [
			{
				"autoTurnFirst": 5.0,
				"chara": [
					{
						"cheek": 0,
						"eyeClose": 0,
						"face": "mtn_ex_011.exp.json",
						"id": 412100,
						"motion": 400,
						"pos": 1,
						"voice": "vo_char_4121_00_45",
						"textHome": "Anything you desire...anything you want..."
					}
				]
			},
			{
				"chara": [
					{
						"id": 412100,
						"textHomeStatus": "Clear"
					}
				]
			}
		],
		"group_39": [
			{
				"autoTurnFirst": 5.0,
				"chara": [
					{
						"cheek": 0,
						"eyeClose": 0,
						"face": "mtn_ex_014.exp.json",
						"id": 412100,
						"motion": 200,
						"pos": 1,
						"voice": "vo_char_4121_00_46",
						"textHome": "Give me...everything."
					}
				]
			},
			{
				"chara": [
					{
						"id": 412100,
						"textHomeStatus": "Clear"
					}
				]
			}
		],
		"group_4": [
			{
				"autoTurnFirst": 5.0,
				"chara": [
					{
						"cheek": 0,
						"eyeClose": 0,
						"face": "mtn_ex_010.exp.json",
						"id": 412100,
						"motion": 0,
						"pos": 1,
						"voice": "vo_char_4121_00_04"
					}
				]
			}
		],
		"group_5": [
			{
				"autoTurnFirst": 2.2,
				"chara": [
					{
						"cheek": 0,
						"eyeClose": 1,
						"face": "mtn_ex_010.exp.json",
						"id": 412100,
						"motion": 1,
						"pos": 1,
						"voice": "vo_char_4121_00_05"
					}
				]
			},
			{
				"autoTurnFirst": 0.2,
				"chara": [
					{
						"eyeClose": 0,
						"id": 412100
					}
				]
			},
			{
				"autoTurnFirst": 2.2,
				"chara": [
					{
						"id": 412100,
						"motion": 400
					}
				]
			},
			{
				"autoTurnFirst": 4.0,
				"chara": [
					{
						"cheek": 0,
						"face": "mtn_ex_011.exp.json",
						"id": 412100
					}
				]
			}
		],
		"group_6": [
			{
				"autoTurnFirst": 0.8,
				"chara": [
					{
						"cheek": 0,
						"eyeClose": 0,
						"face": "mtn_ex_014.exp.json",
						"id": 412100,
						"motion": 0,
						"pos": 1,
						"voice": "vo_char_4121_00_13",
						"textHome": "Offer me...more!"
					}
				]
			},
			{
				"autoTurnFirst": 3.0,
				"chara": [
					{
						"id": 412100,
						"motion": 400
					}
				]
			},
			{
				"chara": [
					{
						"id": 412100,
						"textHomeStatus": "Clear"
					}
				]
			}
		],
		"group_7": [
			{
				"autoTurnFirst": 5.0,
				"chara": [
					{
						"cheek": 0,
						"eyeClose": 0,
						"face": "mtn_ex_014.exp.json",
						"id": 412100,
						"motion": 100,
						"pos": 1,
						"voice": "vo_char_4121_00_14",
						"textHome": "Drown in the ultimate pleasure...!"
					}
				]
			},
			{
				"chara": [
					{
						"id": 412100,
						"textHomeStatus": "Clear"
					}
				]
			}
		],
		"group_8": [
			{
				"autoTurnFirst": 1.5,
				"chara": [
					{
						"cheek": 0,
						"eyeClose": 0,
						"face": "mtn_ex_011.exp.json",
						"id": 412100,
						"motion": 100,
						"pos": 1,
						"voice": "vo_char_4121_00_15",
						"textHome": "Come and reign with me."
					}
				]
			},
			{
				"autoTurnFirst": 3.0,
				"chara": [
					{
						"cheek": 0,
						"face": "mtn_ex_014.exp.json",
						"id": 412100
					}
				]
			},
			{
				"chara": [
					{
						"id": 412100,
						"textHomeStatus": "Clear"
					}
				]
			}
		],
		"group_9": [
			{
				"autoTurnFirst": 1.5,
				"chara": [
					{
						"cheek": 0,
						"eyeClose": 0,
						"face": "mtn_ex_011.exp.json",
						"id": 412100,
						"motion": 0,
						"pos": 1,
						"voice": "vo_char_4121_00_16",
						"textHome": "The sole, cruel ruler."
					}
				]
			},
			{
				"autoTurnFirst": 3.0,
				"chara": [
					{
						"id": 412100,
						"motion": 400
					}
				]
			},
			{
				"chara": [
					{
						"id": 412100,
						"textHomeStatus": "Clear"
					}
				]
			}
		]
	},
	"version": 3
}